[2022-08-02T19:30:38:1659448838 IST+0530] INFO [uvicorn.error.shutdown:103] Stopping reloader process [2452]
[2022-08-02T19:30:44:1659448844 IST+0530] INFO [root.__init_application:29] creating API service and Web Site
[2022-08-02T19:30:44:1659448844 IST+0530] INFO [root.__init_routes:19] initializing all routes
[2022-08-02T19:30:44:1659448844 IST+0530] INFO [uvicorn.error.serve:75] Started server process [2471]
[2022-08-02T19:30:44:1659448844 IST+0530] INFO [uvicorn.error.startup:47] Waiting for application startup.
[2022-08-02T19:30:45:1659448845 IST+0530] INFO [sqlalchemy.engine.Engine._execute_context:1772] select pg_catalog.version()
[2022-08-02T19:30:45:1659448845 IST+0530] INFO [sqlalchemy.engine.Engine._execute_context:1777] [raw sql] ()
[2022-08-02T19:30:45:1659448845 IST+0530] INFO [sqlalchemy.engine.Engine._execute_context:1772] select current_schema()
[2022-08-02T19:30:45:1659448845 IST+0530] INFO [sqlalchemy.engine.Engine._execute_context:1777] [raw sql] ()
[2022-08-02T19:30:45:1659448845 IST+0530] INFO [sqlalchemy.engine.Engine._execute_context:1772] show standard_conforming_strings
[2022-08-02T19:30:45:1659448845 IST+0530] INFO [sqlalchemy.engine.Engine._execute_context:1777] [raw sql] ()
[2022-08-02T19:30:45:1659448845 IST+0530] INFO [sqlalchemy.engine.Engine._begin_impl:953] BEGIN (implicit)
[2022-08-02T19:30:45:1659448845 IST+0530] INFO [sqlalchemy.engine.Engine._execute_context:1772] select relname from pg_class c join pg_namespace n on n.oid=c.relnamespace where pg_catalog.pg_table_is_visible(c.oid) and relname=%s
[2022-08-02T19:30:45:1659448845 IST+0530] INFO [sqlalchemy.engine.Engine._execute_context:1777] [generated in 0.00086s] ('tbl_users',)
[2022-08-02T19:30:46:1659448846 IST+0530] INFO [sqlalchemy.engine.Engine._execute_context:1772] select relname from pg_class c join pg_namespace n on n.oid=c.relnamespace where pg_catalog.pg_table_is_visible(c.oid) and relname=%s
[2022-08-02T19:30:46:1659448846 IST+0530] INFO [sqlalchemy.engine.Engine._execute_context:1777] [cached since 0.2345s ago] ('tbl_userlog',)
[2022-08-02T19:30:46:1659448846 IST+0530] INFO [sqlalchemy.engine.Engine._execute_context:1772] select relname from pg_class c join pg_namespace n on n.oid=c.relnamespace where pg_catalog.pg_table_is_visible(c.oid) and relname=%s
[2022-08-02T19:30:46:1659448846 IST+0530] INFO [sqlalchemy.engine.Engine._execute_context:1777] [cached since 0.2919s ago] ('tbl_invalid_tokens',)
[2022-08-02T19:30:46:1659448846 IST+0530] INFO [sqlalchemy.engine.Engine._commit_impl:1013] COMMIT
[2022-08-02T19:30:46:1659448846 IST+0530] INFO [uvicorn.error.startup:61] Application startup complete.
[2022-08-02T19:30:46:1659448846 IST+0530] INFO [uvicorn.error._log_started_message:207] Uvicorn running on http://127.0.0.1:9091 (Press CTRL+C to quit)
[2022-08-02T19:32:07:1659448927 IST+0530] INFO [uvicorn.error.shutdown:253] Shutting down
[2022-08-02T19:32:07:1659448927 IST+0530] INFO [uvicorn.error.shutdown:66] Waiting for application shutdown.
[2022-08-02T19:32:07:1659448927 IST+0530] INFO [uvicorn.error.shutdown:77] Application shutdown complete.
[2022-08-02T19:32:07:1659448927 IST+0530] INFO [uvicorn.error.serve:85] Finished server process [2471]
[2022-08-02T19:32:16:1659448936 IST+0530] INFO [root.__init_application:29] creating API service and Web Site
[2022-08-02T19:32:16:1659448936 IST+0530] INFO [root.__init_routes:19] initializing all routes
[2022-08-02T19:32:16:1659448936 IST+0530] INFO [uvicorn.error.serve:75] Started server process [2532]
[2022-08-02T19:32:16:1659448936 IST+0530] INFO [uvicorn.error.startup:47] Waiting for application startup.
[2022-08-02T19:32:18:1659448938 IST+0530] INFO [sqlalchemy.engine.Engine._execute_context:1772] select pg_catalog.version()
[2022-08-02T19:32:18:1659448938 IST+0530] INFO [sqlalchemy.engine.Engine._execute_context:1777] [raw sql] ()
[2022-08-02T19:32:18:1659448938 IST+0530] INFO [sqlalchemy.engine.Engine._execute_context:1772] select current_schema()
[2022-08-02T19:32:18:1659448938 IST+0530] INFO [sqlalchemy.engine.Engine._execute_context:1777] [raw sql] ()
[2022-08-02T19:32:18:1659448938 IST+0530] INFO [sqlalchemy.engine.Engine._execute_context:1772] show standard_conforming_strings
[2022-08-02T19:32:18:1659448938 IST+0530] INFO [sqlalchemy.engine.Engine._execute_context:1777] [raw sql] ()
[2022-08-02T19:32:18:1659448938 IST+0530] INFO [sqlalchemy.engine.Engine._begin_impl:953] BEGIN (implicit)
[2022-08-02T19:32:18:1659448938 IST+0530] INFO [sqlalchemy.engine.Engine._execute_context:1772] select relname from pg_class c join pg_namespace n on n.oid=c.relnamespace where pg_catalog.pg_table_is_visible(c.oid) and relname=%s
[2022-08-02T19:32:18:1659448938 IST+0530] INFO [sqlalchemy.engine.Engine._execute_context:1777] [generated in 0.00099s] ('tbl_users',)
[2022-08-02T19:32:18:1659448938 IST+0530] INFO [sqlalchemy.engine.Engine._execute_context:1772] select relname from pg_class c join pg_namespace n on n.oid=c.relnamespace where pg_catalog.pg_table_is_visible(c.oid) and relname=%s
[2022-08-02T19:32:18:1659448938 IST+0530] INFO [sqlalchemy.engine.Engine._execute_context:1777] [cached since 0.2305s ago] ('tbl_userlog',)
[2022-08-02T19:32:19:1659448939 IST+0530] INFO [sqlalchemy.engine.Engine._execute_context:1772] select relname from pg_class c join pg_namespace n on n.oid=c.relnamespace where pg_catalog.pg_table_is_visible(c.oid) and relname=%s
[2022-08-02T19:32:19:1659448939 IST+0530] INFO [sqlalchemy.engine.Engine._execute_context:1777] [cached since 0.2846s ago] ('tbl_invalid_tokens',)
[2022-08-02T19:32:19:1659448939 IST+0530] INFO [sqlalchemy.engine.Engine._commit_impl:1013] COMMIT
[2022-08-02T19:32:19:1659448939 IST+0530] INFO [uvicorn.error.startup:61] Application startup complete.
[2022-08-02T19:32:19:1659448939 IST+0530] INFO [uvicorn.error._log_started_message:207] Uvicorn running on http://127.0.0.1:9091 (Press CTRL+C to quit)
[2022-08-02T19:32:38:1659448958 IST+0530] INFO [uvicorn.error.shutdown:253] Shutting down
[2022-08-02T19:32:38:1659448958 IST+0530] INFO [uvicorn.error.shutdown:66] Waiting for application shutdown.
[2022-08-02T19:32:38:1659448958 IST+0530] INFO [uvicorn.error.shutdown:77] Application shutdown complete.
[2022-08-02T19:32:38:1659448958 IST+0530] INFO [uvicorn.error.serve:85] Finished server process [2532]
[2022-08-02T19:33:07:1659448987 IST+0530] INFO [root.__init_application:29] creating API service and Web Site
[2022-08-02T19:33:07:1659448987 IST+0530] INFO [root.__init_routes:19] initializing all routes
[2022-08-02T19:33:07:1659448987 IST+0530] INFO [uvicorn.error.serve:75] Started server process [2582]
[2022-08-02T19:33:07:1659448987 IST+0530] INFO [uvicorn.error.startup:47] Waiting for application startup.
[2022-08-02T19:33:08:1659448988 IST+0530] INFO [sqlalchemy.engine.Engine._execute_context:1772] select pg_catalog.version()
[2022-08-02T19:33:08:1659448988 IST+0530] INFO [sqlalchemy.engine.Engine._execute_context:1777] [raw sql] ()
[2022-08-02T19:33:08:1659448988 IST+0530] INFO [sqlalchemy.engine.Engine._execute_context:1772] select current_schema()
[2022-08-02T19:33:08:1659448988 IST+0530] INFO [sqlalchemy.engine.Engine._execute_context:1777] [raw sql] ()
[2022-08-02T19:33:08:1659448988 IST+0530] INFO [sqlalchemy.engine.Engine._execute_context:1772] show standard_conforming_strings
[2022-08-02T19:33:08:1659448988 IST+0530] INFO [sqlalchemy.engine.Engine._execute_context:1777] [raw sql] ()
[2022-08-02T19:33:09:1659448989 IST+0530] INFO [sqlalchemy.engine.Engine._begin_impl:953] BEGIN (implicit)
[2022-08-02T19:33:09:1659448989 IST+0530] INFO [sqlalchemy.engine.Engine._execute_context:1772] select relname from pg_class c join pg_namespace n on n.oid=c.relnamespace where pg_catalog.pg_table_is_visible(c.oid) and relname=%s
[2022-08-02T19:33:09:1659448989 IST+0530] INFO [sqlalchemy.engine.Engine._execute_context:1777] [generated in 0.00074s] ('tbl_users',)
[2022-08-02T19:33:09:1659448989 IST+0530] INFO [sqlalchemy.engine.Engine._execute_context:1772] select relname from pg_class c join pg_namespace n on n.oid=c.relnamespace where pg_catalog.pg_table_is_visible(c.oid) and relname=%s
[2022-08-02T19:33:09:1659448989 IST+0530] INFO [sqlalchemy.engine.Engine._execute_context:1777] [cached since 0.2309s ago] ('tbl_userlog',)
[2022-08-02T19:33:09:1659448989 IST+0530] INFO [sqlalchemy.engine.Engine._execute_context:1772] select relname from pg_class c join pg_namespace n on n.oid=c.relnamespace where pg_catalog.pg_table_is_visible(c.oid) and relname=%s
[2022-08-02T19:33:09:1659448989 IST+0530] INFO [sqlalchemy.engine.Engine._execute_context:1777] [cached since 0.2896s ago] ('tbl_invalid_tokens',)
[2022-08-02T19:33:09:1659448989 IST+0530] INFO [sqlalchemy.engine.Engine._commit_impl:1013] COMMIT
[2022-08-02T19:33:09:1659448989 IST+0530] INFO [uvicorn.error.startup:61] Application startup complete.
[2022-08-02T19:33:09:1659448989 IST+0530] INFO [uvicorn.error._log_started_message:207] Uvicorn running on http://127.0.0.1:9091 (Press CTRL+C to quit)
[2022-08-02T19:34:09:1659449049 IST+0530] INFO [uvicorn.error.shutdown:253] Shutting down
[2022-08-02T19:34:09:1659449049 IST+0530] INFO [uvicorn.error.shutdown:66] Waiting for application shutdown.
[2022-08-02T19:34:09:1659449049 IST+0530] INFO [uvicorn.error.shutdown:77] Application shutdown complete.
[2022-08-02T19:34:09:1659449049 IST+0530] INFO [uvicorn.error.serve:85] Finished server process [2582]
[2022-08-02T19:34:14:1659449054 IST+0530] INFO [root.__init_application:29] creating API service and Web Site
[2022-08-02T19:34:14:1659449054 IST+0530] INFO [root.__init_routes:19] initializing all routes
[2022-08-02T19:34:14:1659449054 IST+0530] INFO [uvicorn.error.__init__:359] Will watch for changes in these directories: ['/home/p_116749/projects/python/americana/idp']
[2022-08-02T19:34:14:1659449054 IST+0530] INFO [uvicorn.error.bind_socket:585] Uvicorn running on http://0.0.0.0:9091 (Press CTRL+C to quit)
[2022-08-02T19:34:14:1659449054 IST+0530] INFO [uvicorn.error.startup:72] Started reloader process [2611] using StatReload
[2022-08-02T19:34:14:1659449054 IST+0530] INFO [root.__init_application:29] creating API service and Web Site
[2022-08-02T19:34:14:1659449054 IST+0530] INFO [root.__init_routes:19] initializing all routes
[2022-08-02T19:34:14:1659449054 IST+0530] DEBUG [asyncio.__init__:59] Using selector: EpollSelector
[2022-08-02T19:34:14:1659449054 IST+0530] INFO [root.__init_application:29] creating API service and Web Site
[2022-08-02T19:34:14:1659449054 IST+0530] INFO [root.__init_routes:19] initializing all routes
[2022-08-02T19:34:14:1659449054 IST+0530] INFO [uvicorn.error.serve:75] Started server process [2613]
[2022-08-02T19:34:14:1659449054 IST+0530] INFO [uvicorn.error.startup:47] Waiting for application startup.
[2022-08-02T19:34:16:1659449056 IST+0530] INFO [sqlalchemy.engine.Engine._execute_context:1772] select pg_catalog.version()
[2022-08-02T19:34:16:1659449056 IST+0530] INFO [sqlalchemy.engine.Engine._execute_context:1777] [raw sql] ()
[2022-08-02T19:34:16:1659449056 IST+0530] INFO [sqlalchemy.engine.Engine._execute_context:1772] select current_schema()
[2022-08-02T19:34:16:1659449056 IST+0530] INFO [sqlalchemy.engine.Engine._execute_context:1777] [raw sql] ()
[2022-08-02T19:34:16:1659449056 IST+0530] INFO [sqlalchemy.engine.Engine._execute_context:1772] show standard_conforming_strings
[2022-08-02T19:34:16:1659449056 IST+0530] INFO [sqlalchemy.engine.Engine._execute_context:1777] [raw sql] ()
[2022-08-02T19:34:16:1659449056 IST+0530] INFO [sqlalchemy.engine.Engine._begin_impl:953] BEGIN (implicit)
[2022-08-02T19:34:16:1659449056 IST+0530] INFO [sqlalchemy.engine.Engine._execute_context:1772] select relname from pg_class c join pg_namespace n on n.oid=c.relnamespace where pg_catalog.pg_table_is_visible(c.oid) and relname=%s
[2022-08-02T19:34:16:1659449056 IST+0530] INFO [sqlalchemy.engine.Engine._execute_context:1777] [generated in 0.00070s] ('tbl_users',)
[2022-08-02T19:34:16:1659449056 IST+0530] INFO [sqlalchemy.engine.Engine._execute_context:1772] select relname from pg_class c join pg_namespace n on n.oid=c.relnamespace where pg_catalog.pg_table_is_visible(c.oid) and relname=%s
[2022-08-02T19:34:16:1659449056 IST+0530] INFO [sqlalchemy.engine.Engine._execute_context:1777] [cached since 0.2183s ago] ('tbl_userlog',)
[2022-08-02T19:34:16:1659449056 IST+0530] INFO [sqlalchemy.engine.Engine._execute_context:1772] select relname from pg_class c join pg_namespace n on n.oid=c.relnamespace where pg_catalog.pg_table_is_visible(c.oid) and relname=%s
[2022-08-02T19:34:16:1659449056 IST+0530] INFO [sqlalchemy.engine.Engine._execute_context:1777] [cached since 0.2748s ago] ('tbl_invalid_tokens',)
[2022-08-02T19:34:17:1659449057 IST+0530] INFO [sqlalchemy.engine.Engine._commit_impl:1013] COMMIT
[2022-08-02T19:34:17:1659449057 IST+0530] INFO [uvicorn.error.startup:61] Application startup complete.
[2022-08-02T19:35:00:1659449100 IST+0530] WARNING [uvicorn.error.run:47] StatReload detected changes in 'src/controller/version1/auth_controller.py'. Reloading...
[2022-08-02T19:35:00:1659449100 IST+0530] INFO [uvicorn.error.shutdown:253] Shutting down
[2022-08-02T19:35:00:1659449100 IST+0530] INFO [uvicorn.error.shutdown:66] Waiting for application shutdown.
[2022-08-02T19:35:00:1659449100 IST+0530] INFO [uvicorn.error.shutdown:77] Application shutdown complete.
[2022-08-02T19:35:00:1659449100 IST+0530] INFO [uvicorn.error.serve:85] Finished server process [2613]
[2022-08-02T19:35:00:1659449100 IST+0530] INFO [root.__init_application:29] creating API service and Web Site
[2022-08-02T19:35:00:1659449100 IST+0530] INFO [root.__init_routes:19] initializing all routes
[2022-08-02T19:35:00:1659449100 IST+0530] DEBUG [asyncio.__init__:59] Using selector: EpollSelector
[2022-08-02T19:35:00:1659449100 IST+0530] INFO [root.__init_application:29] creating API service and Web Site
[2022-08-02T19:35:00:1659449100 IST+0530] INFO [root.__init_routes:19] initializing all routes
[2022-08-02T19:35:00:1659449100 IST+0530] INFO [uvicorn.error.serve:75] Started server process [2616]
[2022-08-02T19:35:00:1659449100 IST+0530] INFO [uvicorn.error.startup:47] Waiting for application startup.
[2022-08-02T19:35:02:1659449102 IST+0530] INFO [sqlalchemy.engine.Engine._execute_context:1772] select pg_catalog.version()
[2022-08-02T19:35:02:1659449102 IST+0530] INFO [sqlalchemy.engine.Engine._execute_context:1777] [raw sql] ()
[2022-08-02T19:35:02:1659449102 IST+0530] INFO [sqlalchemy.engine.Engine._execute_context:1772] select current_schema()
[2022-08-02T19:35:02:1659449102 IST+0530] INFO [sqlalchemy.engine.Engine._execute_context:1777] [raw sql] ()
[2022-08-02T19:35:02:1659449102 IST+0530] INFO [sqlalchemy.engine.Engine._execute_context:1772] show standard_conforming_strings
[2022-08-02T19:35:02:1659449102 IST+0530] INFO [sqlalchemy.engine.Engine._execute_context:1777] [raw sql] ()
[2022-08-02T19:35:02:1659449102 IST+0530] INFO [sqlalchemy.engine.Engine._begin_impl:953] BEGIN (implicit)
[2022-08-02T19:35:02:1659449102 IST+0530] INFO [sqlalchemy.engine.Engine._execute_context:1772] select relname from pg_class c join pg_namespace n on n.oid=c.relnamespace where pg_catalog.pg_table_is_visible(c.oid) and relname=%s
[2022-08-02T19:35:02:1659449102 IST+0530] INFO [sqlalchemy.engine.Engine._execute_context:1777] [generated in 0.00160s] ('tbl_users',)
[2022-08-02T19:35:03:1659449103 IST+0530] INFO [sqlalchemy.engine.Engine._execute_context:1772] select relname from pg_class c join pg_namespace n on n.oid=c.relnamespace where pg_catalog.pg_table_is_visible(c.oid) and relname=%s
[2022-08-02T19:35:03:1659449103 IST+0530] INFO [sqlalchemy.engine.Engine._execute_context:1777] [cached since 0.2377s ago] ('tbl_userlog',)
[2022-08-02T19:35:03:1659449103 IST+0530] INFO [sqlalchemy.engine.Engine._execute_context:1772] select relname from pg_class c join pg_namespace n on n.oid=c.relnamespace where pg_catalog.pg_table_is_visible(c.oid) and relname=%s
[2022-08-02T19:35:03:1659449103 IST+0530] INFO [sqlalchemy.engine.Engine._execute_context:1777] [cached since 0.2928s ago] ('tbl_invalid_tokens',)
[2022-08-02T19:35:03:1659449103 IST+0530] INFO [sqlalchemy.engine.Engine._commit_impl:1013] COMMIT
[2022-08-02T19:35:03:1659449103 IST+0530] INFO [uvicorn.error.startup:61] Application startup complete.
[2022-08-02T19:35:20:1659449120 IST+0530] WARNING [uvicorn.error.run:47] StatReload detected changes in 'src/service/auth_service.py'. Reloading...
[2022-08-02T19:35:20:1659449120 IST+0530] INFO [uvicorn.error.shutdown:253] Shutting down
[2022-08-02T19:35:21:1659449121 IST+0530] INFO [uvicorn.error.shutdown:66] Waiting for application shutdown.
[2022-08-02T19:35:21:1659449121 IST+0530] INFO [uvicorn.error.shutdown:77] Application shutdown complete.
[2022-08-02T19:35:21:1659449121 IST+0530] INFO [uvicorn.error.serve:85] Finished server process [2616]
[2022-08-02T19:35:21:1659449121 IST+0530] INFO [root.__init_application:29] creating API service and Web Site
[2022-08-02T19:35:21:1659449121 IST+0530] INFO [root.__init_routes:19] initializing all routes
[2022-08-02T19:35:21:1659449121 IST+0530] DEBUG [asyncio.__init__:59] Using selector: EpollSelector
[2022-08-02T19:35:21:1659449121 IST+0530] INFO [root.__init_application:29] creating API service and Web Site
[2022-08-02T19:35:21:1659449121 IST+0530] INFO [root.__init_routes:19] initializing all routes
[2022-08-02T19:35:21:1659449121 IST+0530] INFO [uvicorn.error.serve:75] Started server process [2621]
[2022-08-02T19:35:21:1659449121 IST+0530] INFO [uvicorn.error.startup:47] Waiting for application startup.
[2022-08-02T19:35:22:1659449122 IST+0530] INFO [sqlalchemy.engine.Engine._execute_context:1772] select pg_catalog.version()
[2022-08-02T19:35:22:1659449122 IST+0530] INFO [sqlalchemy.engine.Engine._execute_context:1777] [raw sql] ()
[2022-08-02T19:35:22:1659449122 IST+0530] INFO [sqlalchemy.engine.Engine._execute_context:1772] select current_schema()
[2022-08-02T19:35:22:1659449122 IST+0530] INFO [sqlalchemy.engine.Engine._execute_context:1777] [raw sql] ()
[2022-08-02T19:35:23:1659449123 IST+0530] INFO [sqlalchemy.engine.Engine._execute_context:1772] show standard_conforming_strings
[2022-08-02T19:35:23:1659449123 IST+0530] INFO [sqlalchemy.engine.Engine._execute_context:1777] [raw sql] ()
[2022-08-02T19:35:23:1659449123 IST+0530] INFO [sqlalchemy.engine.Engine._begin_impl:953] BEGIN (implicit)
[2022-08-02T19:35:23:1659449123 IST+0530] INFO [sqlalchemy.engine.Engine._execute_context:1772] select relname from pg_class c join pg_namespace n on n.oid=c.relnamespace where pg_catalog.pg_table_is_visible(c.oid) and relname=%s
[2022-08-02T19:35:23:1659449123 IST+0530] INFO [sqlalchemy.engine.Engine._execute_context:1777] [generated in 0.00049s] ('tbl_users',)
[2022-08-02T19:35:23:1659449123 IST+0530] INFO [sqlalchemy.engine.Engine._execute_context:1772] select relname from pg_class c join pg_namespace n on n.oid=c.relnamespace where pg_catalog.pg_table_is_visible(c.oid) and relname=%s
[2022-08-02T19:35:23:1659449123 IST+0530] INFO [sqlalchemy.engine.Engine._execute_context:1777] [cached since 0.2418s ago] ('tbl_userlog',)
[2022-08-02T19:35:23:1659449123 IST+0530] INFO [sqlalchemy.engine.Engine._execute_context:1772] select relname from pg_class c join pg_namespace n on n.oid=c.relnamespace where pg_catalog.pg_table_is_visible(c.oid) and relname=%s
[2022-08-02T19:35:23:1659449123 IST+0530] INFO [sqlalchemy.engine.Engine._execute_context:1777] [cached since 0.2942s ago] ('tbl_invalid_tokens',)
[2022-08-02T19:35:23:1659449123 IST+0530] INFO [sqlalchemy.engine.Engine._commit_impl:1013] COMMIT
[2022-08-02T19:35:23:1659449123 IST+0530] INFO [uvicorn.error.startup:61] Application startup complete.
[2022-08-02T19:35:45:1659449145 IST+0530] WARNING [uvicorn.error.run:47] StatReload detected changes in 'src/service/auth_service.py'. Reloading...
[2022-08-02T19:35:45:1659449145 IST+0530] INFO [uvicorn.error.shutdown:253] Shutting down
[2022-08-02T19:35:45:1659449145 IST+0530] INFO [uvicorn.error.shutdown:66] Waiting for application shutdown.
[2022-08-02T19:35:45:1659449145 IST+0530] INFO [uvicorn.error.shutdown:77] Application shutdown complete.
[2022-08-02T19:35:45:1659449145 IST+0530] INFO [uvicorn.error.serve:85] Finished server process [2621]
[2022-08-02T19:35:46:1659449146 IST+0530] INFO [root.__init_application:29] creating API service and Web Site
[2022-08-02T19:35:46:1659449146 IST+0530] INFO [root.__init_routes:19] initializing all routes
[2022-08-02T19:35:46:1659449146 IST+0530] DEBUG [asyncio.__init__:59] Using selector: EpollSelector
[2022-08-02T19:35:46:1659449146 IST+0530] INFO [root.__init_application:29] creating API service and Web Site
[2022-08-02T19:35:46:1659449146 IST+0530] INFO [root.__init_routes:19] initializing all routes
[2022-08-02T19:35:46:1659449146 IST+0530] INFO [uvicorn.error.serve:75] Started server process [2624]
[2022-08-02T19:35:46:1659449146 IST+0530] INFO [uvicorn.error.startup:47] Waiting for application startup.
[2022-08-02T19:35:47:1659449147 IST+0530] INFO [sqlalchemy.engine.Engine._execute_context:1772] select pg_catalog.version()
[2022-08-02T19:35:47:1659449147 IST+0530] INFO [sqlalchemy.engine.Engine._execute_context:1777] [raw sql] ()
[2022-08-02T19:35:47:1659449147 IST+0530] INFO [sqlalchemy.engine.Engine._execute_context:1772] select current_schema()
[2022-08-02T19:35:47:1659449147 IST+0530] INFO [sqlalchemy.engine.Engine._execute_context:1777] [raw sql] ()
[2022-08-02T19:35:47:1659449147 IST+0530] INFO [sqlalchemy.engine.Engine._execute_context:1772] show standard_conforming_strings
[2022-08-02T19:35:47:1659449147 IST+0530] INFO [sqlalchemy.engine.Engine._execute_context:1777] [raw sql] ()
[2022-08-02T19:35:48:1659449148 IST+0530] INFO [sqlalchemy.engine.Engine._begin_impl:953] BEGIN (implicit)
[2022-08-02T19:35:48:1659449148 IST+0530] INFO [sqlalchemy.engine.Engine._execute_context:1772] select relname from pg_class c join pg_namespace n on n.oid=c.relnamespace where pg_catalog.pg_table_is_visible(c.oid) and relname=%s
[2022-08-02T19:35:48:1659449148 IST+0530] INFO [sqlalchemy.engine.Engine._execute_context:1777] [generated in 0.00030s] ('tbl_users',)
[2022-08-02T19:35:48:1659449148 IST+0530] INFO [sqlalchemy.engine.Engine._execute_context:1772] select relname from pg_class c join pg_namespace n on n.oid=c.relnamespace where pg_catalog.pg_table_is_visible(c.oid) and relname=%s
[2022-08-02T19:35:48:1659449148 IST+0530] INFO [sqlalchemy.engine.Engine._execute_context:1777] [cached since 0.244s ago] ('tbl_userlog',)
[2022-08-02T19:35:48:1659449148 IST+0530] INFO [sqlalchemy.engine.Engine._execute_context:1772] select relname from pg_class c join pg_namespace n on n.oid=c.relnamespace where pg_catalog.pg_table_is_visible(c.oid) and relname=%s
[2022-08-02T19:35:48:1659449148 IST+0530] INFO [sqlalchemy.engine.Engine._execute_context:1777] [cached since 0.2982s ago] ('tbl_invalid_tokens',)
[2022-08-02T19:35:48:1659449148 IST+0530] INFO [sqlalchemy.engine.Engine._commit_impl:1013] COMMIT
[2022-08-02T19:35:48:1659449148 IST+0530] INFO [uvicorn.error.startup:61] Application startup complete.
[2022-08-02T19:35:55:1659449155 IST+0530] WARNING [uvicorn.error.run:47] StatReload detected changes in 'src/controller/version1/auth_controller.py'. Reloading...
[2022-08-02T19:35:55:1659449155 IST+0530] INFO [uvicorn.error.shutdown:253] Shutting down
[2022-08-02T19:35:55:1659449155 IST+0530] INFO [uvicorn.error.shutdown:66] Waiting for application shutdown.
[2022-08-02T19:35:55:1659449155 IST+0530] INFO [uvicorn.error.shutdown:77] Application shutdown complete.
[2022-08-02T19:35:55:1659449155 IST+0530] INFO [uvicorn.error.serve:85] Finished server process [2624]
[2022-08-02T19:35:55:1659449155 IST+0530] INFO [root.__init_application:29] creating API service and Web Site
[2022-08-02T19:35:55:1659449155 IST+0530] INFO [root.__init_routes:19] initializing all routes
[2022-08-02T19:35:55:1659449155 IST+0530] DEBUG [asyncio.__init__:59] Using selector: EpollSelector
[2022-08-02T19:35:55:1659449155 IST+0530] INFO [root.__init_application:29] creating API service and Web Site
[2022-08-02T19:35:55:1659449155 IST+0530] INFO [root.__init_routes:19] initializing all routes
[2022-08-02T19:35:55:1659449155 IST+0530] INFO [uvicorn.error.serve:75] Started server process [2629]
[2022-08-02T19:35:55:1659449155 IST+0530] INFO [uvicorn.error.startup:47] Waiting for application startup.
[2022-08-02T19:35:56:1659449156 IST+0530] INFO [sqlalchemy.engine.Engine._execute_context:1772] select pg_catalog.version()
[2022-08-02T19:35:56:1659449156 IST+0530] INFO [sqlalchemy.engine.Engine._execute_context:1777] [raw sql] ()
[2022-08-02T19:35:56:1659449156 IST+0530] INFO [sqlalchemy.engine.Engine._execute_context:1772] select current_schema()
[2022-08-02T19:35:56:1659449156 IST+0530] INFO [sqlalchemy.engine.Engine._execute_context:1777] [raw sql] ()
[2022-08-02T19:35:57:1659449157 IST+0530] INFO [sqlalchemy.engine.Engine._execute_context:1772] show standard_conforming_strings
[2022-08-02T19:35:57:1659449157 IST+0530] INFO [sqlalchemy.engine.Engine._execute_context:1777] [raw sql] ()
[2022-08-02T19:35:57:1659449157 IST+0530] INFO [sqlalchemy.engine.Engine._begin_impl:953] BEGIN (implicit)
[2022-08-02T19:35:57:1659449157 IST+0530] INFO [sqlalchemy.engine.Engine._execute_context:1772] select relname from pg_class c join pg_namespace n on n.oid=c.relnamespace where pg_catalog.pg_table_is_visible(c.oid) and relname=%s
[2022-08-02T19:35:57:1659449157 IST+0530] INFO [sqlalchemy.engine.Engine._execute_context:1777] [generated in 0.00030s] ('tbl_users',)
[2022-08-02T19:35:57:1659449157 IST+0530] INFO [sqlalchemy.engine.Engine._execute_context:1772] select relname from pg_class c join pg_namespace n on n.oid=c.relnamespace where pg_catalog.pg_table_is_visible(c.oid) and relname=%s
[2022-08-02T19:35:57:1659449157 IST+0530] INFO [sqlalchemy.engine.Engine._execute_context:1777] [cached since 0.1659s ago] ('tbl_userlog',)
[2022-08-02T19:35:57:1659449157 IST+0530] INFO [sqlalchemy.engine.Engine._execute_context:1772] select relname from pg_class c join pg_namespace n on n.oid=c.relnamespace where pg_catalog.pg_table_is_visible(c.oid) and relname=%s
[2022-08-02T19:35:57:1659449157 IST+0530] INFO [sqlalchemy.engine.Engine._execute_context:1777] [cached since 0.2225s ago] ('tbl_invalid_tokens',)
[2022-08-02T19:35:57:1659449157 IST+0530] INFO [sqlalchemy.engine.Engine._commit_impl:1013] COMMIT
[2022-08-02T19:35:57:1659449157 IST+0530] INFO [uvicorn.error.startup:61] Application startup complete.
[2022-08-02T19:37:24:1659449244 IST+0530] DEBUG [multipart.multipart.callback:604] Calling on_field_start with no data
[2022-08-02T19:37:24:1659449244 IST+0530] DEBUG [multipart.multipart.callback:601] Calling on_field_name with data[0:10]
[2022-08-02T19:37:24:1659449244 IST+0530] DEBUG [multipart.multipart.callback:601] Calling on_field_data with data[11:19]
[2022-08-02T19:37:24:1659449244 IST+0530] DEBUG [multipart.multipart.callback:604] Calling on_field_end with no data
[2022-08-02T19:37:24:1659449244 IST+0530] DEBUG [multipart.multipart.callback:604] Calling on_field_start with no data
[2022-08-02T19:37:24:1659449244 IST+0530] DEBUG [multipart.multipart.callback:601] Calling on_field_name with data[20:25]
[2022-08-02T19:37:24:1659449244 IST+0530] DEBUG [multipart.multipart.callback:601] Calling on_field_data with data[26:28]
[2022-08-02T19:37:24:1659449244 IST+0530] DEBUG [multipart.multipart.callback:604] Calling on_field_end with no data
[2022-08-02T19:37:24:1659449244 IST+0530] DEBUG [multipart.multipart.callback:604] Calling on_field_start with no data
[2022-08-02T19:37:24:1659449244 IST+0530] DEBUG [multipart.multipart.callback:601] Calling on_field_name with data[29:37]
[2022-08-02T19:37:24:1659449244 IST+0530] DEBUG [multipart.multipart.callback:601] Calling on_field_data with data[38:45]
[2022-08-02T19:37:24:1659449244 IST+0530] DEBUG [multipart.multipart.callback:604] Calling on_field_end with no data
[2022-08-02T19:37:24:1659449244 IST+0530] DEBUG [multipart.multipart.callback:604] Calling on_field_start with no data
[2022-08-02T19:37:24:1659449244 IST+0530] DEBUG [multipart.multipart.callback:601] Calling on_field_name with data[46:54]
[2022-08-02T19:37:24:1659449244 IST+0530] DEBUG [multipart.multipart.callback:601] Calling on_field_data with data[55:62]
[2022-08-02T19:37:24:1659449244 IST+0530] DEBUG [multipart.multipart.callback:604] Calling on_field_end with no data
[2022-08-02T19:37:24:1659449244 IST+0530] DEBUG [multipart.multipart.callback:604] Calling on_end with no data
[2022-08-02T19:37:24:1659449244 IST+0530] INFO [sqlalchemy.engine.Engine._begin_impl:953] BEGIN (implicit)
[2022-08-02T19:37:24:1659449244 IST+0530] INFO [sqlalchemy.engine.Engine._execute_context:1772] SELECT tbl_users.login_name, tbl_users.hashed_password, tbl_users.roles, tbl_users.is_active 
FROM tbl_users 
WHERE tbl_users.login_name = %s
[2022-08-02T19:37:24:1659449244 IST+0530] INFO [sqlalchemy.engine.Engine._execute_context:1777] [generated in 0.00029s] ('driver1',)
[2022-08-02T19:37:24:1659449244 IST+0530] CRITICAL [root.authenticate_user:31] EXCEPTION-auth_service:authenticate_user(): 'list' object has no attribute 'hashed_password'
[2022-08-02T19:37:24:1659449244 IST+0530] INFO [sqlalchemy.engine.Engine._rollback_impl:981] ROLLBACK
[2022-08-02T19:37:39:1659449259 IST+0530] INFO [uvicorn.error.shutdown:253] Shutting down
[2022-08-02T19:37:39:1659449259 IST+0530] INFO [uvicorn.error.shutdown:66] Waiting for application shutdown.
[2022-08-02T19:37:39:1659449259 IST+0530] INFO [uvicorn.error.shutdown:77] Application shutdown complete.
[2022-08-02T19:37:39:1659449259 IST+0530] INFO [uvicorn.error.serve:85] Finished server process [2629]
[2022-08-02T19:37:39:1659449259 IST+0530] INFO [uvicorn.error.shutdown:103] Stopping reloader process [2611]
[2022-08-02T19:38:15:1659449295 IST+0530] INFO [root.__init_application:29] creating API service and Web Site
[2022-08-02T19:38:17:1659449297 IST+0530] INFO [root.__init_routes:19] initializing all routes
[2022-08-02T19:38:22:1659449302 IST+0530] INFO [uvicorn.error.serve:75] Started server process [2646]
[2022-08-02T19:38:22:1659449302 IST+0530] INFO [uvicorn.error.startup:47] Waiting for application startup.
[2022-08-02T19:38:24:1659449304 IST+0530] INFO [sqlalchemy.engine.Engine._execute_context:1772] select pg_catalog.version()
[2022-08-02T19:38:24:1659449304 IST+0530] INFO [sqlalchemy.engine.Engine._execute_context:1777] [raw sql] ()
[2022-08-02T19:38:24:1659449304 IST+0530] INFO [sqlalchemy.engine.Engine._execute_context:1772] select current_schema()
[2022-08-02T19:38:24:1659449304 IST+0530] INFO [sqlalchemy.engine.Engine._execute_context:1777] [raw sql] ()
[2022-08-02T19:38:24:1659449304 IST+0530] INFO [sqlalchemy.engine.Engine._execute_context:1772] show standard_conforming_strings
[2022-08-02T19:38:24:1659449304 IST+0530] INFO [sqlalchemy.engine.Engine._execute_context:1777] [raw sql] ()
[2022-08-02T19:38:24:1659449304 IST+0530] INFO [sqlalchemy.engine.Engine._begin_impl:953] BEGIN (implicit)
[2022-08-02T19:38:24:1659449304 IST+0530] INFO [sqlalchemy.engine.Engine._execute_context:1772] select relname from pg_class c join pg_namespace n on n.oid=c.relnamespace where pg_catalog.pg_table_is_visible(c.oid) and relname=%s
[2022-08-02T19:38:24:1659449304 IST+0530] INFO [sqlalchemy.engine.Engine._execute_context:1777] [generated in 0.00170s] ('tbl_users',)
[2022-08-02T19:38:26:1659449306 IST+0530] INFO [sqlalchemy.engine.Engine._execute_context:1772] select relname from pg_class c join pg_namespace n on n.oid=c.relnamespace where pg_catalog.pg_table_is_visible(c.oid) and relname=%s
[2022-08-02T19:38:26:1659449306 IST+0530] INFO [sqlalchemy.engine.Engine._execute_context:1777] [cached since 2.197s ago] ('tbl_userlog',)
[2022-08-02T19:38:27:1659449307 IST+0530] INFO [sqlalchemy.engine.Engine._execute_context:1772] select relname from pg_class c join pg_namespace n on n.oid=c.relnamespace where pg_catalog.pg_table_is_visible(c.oid) and relname=%s
[2022-08-02T19:38:27:1659449307 IST+0530] INFO [sqlalchemy.engine.Engine._execute_context:1777] [cached since 2.929s ago] ('tbl_invalid_tokens',)
[2022-08-02T19:38:28:1659449308 IST+0530] INFO [sqlalchemy.engine.Engine._commit_impl:1013] COMMIT
[2022-08-02T19:38:29:1659449309 IST+0530] INFO [uvicorn.error.startup:61] Application startup complete.
[2022-08-02T19:38:29:1659449309 IST+0530] INFO [uvicorn.error._log_started_message:207] Uvicorn running on http://127.0.0.1:9091 (Press CTRL+C to quit)
[2022-08-02T19:38:37:1659449317 IST+0530] DEBUG [multipart.multipart.callback:604] Calling on_field_start with no data
[2022-08-02T19:38:37:1659449317 IST+0530] DEBUG [multipart.multipart.callback:601] Calling on_field_name with data[0:10]
[2022-08-02T19:38:37:1659449317 IST+0530] DEBUG [multipart.multipart.callback:601] Calling on_field_data with data[11:19]
[2022-08-02T19:38:37:1659449317 IST+0530] DEBUG [multipart.multipart.callback:604] Calling on_field_end with no data
[2022-08-02T19:38:37:1659449317 IST+0530] DEBUG [multipart.multipart.callback:604] Calling on_field_start with no data
[2022-08-02T19:38:37:1659449317 IST+0530] DEBUG [multipart.multipart.callback:601] Calling on_field_name with data[20:25]
[2022-08-02T19:38:37:1659449317 IST+0530] DEBUG [multipart.multipart.callback:601] Calling on_field_data with data[26:28]
[2022-08-02T19:38:37:1659449317 IST+0530] DEBUG [multipart.multipart.callback:604] Calling on_field_end with no data
[2022-08-02T19:38:37:1659449317 IST+0530] DEBUG [multipart.multipart.callback:604] Calling on_field_start with no data
[2022-08-02T19:38:37:1659449317 IST+0530] DEBUG [multipart.multipart.callback:601] Calling on_field_name with data[29:37]
[2022-08-02T19:38:37:1659449317 IST+0530] DEBUG [multipart.multipart.callback:601] Calling on_field_data with data[38:45]
[2022-08-02T19:38:37:1659449317 IST+0530] DEBUG [multipart.multipart.callback:604] Calling on_field_end with no data
[2022-08-02T19:38:37:1659449317 IST+0530] DEBUG [multipart.multipart.callback:604] Calling on_field_start with no data
[2022-08-02T19:38:37:1659449317 IST+0530] DEBUG [multipart.multipart.callback:601] Calling on_field_name with data[46:54]
[2022-08-02T19:38:37:1659449317 IST+0530] DEBUG [multipart.multipart.callback:601] Calling on_field_data with data[55:62]
[2022-08-02T19:38:37:1659449317 IST+0530] DEBUG [multipart.multipart.callback:604] Calling on_field_end with no data
[2022-08-02T19:38:37:1659449317 IST+0530] DEBUG [multipart.multipart.callback:604] Calling on_end with no data
[2022-08-02T19:39:14:1659449354 IST+0530] INFO [sqlalchemy.engine.Engine._begin_impl:953] BEGIN (implicit)
[2022-08-02T19:39:14:1659449354 IST+0530] INFO [sqlalchemy.engine.Engine._execute_context:1772] SELECT tbl_users.login_name, tbl_users.hashed_password, tbl_users.roles, tbl_users.is_active 
FROM tbl_users 
WHERE tbl_users.login_name = %s
[2022-08-02T19:39:14:1659449354 IST+0530] INFO [sqlalchemy.engine.Engine._execute_context:1777] [generated in 0.00097s] ('driver1',)
[2022-08-02T19:40:20:1659449420 IST+0530] INFO [sqlalchemy.engine.Engine._rollback_impl:981] ROLLBACK
[2022-08-02T19:40:24:1659449424 IST+0530] DEBUG [multipart.multipart.callback:604] Calling on_field_start with no data
[2022-08-02T19:40:24:1659449424 IST+0530] DEBUG [multipart.multipart.callback:601] Calling on_field_name with data[0:10]
[2022-08-02T19:40:24:1659449424 IST+0530] DEBUG [multipart.multipart.callback:601] Calling on_field_data with data[11:19]
[2022-08-02T19:40:24:1659449424 IST+0530] DEBUG [multipart.multipart.callback:604] Calling on_field_end with no data
[2022-08-02T19:40:24:1659449424 IST+0530] DEBUG [multipart.multipart.callback:604] Calling on_field_start with no data
[2022-08-02T19:40:24:1659449424 IST+0530] DEBUG [multipart.multipart.callback:601] Calling on_field_name with data[20:25]
[2022-08-02T19:40:24:1659449424 IST+0530] DEBUG [multipart.multipart.callback:601] Calling on_field_data with data[26:28]
[2022-08-02T19:40:24:1659449424 IST+0530] DEBUG [multipart.multipart.callback:604] Calling on_field_end with no data
[2022-08-02T19:40:24:1659449424 IST+0530] DEBUG [multipart.multipart.callback:604] Calling on_field_start with no data
[2022-08-02T19:40:24:1659449424 IST+0530] DEBUG [multipart.multipart.callback:601] Calling on_field_name with data[29:37]
[2022-08-02T19:40:24:1659449424 IST+0530] DEBUG [multipart.multipart.callback:601] Calling on_field_data with data[38:45]
[2022-08-02T19:40:24:1659449424 IST+0530] DEBUG [multipart.multipart.callback:604] Calling on_field_end with no data
[2022-08-02T19:40:24:1659449424 IST+0530] DEBUG [multipart.multipart.callback:604] Calling on_field_start with no data
[2022-08-02T19:40:24:1659449424 IST+0530] DEBUG [multipart.multipart.callback:601] Calling on_field_name with data[46:54]
[2022-08-02T19:40:24:1659449424 IST+0530] DEBUG [multipart.multipart.callback:601] Calling on_field_data with data[55:62]
[2022-08-02T19:40:24:1659449424 IST+0530] DEBUG [multipart.multipart.callback:604] Calling on_field_end with no data
[2022-08-02T19:40:24:1659449424 IST+0530] DEBUG [multipart.multipart.callback:604] Calling on_end with no data
[2022-08-02T19:40:24:1659449424 IST+0530] INFO [sqlalchemy.engine.Engine._begin_impl:953] BEGIN (implicit)
[2022-08-02T19:40:24:1659449424 IST+0530] INFO [sqlalchemy.engine.Engine._execute_context:1772] SELECT tbl_users.login_name, tbl_users.hashed_password, tbl_users.roles, tbl_users.is_active 
FROM tbl_users 
WHERE tbl_users.login_name = %s
[2022-08-02T19:40:24:1659449424 IST+0530] INFO [sqlalchemy.engine.Engine._execute_context:1777] [cached since 69.52s ago] ('driver1',)
[2022-08-02T19:40:24:1659449424 IST+0530] CRITICAL [root.authenticate_user:31] EXCEPTION-auth_service:authenticate_user(): 'list' object has no attribute 'hashed_password'
[2022-08-02T19:40:24:1659449424 IST+0530] INFO [sqlalchemy.engine.Engine._rollback_impl:981] ROLLBACK
[2022-08-02T19:40:30:1659449430 IST+0530] DEBUG [multipart.multipart.callback:604] Calling on_field_start with no data
[2022-08-02T19:40:30:1659449430 IST+0530] DEBUG [multipart.multipart.callback:601] Calling on_field_name with data[0:10]
[2022-08-02T19:40:30:1659449430 IST+0530] DEBUG [multipart.multipart.callback:601] Calling on_field_data with data[11:19]
[2022-08-02T19:40:30:1659449430 IST+0530] DEBUG [multipart.multipart.callback:604] Calling on_field_end with no data
[2022-08-02T19:40:30:1659449430 IST+0530] DEBUG [multipart.multipart.callback:604] Calling on_field_start with no data
[2022-08-02T19:40:30:1659449430 IST+0530] DEBUG [multipart.multipart.callback:601] Calling on_field_name with data[20:25]
[2022-08-02T19:40:30:1659449430 IST+0530] DEBUG [multipart.multipart.callback:601] Calling on_field_data with data[26:28]
[2022-08-02T19:40:30:1659449430 IST+0530] DEBUG [multipart.multipart.callback:604] Calling on_field_end with no data
[2022-08-02T19:40:30:1659449430 IST+0530] DEBUG [multipart.multipart.callback:604] Calling on_field_start with no data
[2022-08-02T19:40:30:1659449430 IST+0530] DEBUG [multipart.multipart.callback:601] Calling on_field_name with data[29:37]
[2022-08-02T19:40:30:1659449430 IST+0530] DEBUG [multipart.multipart.callback:601] Calling on_field_data with data[38:45]
[2022-08-02T19:40:30:1659449430 IST+0530] DEBUG [multipart.multipart.callback:604] Calling on_field_end with no data
[2022-08-02T19:40:30:1659449430 IST+0530] DEBUG [multipart.multipart.callback:604] Calling on_field_start with no data
[2022-08-02T19:40:30:1659449430 IST+0530] DEBUG [multipart.multipart.callback:601] Calling on_field_name with data[46:54]
[2022-08-02T19:40:30:1659449430 IST+0530] DEBUG [multipart.multipart.callback:601] Calling on_field_data with data[55:62]
[2022-08-02T19:40:30:1659449430 IST+0530] DEBUG [multipart.multipart.callback:604] Calling on_field_end with no data
[2022-08-02T19:40:30:1659449430 IST+0530] DEBUG [multipart.multipart.callback:604] Calling on_end with no data
[2022-08-02T19:40:30:1659449430 IST+0530] INFO [sqlalchemy.engine.Engine._begin_impl:953] BEGIN (implicit)
[2022-08-02T19:40:30:1659449430 IST+0530] INFO [sqlalchemy.engine.Engine._execute_context:1772] SELECT tbl_users.login_name, tbl_users.hashed_password, tbl_users.roles, tbl_users.is_active 
FROM tbl_users 
WHERE tbl_users.login_name = %s
[2022-08-02T19:40:30:1659449430 IST+0530] INFO [sqlalchemy.engine.Engine._execute_context:1777] [cached since 76s ago] ('driver1',)
[2022-08-02T19:40:30:1659449430 IST+0530] CRITICAL [root.authenticate_user:31] EXCEPTION-auth_service:authenticate_user(): 'list' object has no attribute 'hashed_password'
[2022-08-02T19:40:30:1659449430 IST+0530] INFO [sqlalchemy.engine.Engine._rollback_impl:981] ROLLBACK
[2022-08-02T19:40:48:1659449448 IST+0530] INFO [root.__init_application:29] creating API service and Web Site
[2022-08-02T19:40:48:1659449448 IST+0530] INFO [root.__init_routes:19] initializing all routes
[2022-08-02T19:40:50:1659449450 IST+0530] INFO [uvicorn.error.serve:75] Started server process [2909]
[2022-08-02T19:40:50:1659449450 IST+0530] INFO [uvicorn.error.startup:47] Waiting for application startup.
[2022-08-02T19:40:51:1659449451 IST+0530] INFO [sqlalchemy.engine.Engine._execute_context:1772] select pg_catalog.version()
[2022-08-02T19:40:51:1659449451 IST+0530] INFO [sqlalchemy.engine.Engine._execute_context:1777] [raw sql] ()
[2022-08-02T19:40:51:1659449451 IST+0530] INFO [sqlalchemy.engine.Engine._execute_context:1772] select current_schema()
[2022-08-02T19:40:51:1659449451 IST+0530] INFO [sqlalchemy.engine.Engine._execute_context:1777] [raw sql] ()
[2022-08-02T19:40:52:1659449452 IST+0530] INFO [sqlalchemy.engine.Engine._execute_context:1772] show standard_conforming_strings
[2022-08-02T19:40:52:1659449452 IST+0530] INFO [sqlalchemy.engine.Engine._execute_context:1777] [raw sql] ()
[2022-08-02T19:40:52:1659449452 IST+0530] INFO [sqlalchemy.engine.Engine._begin_impl:953] BEGIN (implicit)
[2022-08-02T19:40:52:1659449452 IST+0530] INFO [sqlalchemy.engine.Engine._execute_context:1772] select relname from pg_class c join pg_namespace n on n.oid=c.relnamespace where pg_catalog.pg_table_is_visible(c.oid) and relname=%s
[2022-08-02T19:40:52:1659449452 IST+0530] INFO [sqlalchemy.engine.Engine._execute_context:1777] [generated in 0.00231s] ('tbl_users',)
[2022-08-02T19:40:52:1659449452 IST+0530] INFO [sqlalchemy.engine.Engine._execute_context:1772] select relname from pg_class c join pg_namespace n on n.oid=c.relnamespace where pg_catalog.pg_table_is_visible(c.oid) and relname=%s
[2022-08-02T19:40:52:1659449452 IST+0530] INFO [sqlalchemy.engine.Engine._execute_context:1777] [cached since 0.3748s ago] ('tbl_userlog',)
[2022-08-02T19:40:52:1659449452 IST+0530] INFO [sqlalchemy.engine.Engine._execute_context:1772] select relname from pg_class c join pg_namespace n on n.oid=c.relnamespace where pg_catalog.pg_table_is_visible(c.oid) and relname=%s
[2022-08-02T19:40:52:1659449452 IST+0530] INFO [sqlalchemy.engine.Engine._execute_context:1777] [cached since 0.5189s ago] ('tbl_invalid_tokens',)
[2022-08-02T19:40:53:1659449453 IST+0530] INFO [sqlalchemy.engine.Engine._commit_impl:1013] COMMIT
[2022-08-02T19:40:53:1659449453 IST+0530] INFO [uvicorn.error.startup:61] Application startup complete.
[2022-08-02T19:40:53:1659449453 IST+0530] INFO [uvicorn.error._log_started_message:207] Uvicorn running on http://127.0.0.1:9091 (Press CTRL+C to quit)
[2022-08-02T19:41:09:1659449469 IST+0530] DEBUG [multipart.multipart.callback:604] Calling on_field_start with no data
[2022-08-02T19:41:09:1659449469 IST+0530] DEBUG [multipart.multipart.callback:601] Calling on_field_name with data[0:10]
[2022-08-02T19:41:09:1659449469 IST+0530] DEBUG [multipart.multipart.callback:601] Calling on_field_data with data[11:19]
[2022-08-02T19:41:09:1659449469 IST+0530] DEBUG [multipart.multipart.callback:604] Calling on_field_end with no data
[2022-08-02T19:41:09:1659449469 IST+0530] DEBUG [multipart.multipart.callback:604] Calling on_field_start with no data
[2022-08-02T19:41:09:1659449469 IST+0530] DEBUG [multipart.multipart.callback:601] Calling on_field_name with data[20:25]
[2022-08-02T19:41:09:1659449469 IST+0530] DEBUG [multipart.multipart.callback:601] Calling on_field_data with data[26:28]
[2022-08-02T19:41:09:1659449469 IST+0530] DEBUG [multipart.multipart.callback:604] Calling on_field_end with no data
[2022-08-02T19:41:09:1659449469 IST+0530] DEBUG [multipart.multipart.callback:604] Calling on_field_start with no data
[2022-08-02T19:41:09:1659449469 IST+0530] DEBUG [multipart.multipart.callback:601] Calling on_field_name with data[29:37]
[2022-08-02T19:41:09:1659449469 IST+0530] DEBUG [multipart.multipart.callback:601] Calling on_field_data with data[38:45]
[2022-08-02T19:41:09:1659449469 IST+0530] DEBUG [multipart.multipart.callback:604] Calling on_field_end with no data
[2022-08-02T19:41:09:1659449469 IST+0530] DEBUG [multipart.multipart.callback:604] Calling on_field_start with no data
[2022-08-02T19:41:09:1659449469 IST+0530] DEBUG [multipart.multipart.callback:601] Calling on_field_name with data[46:54]
[2022-08-02T19:41:09:1659449469 IST+0530] DEBUG [multipart.multipart.callback:601] Calling on_field_data with data[55:62]
[2022-08-02T19:41:09:1659449469 IST+0530] DEBUG [multipart.multipart.callback:604] Calling on_field_end with no data
[2022-08-02T19:41:09:1659449469 IST+0530] DEBUG [multipart.multipart.callback:604] Calling on_end with no data
[2022-08-02T19:41:22:1659449482 IST+0530] INFO [sqlalchemy.engine.Engine._begin_impl:953] BEGIN (implicit)
[2022-08-02T19:41:22:1659449482 IST+0530] INFO [sqlalchemy.engine.Engine._execute_context:1772] SELECT tbl_users.login_name, tbl_users.hashed_password, tbl_users.roles, tbl_users.is_active 
FROM tbl_users 
WHERE tbl_users.login_name = %s
[2022-08-02T19:41:22:1659449482 IST+0530] INFO [sqlalchemy.engine.Engine._execute_context:1777] [generated in 0.00084s] ('driver1',)
[2022-08-02T19:44:35:1659449675 IST+0530] INFO [sqlalchemy.engine.Engine._rollback_impl:981] ROLLBACK
[2022-08-02T19:44:35:1659449675 IST+0530] ERROR [uvicorn.error.run_asgi:406] Exception in ASGI application
Traceback (most recent call last):
  File "/home/p_116749/projects/python/americana/idp/.venv/lib/python3.9/site-packages/uvicorn/protocols/http/h11_impl.py", line 403, in run_asgi
    result = await app(self.scope, self.receive, self.send)
  File "/home/p_116749/projects/python/americana/idp/.venv/lib/python3.9/site-packages/uvicorn/middleware/proxy_headers.py", line 78, in __call__
    return await self.app(scope, receive, send)
  File "/home/p_116749/projects/python/americana/idp/.venv/lib/python3.9/site-packages/fastapi/applications.py", line 269, in __call__
    await super().__call__(scope, receive, send)
  File "/home/p_116749/projects/python/americana/idp/.venv/lib/python3.9/site-packages/starlette/applications.py", line 124, in __call__
    await self.middleware_stack(scope, receive, send)
  File "/home/p_116749/projects/python/americana/idp/.venv/lib/python3.9/site-packages/starlette/middleware/errors.py", line 184, in __call__
    raise exc
  File "/home/p_116749/projects/python/americana/idp/.venv/lib/python3.9/site-packages/starlette/middleware/errors.py", line 162, in __call__
    await self.app(scope, receive, _send)
  File "/home/p_116749/projects/python/americana/idp/.venv/lib/python3.9/site-packages/starlette/middleware/cors.py", line 92, in __call__
    await self.simple_response(scope, receive, send, request_headers=headers)
  File "/home/p_116749/projects/python/americana/idp/.venv/lib/python3.9/site-packages/starlette/middleware/cors.py", line 147, in simple_response
    await self.app(scope, receive, send)
  File "/home/p_116749/projects/python/americana/idp/.venv/lib/python3.9/site-packages/starlette/exceptions.py", line 93, in __call__
    raise exc
  File "/home/p_116749/projects/python/americana/idp/.venv/lib/python3.9/site-packages/starlette/exceptions.py", line 82, in __call__
    await self.app(scope, receive, sender)
  File "/home/p_116749/projects/python/americana/idp/.venv/lib/python3.9/site-packages/fastapi/middleware/asyncexitstack.py", line 21, in __call__
    raise e
  File "/home/p_116749/projects/python/americana/idp/.venv/lib/python3.9/site-packages/fastapi/middleware/asyncexitstack.py", line 18, in __call__
    await self.app(scope, receive, send)
  File "/home/p_116749/projects/python/americana/idp/.venv/lib/python3.9/site-packages/starlette/routing.py", line 670, in __call__
    await route.handle(scope, receive, send)
  File "/home/p_116749/projects/python/americana/idp/.venv/lib/python3.9/site-packages/starlette/routing.py", line 266, in handle
    await self.app(scope, receive, send)
  File "/home/p_116749/projects/python/americana/idp/.venv/lib/python3.9/site-packages/starlette/routing.py", line 65, in app
    response = await func(request)
  File "/home/p_116749/projects/python/americana/idp/.venv/lib/python3.9/site-packages/fastapi/routing.py", line 227, in app
    raw_response = await run_endpoint_function(
  File "/home/p_116749/projects/python/americana/idp/.venv/lib/python3.9/site-packages/fastapi/routing.py", line 160, in run_endpoint_function
    return await dependant.call(**values)
  File "/home/p_116749/projects/python/americana/idp/./src/controller/version1/auth_controller.py", line 27, in login
    access_token = generate_access_token(user)
  File "/home/p_116749/projects/python/americana/idp/./src/service/auth_service.py", line 46, in generate_access_token
    "sub": user_data.login_name,
AttributeError: 'list' object has no attribute 'login_name'
[2022-08-02T19:45:28:1659449728 IST+0530] INFO [root.__init_application:29] creating API service and Web Site
[2022-08-02T19:45:28:1659449728 IST+0530] INFO [root.__init_routes:19] initializing all routes
[2022-08-02T19:45:28:1659449728 IST+0530] INFO [uvicorn.error.serve:75] Started server process [3159]
[2022-08-02T19:45:28:1659449728 IST+0530] INFO [uvicorn.error.startup:47] Waiting for application startup.
[2022-08-02T19:45:29:1659449729 IST+0530] INFO [sqlalchemy.engine.Engine._execute_context:1772] select pg_catalog.version()
[2022-08-02T19:45:29:1659449729 IST+0530] INFO [sqlalchemy.engine.Engine._execute_context:1777] [raw sql] ()
[2022-08-02T19:45:29:1659449729 IST+0530] INFO [sqlalchemy.engine.Engine._execute_context:1772] select current_schema()
[2022-08-02T19:45:29:1659449729 IST+0530] INFO [sqlalchemy.engine.Engine._execute_context:1777] [raw sql] ()
[2022-08-02T19:45:29:1659449729 IST+0530] INFO [sqlalchemy.engine.Engine._execute_context:1772] show standard_conforming_strings
[2022-08-02T19:45:29:1659449729 IST+0530] INFO [sqlalchemy.engine.Engine._execute_context:1777] [raw sql] ()
[2022-08-02T19:45:30:1659449730 IST+0530] INFO [sqlalchemy.engine.Engine._begin_impl:953] BEGIN (implicit)
[2022-08-02T19:45:30:1659449730 IST+0530] INFO [sqlalchemy.engine.Engine._execute_context:1772] select relname from pg_class c join pg_namespace n on n.oid=c.relnamespace where pg_catalog.pg_table_is_visible(c.oid) and relname=%s
[2022-08-02T19:45:30:1659449730 IST+0530] INFO [sqlalchemy.engine.Engine._execute_context:1777] [generated in 0.00074s] ('tbl_users',)
[2022-08-02T19:45:30:1659449730 IST+0530] INFO [sqlalchemy.engine.Engine._execute_context:1772] select relname from pg_class c join pg_namespace n on n.oid=c.relnamespace where pg_catalog.pg_table_is_visible(c.oid) and relname=%s
[2022-08-02T19:45:30:1659449730 IST+0530] INFO [sqlalchemy.engine.Engine._execute_context:1777] [cached since 0.2362s ago] ('tbl_userlog',)
[2022-08-02T19:45:30:1659449730 IST+0530] INFO [sqlalchemy.engine.Engine._execute_context:1772] select relname from pg_class c join pg_namespace n on n.oid=c.relnamespace where pg_catalog.pg_table_is_visible(c.oid) and relname=%s
[2022-08-02T19:45:30:1659449730 IST+0530] INFO [sqlalchemy.engine.Engine._execute_context:1777] [cached since 0.2962s ago] ('tbl_invalid_tokens',)
[2022-08-02T19:45:30:1659449730 IST+0530] INFO [sqlalchemy.engine.Engine._commit_impl:1013] COMMIT
[2022-08-02T19:45:30:1659449730 IST+0530] INFO [uvicorn.error.startup:61] Application startup complete.
[2022-08-02T19:45:30:1659449730 IST+0530] INFO [uvicorn.error._log_started_message:207] Uvicorn running on http://127.0.0.1:9091 (Press CTRL+C to quit)
[2022-08-02T19:45:34:1659449734 IST+0530] DEBUG [multipart.multipart.callback:604] Calling on_field_start with no data
[2022-08-02T19:45:34:1659449734 IST+0530] DEBUG [multipart.multipart.callback:601] Calling on_field_name with data[0:10]
[2022-08-02T19:45:34:1659449734 IST+0530] DEBUG [multipart.multipart.callback:601] Calling on_field_data with data[11:19]
[2022-08-02T19:45:34:1659449734 IST+0530] DEBUG [multipart.multipart.callback:604] Calling on_field_end with no data
[2022-08-02T19:45:34:1659449734 IST+0530] DEBUG [multipart.multipart.callback:604] Calling on_field_start with no data
[2022-08-02T19:45:34:1659449734 IST+0530] DEBUG [multipart.multipart.callback:601] Calling on_field_name with data[20:25]
[2022-08-02T19:45:34:1659449734 IST+0530] DEBUG [multipart.multipart.callback:601] Calling on_field_data with data[26:28]
[2022-08-02T19:45:34:1659449734 IST+0530] DEBUG [multipart.multipart.callback:604] Calling on_field_end with no data
[2022-08-02T19:45:34:1659449734 IST+0530] DEBUG [multipart.multipart.callback:604] Calling on_field_start with no data
[2022-08-02T19:45:34:1659449734 IST+0530] DEBUG [multipart.multipart.callback:601] Calling on_field_name with data[29:37]
[2022-08-02T19:45:34:1659449734 IST+0530] DEBUG [multipart.multipart.callback:601] Calling on_field_data with data[38:45]
[2022-08-02T19:45:34:1659449734 IST+0530] DEBUG [multipart.multipart.callback:604] Calling on_field_end with no data
[2022-08-02T19:45:34:1659449734 IST+0530] DEBUG [multipart.multipart.callback:604] Calling on_field_start with no data
[2022-08-02T19:45:34:1659449734 IST+0530] DEBUG [multipart.multipart.callback:601] Calling on_field_name with data[46:54]
[2022-08-02T19:45:34:1659449734 IST+0530] DEBUG [multipart.multipart.callback:601] Calling on_field_data with data[55:62]
[2022-08-02T19:45:34:1659449734 IST+0530] DEBUG [multipart.multipart.callback:604] Calling on_field_end with no data
[2022-08-02T19:45:34:1659449734 IST+0530] DEBUG [multipart.multipart.callback:604] Calling on_end with no data
[2022-08-02T19:45:34:1659449734 IST+0530] INFO [sqlalchemy.engine.Engine._begin_impl:953] BEGIN (implicit)
[2022-08-02T19:45:34:1659449734 IST+0530] INFO [sqlalchemy.engine.Engine._execute_context:1772] SELECT tbl_users.login_name, tbl_users.hashed_password, tbl_users.roles, tbl_users.is_active 
FROM tbl_users 
WHERE tbl_users.login_name = %s
[2022-08-02T19:45:34:1659449734 IST+0530] INFO [sqlalchemy.engine.Engine._execute_context:1777] [generated in 0.00075s] ('driver1',)
[2022-08-02T19:45:34:1659449734 IST+0530] INFO [sqlalchemy.engine.Engine._rollback_impl:981] ROLLBACK
[2022-08-02T19:46:05:1659449765 IST+0530] DEBUG [multipart.multipart.callback:604] Calling on_field_start with no data
[2022-08-02T19:46:05:1659449765 IST+0530] DEBUG [multipart.multipart.callback:601] Calling on_field_name with data[0:10]
[2022-08-02T19:46:05:1659449765 IST+0530] DEBUG [multipart.multipart.callback:601] Calling on_field_data with data[11:19]
[2022-08-02T19:46:05:1659449765 IST+0530] DEBUG [multipart.multipart.callback:604] Calling on_field_end with no data
[2022-08-02T19:46:05:1659449765 IST+0530] DEBUG [multipart.multipart.callback:604] Calling on_field_start with no data
[2022-08-02T19:46:05:1659449765 IST+0530] DEBUG [multipart.multipart.callback:601] Calling on_field_name with data[20:25]
[2022-08-02T19:46:05:1659449765 IST+0530] DEBUG [multipart.multipart.callback:601] Calling on_field_data with data[26:28]
[2022-08-02T19:46:05:1659449765 IST+0530] DEBUG [multipart.multipart.callback:604] Calling on_field_end with no data
[2022-08-02T19:46:05:1659449765 IST+0530] DEBUG [multipart.multipart.callback:604] Calling on_field_start with no data
[2022-08-02T19:46:05:1659449765 IST+0530] DEBUG [multipart.multipart.callback:601] Calling on_field_name with data[29:37]
[2022-08-02T19:46:05:1659449765 IST+0530] DEBUG [multipart.multipart.callback:601] Calling on_field_data with data[38:45]
[2022-08-02T19:46:05:1659449765 IST+0530] DEBUG [multipart.multipart.callback:604] Calling on_field_end with no data
[2022-08-02T19:46:05:1659449765 IST+0530] DEBUG [multipart.multipart.callback:604] Calling on_field_start with no data
[2022-08-02T19:46:05:1659449765 IST+0530] DEBUG [multipart.multipart.callback:601] Calling on_field_name with data[46:54]
[2022-08-02T19:46:05:1659449765 IST+0530] DEBUG [multipart.multipart.callback:601] Calling on_field_data with data[55:62]
[2022-08-02T19:46:05:1659449765 IST+0530] DEBUG [multipart.multipart.callback:604] Calling on_field_end with no data
[2022-08-02T19:46:05:1659449765 IST+0530] DEBUG [multipart.multipart.callback:604] Calling on_end with no data
[2022-08-02T19:46:05:1659449765 IST+0530] INFO [sqlalchemy.engine.Engine._begin_impl:953] BEGIN (implicit)
[2022-08-02T19:46:05:1659449765 IST+0530] INFO [sqlalchemy.engine.Engine._execute_context:1772] SELECT tbl_users.login_name, tbl_users.hashed_password, tbl_users.roles, tbl_users.is_active 
FROM tbl_users 
WHERE tbl_users.login_name = %s
[2022-08-02T19:46:05:1659449765 IST+0530] INFO [sqlalchemy.engine.Engine._execute_context:1777] [cached since 31.64s ago] ('driver1',)
[2022-08-02T19:46:05:1659449765 IST+0530] INFO [sqlalchemy.engine.Engine._rollback_impl:981] ROLLBACK
[2022-08-02T19:46:11:1659449771 IST+0530] INFO [uvicorn.error.shutdown:253] Shutting down
[2022-08-02T19:46:11:1659449771 IST+0530] INFO [uvicorn.error.shutdown:66] Waiting for application shutdown.
[2022-08-02T19:46:11:1659449771 IST+0530] INFO [uvicorn.error.shutdown:77] Application shutdown complete.
[2022-08-02T19:46:11:1659449771 IST+0530] INFO [uvicorn.error.serve:85] Finished server process [3159]
[2022-08-02T19:46:33:1659449793 IST+0530] INFO [root.__init_application:29] creating API service and Web Site
[2022-08-02T19:46:33:1659449793 IST+0530] INFO [root.__init_routes:19] initializing all routes
[2022-08-02T19:46:33:1659449793 IST+0530] INFO [uvicorn.error.serve:75] Started server process [3208]
[2022-08-02T19:46:33:1659449793 IST+0530] INFO [uvicorn.error.startup:47] Waiting for application startup.
[2022-08-02T19:46:35:1659449795 IST+0530] INFO [sqlalchemy.engine.Engine._execute_context:1772] select pg_catalog.version()
[2022-08-02T19:46:35:1659449795 IST+0530] INFO [sqlalchemy.engine.Engine._execute_context:1777] [raw sql] ()
[2022-08-02T19:46:35:1659449795 IST+0530] INFO [sqlalchemy.engine.Engine._execute_context:1772] select current_schema()
[2022-08-02T19:46:35:1659449795 IST+0530] INFO [sqlalchemy.engine.Engine._execute_context:1777] [raw sql] ()
[2022-08-02T19:46:35:1659449795 IST+0530] INFO [sqlalchemy.engine.Engine._execute_context:1772] show standard_conforming_strings
[2022-08-02T19:46:35:1659449795 IST+0530] INFO [sqlalchemy.engine.Engine._execute_context:1777] [raw sql] ()
[2022-08-02T19:46:35:1659449795 IST+0530] INFO [sqlalchemy.engine.Engine._begin_impl:953] BEGIN (implicit)
[2022-08-02T19:46:35:1659449795 IST+0530] INFO [sqlalchemy.engine.Engine._execute_context:1772] select relname from pg_class c join pg_namespace n on n.oid=c.relnamespace where pg_catalog.pg_table_is_visible(c.oid) and relname=%s
[2022-08-02T19:46:35:1659449795 IST+0530] INFO [sqlalchemy.engine.Engine._execute_context:1777] [generated in 0.00092s] ('tbl_users',)
[2022-08-02T19:46:35:1659449795 IST+0530] INFO [sqlalchemy.engine.Engine._execute_context:1772] select relname from pg_class c join pg_namespace n on n.oid=c.relnamespace where pg_catalog.pg_table_is_visible(c.oid) and relname=%s
[2022-08-02T19:46:35:1659449795 IST+0530] INFO [sqlalchemy.engine.Engine._execute_context:1777] [cached since 0.248s ago] ('tbl_userlog',)
[2022-08-02T19:46:36:1659449796 IST+0530] INFO [sqlalchemy.engine.Engine._execute_context:1772] select relname from pg_class c join pg_namespace n on n.oid=c.relnamespace where pg_catalog.pg_table_is_visible(c.oid) and relname=%s
[2022-08-02T19:46:36:1659449796 IST+0530] INFO [sqlalchemy.engine.Engine._execute_context:1777] [cached since 0.3071s ago] ('tbl_invalid_tokens',)
[2022-08-02T19:46:36:1659449796 IST+0530] INFO [sqlalchemy.engine.Engine._commit_impl:1013] COMMIT
[2022-08-02T19:46:36:1659449796 IST+0530] INFO [uvicorn.error.startup:61] Application startup complete.
[2022-08-02T19:46:36:1659449796 IST+0530] INFO [uvicorn.error._log_started_message:207] Uvicorn running on http://127.0.0.1:9091 (Press CTRL+C to quit)
[2022-08-02T19:46:53:1659449813 IST+0530] DEBUG [multipart.multipart.callback:604] Calling on_field_start with no data
[2022-08-02T19:46:53:1659449813 IST+0530] DEBUG [multipart.multipart.callback:601] Calling on_field_name with data[0:10]
[2022-08-02T19:46:53:1659449813 IST+0530] DEBUG [multipart.multipart.callback:601] Calling on_field_data with data[11:19]
[2022-08-02T19:46:53:1659449813 IST+0530] DEBUG [multipart.multipart.callback:604] Calling on_field_end with no data
[2022-08-02T19:46:53:1659449813 IST+0530] DEBUG [multipart.multipart.callback:604] Calling on_field_start with no data
[2022-08-02T19:46:53:1659449813 IST+0530] DEBUG [multipart.multipart.callback:601] Calling on_field_name with data[20:25]
[2022-08-02T19:46:53:1659449813 IST+0530] DEBUG [multipart.multipart.callback:601] Calling on_field_data with data[26:28]
[2022-08-02T19:46:53:1659449813 IST+0530] DEBUG [multipart.multipart.callback:604] Calling on_field_end with no data
[2022-08-02T19:46:53:1659449813 IST+0530] DEBUG [multipart.multipart.callback:604] Calling on_field_start with no data
[2022-08-02T19:46:53:1659449813 IST+0530] DEBUG [multipart.multipart.callback:601] Calling on_field_name with data[29:37]
[2022-08-02T19:46:53:1659449813 IST+0530] DEBUG [multipart.multipart.callback:601] Calling on_field_data with data[38:45]
[2022-08-02T19:46:53:1659449813 IST+0530] DEBUG [multipart.multipart.callback:604] Calling on_field_end with no data
[2022-08-02T19:46:53:1659449813 IST+0530] DEBUG [multipart.multipart.callback:604] Calling on_field_start with no data
[2022-08-02T19:46:53:1659449813 IST+0530] DEBUG [multipart.multipart.callback:601] Calling on_field_name with data[46:54]
[2022-08-02T19:46:53:1659449813 IST+0530] DEBUG [multipart.multipart.callback:601] Calling on_field_data with data[55:62]
[2022-08-02T19:46:53:1659449813 IST+0530] DEBUG [multipart.multipart.callback:604] Calling on_field_end with no data
[2022-08-02T19:46:53:1659449813 IST+0530] DEBUG [multipart.multipart.callback:604] Calling on_end with no data
[2022-08-02T19:46:53:1659449813 IST+0530] INFO [sqlalchemy.engine.Engine._begin_impl:953] BEGIN (implicit)
[2022-08-02T19:46:53:1659449813 IST+0530] INFO [sqlalchemy.engine.Engine._execute_context:1772] SELECT tbl_users.login_name, tbl_users.hashed_password, tbl_users.roles, tbl_users.is_active 
FROM tbl_users 
WHERE tbl_users.login_name = %s
[2022-08-02T19:46:53:1659449813 IST+0530] INFO [sqlalchemy.engine.Engine._execute_context:1777] [generated in 0.00056s] ('driver1',)
[2022-08-02T19:46:53:1659449813 IST+0530] INFO [sqlalchemy.engine.Engine._rollback_impl:981] ROLLBACK
[2022-08-02T19:47:20:1659449840 IST+0530] INFO [uvicorn.error.shutdown:253] Shutting down
[2022-08-02T19:47:20:1659449840 IST+0530] INFO [uvicorn.error.shutdown:66] Waiting for application shutdown.
[2022-08-02T19:47:20:1659449840 IST+0530] INFO [uvicorn.error.shutdown:77] Application shutdown complete.
[2022-08-02T19:47:20:1659449840 IST+0530] INFO [uvicorn.error.serve:85] Finished server process [3208]
[2022-08-02T19:47:40:1659449860 IST+0530] INFO [root.__init_application:29] creating API service and Web Site
[2022-08-02T19:47:41:1659449861 IST+0530] INFO [root.__init_routes:19] initializing all routes
[2022-08-02T19:47:42:1659449862 IST+0530] INFO [uvicorn.error.serve:75] Started server process [3272]
[2022-08-02T19:47:42:1659449862 IST+0530] INFO [uvicorn.error.startup:47] Waiting for application startup.
[2022-08-02T19:47:44:1659449864 IST+0530] INFO [sqlalchemy.engine.Engine._execute_context:1772] select pg_catalog.version()
[2022-08-02T19:47:44:1659449864 IST+0530] INFO [sqlalchemy.engine.Engine._execute_context:1777] [raw sql] ()
[2022-08-02T19:47:44:1659449864 IST+0530] INFO [sqlalchemy.engine.Engine._execute_context:1772] select current_schema()
[2022-08-02T19:47:44:1659449864 IST+0530] INFO [sqlalchemy.engine.Engine._execute_context:1777] [raw sql] ()
[2022-08-02T19:47:44:1659449864 IST+0530] INFO [sqlalchemy.engine.Engine._execute_context:1772] show standard_conforming_strings
[2022-08-02T19:47:44:1659449864 IST+0530] INFO [sqlalchemy.engine.Engine._execute_context:1777] [raw sql] ()
[2022-08-02T19:47:44:1659449864 IST+0530] INFO [sqlalchemy.engine.Engine._begin_impl:953] BEGIN (implicit)
[2022-08-02T19:47:44:1659449864 IST+0530] INFO [sqlalchemy.engine.Engine._execute_context:1772] select relname from pg_class c join pg_namespace n on n.oid=c.relnamespace where pg_catalog.pg_table_is_visible(c.oid) and relname=%s
[2022-08-02T19:47:44:1659449864 IST+0530] INFO [sqlalchemy.engine.Engine._execute_context:1777] [generated in 0.00209s] ('tbl_users',)
[2022-08-02T19:47:45:1659449865 IST+0530] INFO [sqlalchemy.engine.Engine._execute_context:1772] select relname from pg_class c join pg_namespace n on n.oid=c.relnamespace where pg_catalog.pg_table_is_visible(c.oid) and relname=%s
[2022-08-02T19:47:45:1659449865 IST+0530] INFO [sqlalchemy.engine.Engine._execute_context:1777] [cached since 0.3747s ago] ('tbl_userlog',)
[2022-08-02T19:47:45:1659449865 IST+0530] INFO [sqlalchemy.engine.Engine._execute_context:1772] select relname from pg_class c join pg_namespace n on n.oid=c.relnamespace where pg_catalog.pg_table_is_visible(c.oid) and relname=%s
[2022-08-02T19:47:45:1659449865 IST+0530] INFO [sqlalchemy.engine.Engine._execute_context:1777] [cached since 0.5767s ago] ('tbl_invalid_tokens',)
[2022-08-02T19:47:45:1659449865 IST+0530] INFO [sqlalchemy.engine.Engine._commit_impl:1013] COMMIT
[2022-08-02T19:47:45:1659449865 IST+0530] INFO [uvicorn.error.startup:61] Application startup complete.
[2022-08-02T19:47:45:1659449865 IST+0530] INFO [uvicorn.error._log_started_message:207] Uvicorn running on http://127.0.0.1:9091 (Press CTRL+C to quit)
[2022-08-02T19:47:51:1659449871 IST+0530] DEBUG [multipart.multipart.callback:604] Calling on_field_start with no data
[2022-08-02T19:47:51:1659449871 IST+0530] DEBUG [multipart.multipart.callback:601] Calling on_field_name with data[0:10]
[2022-08-02T19:47:51:1659449871 IST+0530] DEBUG [multipart.multipart.callback:601] Calling on_field_data with data[11:19]
[2022-08-02T19:47:51:1659449871 IST+0530] DEBUG [multipart.multipart.callback:604] Calling on_field_end with no data
[2022-08-02T19:47:51:1659449871 IST+0530] DEBUG [multipart.multipart.callback:604] Calling on_field_start with no data
[2022-08-02T19:47:51:1659449871 IST+0530] DEBUG [multipart.multipart.callback:601] Calling on_field_name with data[20:25]
[2022-08-02T19:47:51:1659449871 IST+0530] DEBUG [multipart.multipart.callback:601] Calling on_field_data with data[26:28]
[2022-08-02T19:47:51:1659449871 IST+0530] DEBUG [multipart.multipart.callback:604] Calling on_field_end with no data
[2022-08-02T19:47:51:1659449871 IST+0530] DEBUG [multipart.multipart.callback:604] Calling on_field_start with no data
[2022-08-02T19:47:51:1659449871 IST+0530] DEBUG [multipart.multipart.callback:601] Calling on_field_name with data[29:37]
[2022-08-02T19:47:51:1659449871 IST+0530] DEBUG [multipart.multipart.callback:601] Calling on_field_data with data[38:45]
[2022-08-02T19:47:51:1659449871 IST+0530] DEBUG [multipart.multipart.callback:604] Calling on_field_end with no data
[2022-08-02T19:47:51:1659449871 IST+0530] DEBUG [multipart.multipart.callback:604] Calling on_field_start with no data
[2022-08-02T19:47:51:1659449871 IST+0530] DEBUG [multipart.multipart.callback:601] Calling on_field_name with data[46:54]
[2022-08-02T19:47:51:1659449871 IST+0530] DEBUG [multipart.multipart.callback:601] Calling on_field_data with data[55:62]
[2022-08-02T19:47:51:1659449871 IST+0530] DEBUG [multipart.multipart.callback:604] Calling on_field_end with no data
[2022-08-02T19:47:51:1659449871 IST+0530] DEBUG [multipart.multipart.callback:604] Calling on_end with no data
[2022-08-02T19:48:10:1659449890 IST+0530] INFO [sqlalchemy.engine.Engine._begin_impl:953] BEGIN (implicit)
[2022-08-02T19:48:10:1659449890 IST+0530] INFO [sqlalchemy.engine.Engine._execute_context:1772] SELECT tbl_users.login_name, tbl_users.hashed_password, tbl_users.roles, tbl_users.is_active 
FROM tbl_users 
WHERE tbl_users.login_name = %s
[2022-08-02T19:48:10:1659449890 IST+0530] INFO [sqlalchemy.engine.Engine._execute_context:1777] [generated in 0.00099s] ('driver1',)
[2022-08-02T19:48:36:1659449916 IST+0530] INFO [sqlalchemy.engine.Engine._execute_context:1772] SELECT tbl_users.login_name, tbl_users.hashed_password, tbl_users.roles, tbl_users.is_active 
FROM tbl_users 
WHERE tbl_users.login_name = %s
[2022-08-02T19:48:36:1659449916 IST+0530] INFO [sqlalchemy.engine.Engine._execute_context:1777] [cached since 25.55s ago] ('driver1',)
[2022-08-02T19:49:11:1659449951 IST+0530] DEBUG [passlib.handlers.bcrypt._load_backend_mixin:625] detected 'bcrypt' backend, version '3.2.2'
[2022-08-02T19:49:11:1659449951 IST+0530] DEBUG [passlib.handlers.bcrypt._finalize_backend_mixin:406] 'bcrypt' backend lacks $2$ support, enabling workaround
[2022-08-02T19:50:00:1659450000 IST+0530] INFO [sqlalchemy.engine.Engine._rollback_impl:981] ROLLBACK
[2022-08-02T19:50:58:1659450058 IST+0530] INFO [sqlalchemy.engine.Engine._begin_impl:953] BEGIN (implicit)
[2022-08-02T19:50:58:1659450058 IST+0530] INFO [sqlalchemy.engine.Engine._execute_context:1772] SELECT tbl_invalid_tokens.token, tbl_invalid_tokens.token_logout_datetime, tbl_invalid_tokens.token_logout_source 
FROM tbl_invalid_tokens 
WHERE tbl_invalid_tokens.token = %s
[2022-08-02T19:50:58:1659450058 IST+0530] INFO [sqlalchemy.engine.Engine._execute_context:1777] [generated in 0.00046s] ('eyJhbGciOiJSUzI1NiIsInR5cCI6IkpXVCJ9.eyJzdWIiOiJkcml2ZXIxIiwiZXhwIjoxNjU5NDUxNzY2LCJpYXQiOjE2NTk0NDk5NjYsInNjb3BlcyI6eyJtZSI6IkdldCBpbmZvcm1hdGlvbiBh ... (605 characters truncated) ... W9pWAYvAqm_LfM-vwH9oY6cO9TWDFnxSpF3Ze16-g3NYMh1-kcYy_LJMwZsfgLr75xMwHd5EbQ28DvenRbVKx1lbtz9f9Jp3aE2uH5g5r_zVwzQfuakQ4NdbMlz-ve--2-tYkdbJ3lDY6LLGdbD0U',)
[2022-08-02T19:53:07:1659450187 IST+0530] INFO [sqlalchemy.engine.Engine._rollback_impl:981] ROLLBACK
[2022-08-02T19:53:08:1659450188 IST+0530] ERROR [uvicorn.error.run_asgi:406] Exception in ASGI application
Traceback (most recent call last):
  File "/home/p_116749/projects/python/americana/idp/.venv/lib/python3.9/site-packages/uvicorn/protocols/http/h11_impl.py", line 403, in run_asgi
    result = await app(self.scope, self.receive, self.send)
  File "/home/p_116749/projects/python/americana/idp/.venv/lib/python3.9/site-packages/uvicorn/middleware/proxy_headers.py", line 78, in __call__
    return await self.app(scope, receive, send)
  File "/home/p_116749/projects/python/americana/idp/.venv/lib/python3.9/site-packages/fastapi/applications.py", line 269, in __call__
    await super().__call__(scope, receive, send)
  File "/home/p_116749/projects/python/americana/idp/.venv/lib/python3.9/site-packages/starlette/applications.py", line 124, in __call__
    await self.middleware_stack(scope, receive, send)
  File "/home/p_116749/projects/python/americana/idp/.venv/lib/python3.9/site-packages/starlette/middleware/errors.py", line 184, in __call__
    raise exc
  File "/home/p_116749/projects/python/americana/idp/.venv/lib/python3.9/site-packages/starlette/middleware/errors.py", line 162, in __call__
    await self.app(scope, receive, _send)
  File "/home/p_116749/projects/python/americana/idp/.venv/lib/python3.9/site-packages/starlette/middleware/cors.py", line 84, in __call__
    await self.app(scope, receive, send)
  File "/home/p_116749/projects/python/americana/idp/.venv/lib/python3.9/site-packages/starlette/exceptions.py", line 93, in __call__
    raise exc
  File "/home/p_116749/projects/python/americana/idp/.venv/lib/python3.9/site-packages/starlette/exceptions.py", line 82, in __call__
    await self.app(scope, receive, sender)
  File "/home/p_116749/projects/python/americana/idp/.venv/lib/python3.9/site-packages/fastapi/middleware/asyncexitstack.py", line 21, in __call__
    raise e
  File "/home/p_116749/projects/python/americana/idp/.venv/lib/python3.9/site-packages/fastapi/middleware/asyncexitstack.py", line 18, in __call__
    await self.app(scope, receive, send)
  File "/home/p_116749/projects/python/americana/idp/.venv/lib/python3.9/site-packages/starlette/routing.py", line 670, in __call__
    await route.handle(scope, receive, send)
  File "/home/p_116749/projects/python/americana/idp/.venv/lib/python3.9/site-packages/starlette/routing.py", line 266, in handle
    await self.app(scope, receive, send)
  File "/home/p_116749/projects/python/americana/idp/.venv/lib/python3.9/site-packages/starlette/routing.py", line 65, in app
    response = await func(request)
  File "/home/p_116749/projects/python/americana/idp/.venv/lib/python3.9/site-packages/fastapi/routing.py", line 217, in app
    solved_result = await solve_dependencies(
  File "/home/p_116749/projects/python/americana/idp/.venv/lib/python3.9/site-packages/fastapi/dependencies/utils.py", line 500, in solve_dependencies
    solved_result = await solve_dependencies(
  File "/home/p_116749/projects/python/americana/idp/.venv/lib/python3.9/site-packages/fastapi/dependencies/utils.py", line 529, in solve_dependencies
    solved = await call(**sub_values)
  File "/home/p_116749/projects/python/americana/idp/./src/service/auth_service.py", line 94, in get_current_user
    user_rec = await get_user_detail(username=token_data.username)
TypeError: get_user_detail() missing 1 required positional argument: 'session'
[2022-08-02T19:53:45:1659450225 IST+0530] INFO [sqlalchemy.engine.Engine._begin_impl:953] BEGIN (implicit)
[2022-08-02T19:53:45:1659450225 IST+0530] INFO [sqlalchemy.engine.Engine._execute_context:1772] SELECT tbl_invalid_tokens.token, tbl_invalid_tokens.token_logout_datetime, tbl_invalid_tokens.token_logout_source 
FROM tbl_invalid_tokens 
WHERE tbl_invalid_tokens.token = %s
[2022-08-02T19:53:45:1659450225 IST+0530] INFO [sqlalchemy.engine.Engine._execute_context:1777] [cached since 166.3s ago] ('eyJhbGciOiJSUzI1NiIsInR5cCI6IkpXVCJ9.eyJzdWIiOiJkcml2ZXIxIiwiZXhwIjoxNjU5NDUxNzY2LCJpYXQiOjE2NTk0NDk5NjYsInNjb3BlcyI6eyJtZSI6IkdldCBpbmZvcm1hdGlvbiBh ... (605 characters truncated) ... W9pWAYvAqm_LfM-vwH9oY6cO9TWDFnxSpF3Ze16-g3NYMh1-kcYy_LJMwZsfgLr75xMwHd5EbQ28DvenRbVKx1lbtz9f9Jp3aE2uH5g5r_zVwzQfuakQ4NdbMlz-ve--2-tYkdbJ3lDY6LLGdbD0U',)
[2022-08-02T19:53:45:1659450225 IST+0530] INFO [sqlalchemy.engine.Engine._rollback_impl:981] ROLLBACK
[2022-08-02T19:54:05:1659450245 IST+0530] INFO [root.__init_application:29] creating API service and Web Site
[2022-08-02T19:54:06:1659450246 IST+0530] INFO [root.__init_routes:19] initializing all routes
[2022-08-02T19:54:07:1659450247 IST+0530] INFO [uvicorn.error.serve:75] Started server process [3600]
[2022-08-02T19:54:07:1659450247 IST+0530] INFO [uvicorn.error.startup:47] Waiting for application startup.
[2022-08-02T19:54:08:1659450248 IST+0530] INFO [sqlalchemy.engine.Engine._execute_context:1772] select pg_catalog.version()
[2022-08-02T19:54:08:1659450248 IST+0530] INFO [sqlalchemy.engine.Engine._execute_context:1777] [raw sql] ()
[2022-08-02T19:54:09:1659450249 IST+0530] INFO [sqlalchemy.engine.Engine._execute_context:1772] select current_schema()
[2022-08-02T19:54:09:1659450249 IST+0530] INFO [sqlalchemy.engine.Engine._execute_context:1777] [raw sql] ()
[2022-08-02T19:54:09:1659450249 IST+0530] INFO [sqlalchemy.engine.Engine._execute_context:1772] show standard_conforming_strings
[2022-08-02T19:54:09:1659450249 IST+0530] INFO [sqlalchemy.engine.Engine._execute_context:1777] [raw sql] ()
[2022-08-02T19:54:09:1659450249 IST+0530] INFO [sqlalchemy.engine.Engine._begin_impl:953] BEGIN (implicit)
[2022-08-02T19:54:09:1659450249 IST+0530] INFO [sqlalchemy.engine.Engine._execute_context:1772] select relname from pg_class c join pg_namespace n on n.oid=c.relnamespace where pg_catalog.pg_table_is_visible(c.oid) and relname=%s
[2022-08-02T19:54:09:1659450249 IST+0530] INFO [sqlalchemy.engine.Engine._execute_context:1777] [generated in 0.00153s] ('tbl_users',)
[2022-08-02T19:54:10:1659450250 IST+0530] INFO [sqlalchemy.engine.Engine._execute_context:1772] select relname from pg_class c join pg_namespace n on n.oid=c.relnamespace where pg_catalog.pg_table_is_visible(c.oid) and relname=%s
[2022-08-02T19:54:10:1659450250 IST+0530] INFO [sqlalchemy.engine.Engine._execute_context:1777] [cached since 0.4289s ago] ('tbl_userlog',)
[2022-08-02T19:54:10:1659450250 IST+0530] INFO [sqlalchemy.engine.Engine._execute_context:1772] select relname from pg_class c join pg_namespace n on n.oid=c.relnamespace where pg_catalog.pg_table_is_visible(c.oid) and relname=%s
[2022-08-02T19:54:10:1659450250 IST+0530] INFO [sqlalchemy.engine.Engine._execute_context:1777] [cached since 0.5186s ago] ('tbl_invalid_tokens',)
[2022-08-02T19:54:17:1659450257 IST+0530] INFO [sqlalchemy.engine.Engine._commit_impl:1013] COMMIT
[2022-08-02T19:54:18:1659450258 IST+0530] INFO [uvicorn.error.startup:61] Application startup complete.
[2022-08-02T19:54:18:1659450258 IST+0530] INFO [uvicorn.error._log_started_message:207] Uvicorn running on http://127.0.0.1:9091 (Press CTRL+C to quit)
[2022-08-02T19:54:24:1659450264 IST+0530] INFO [sqlalchemy.engine.Engine._begin_impl:953] BEGIN (implicit)
[2022-08-02T19:54:24:1659450264 IST+0530] INFO [sqlalchemy.engine.Engine._execute_context:1772] SELECT tbl_invalid_tokens.token, tbl_invalid_tokens.token_logout_datetime, tbl_invalid_tokens.token_logout_source 
FROM tbl_invalid_tokens 
WHERE tbl_invalid_tokens.token = %s
[2022-08-02T19:54:24:1659450264 IST+0530] INFO [sqlalchemy.engine.Engine._execute_context:1777] [generated in 0.00108s] ('eyJhbGciOiJSUzI1NiIsInR5cCI6IkpXVCJ9.eyJzdWIiOiJkcml2ZXIxIiwiZXhwIjoxNjU5NDUxNzY2LCJpYXQiOjE2NTk0NDk5NjYsInNjb3BlcyI6eyJtZSI6IkdldCBpbmZvcm1hdGlvbiBh ... (605 characters truncated) ... W9pWAYvAqm_LfM-vwH9oY6cO9TWDFnxSpF3Ze16-g3NYMh1-kcYy_LJMwZsfgLr75xMwHd5EbQ28DvenRbVKx1lbtz9f9Jp3aE2uH5g5r_zVwzQfuakQ4NdbMlz-ve--2-tYkdbJ3lDY6LLGdbD0U',)
[2022-08-02T19:54:45:1659450285 IST+0530] INFO [sqlalchemy.engine.Engine._execute_context:1772] SELECT tbl_users.login_name, tbl_users.hashed_password, tbl_users.roles, tbl_users.is_active 
FROM tbl_users 
WHERE tbl_users.login_name = %s
[2022-08-02T19:54:45:1659450285 IST+0530] INFO [sqlalchemy.engine.Engine._execute_context:1777] [generated in 0.00068s] ('driver1',)
[2022-08-02T19:55:52:1659450352 IST+0530] INFO [sqlalchemy.engine.Engine._rollback_impl:981] ROLLBACK
[2022-08-02T19:55:52:1659450352 IST+0530] ERROR [uvicorn.error.run_asgi:406] Exception in ASGI application
Traceback (most recent call last):
  File "/home/p_116749/projects/python/americana/idp/.venv/lib/python3.9/site-packages/uvicorn/protocols/http/h11_impl.py", line 403, in run_asgi
    result = await app(self.scope, self.receive, self.send)
  File "/home/p_116749/projects/python/americana/idp/.venv/lib/python3.9/site-packages/uvicorn/middleware/proxy_headers.py", line 78, in __call__
    return await self.app(scope, receive, send)
  File "/home/p_116749/projects/python/americana/idp/.venv/lib/python3.9/site-packages/fastapi/applications.py", line 269, in __call__
    await super().__call__(scope, receive, send)
  File "/home/p_116749/projects/python/americana/idp/.venv/lib/python3.9/site-packages/starlette/applications.py", line 124, in __call__
    await self.middleware_stack(scope, receive, send)
  File "/home/p_116749/projects/python/americana/idp/.venv/lib/python3.9/site-packages/starlette/middleware/errors.py", line 184, in __call__
    raise exc
  File "/home/p_116749/projects/python/americana/idp/.venv/lib/python3.9/site-packages/starlette/middleware/errors.py", line 162, in __call__
    await self.app(scope, receive, _send)
  File "/home/p_116749/projects/python/americana/idp/.venv/lib/python3.9/site-packages/starlette/middleware/cors.py", line 84, in __call__
    await self.app(scope, receive, send)
  File "/home/p_116749/projects/python/americana/idp/.venv/lib/python3.9/site-packages/starlette/exceptions.py", line 93, in __call__
    raise exc
  File "/home/p_116749/projects/python/americana/idp/.venv/lib/python3.9/site-packages/starlette/exceptions.py", line 82, in __call__
    await self.app(scope, receive, sender)
  File "/home/p_116749/projects/python/americana/idp/.venv/lib/python3.9/site-packages/fastapi/middleware/asyncexitstack.py", line 21, in __call__
    raise e
  File "/home/p_116749/projects/python/americana/idp/.venv/lib/python3.9/site-packages/fastapi/middleware/asyncexitstack.py", line 18, in __call__
    await self.app(scope, receive, send)
  File "/home/p_116749/projects/python/americana/idp/.venv/lib/python3.9/site-packages/starlette/routing.py", line 670, in __call__
    await route.handle(scope, receive, send)
  File "/home/p_116749/projects/python/americana/idp/.venv/lib/python3.9/site-packages/starlette/routing.py", line 266, in handle
    await self.app(scope, receive, send)
  File "/home/p_116749/projects/python/americana/idp/.venv/lib/python3.9/site-packages/starlette/routing.py", line 65, in app
    response = await func(request)
  File "/home/p_116749/projects/python/americana/idp/.venv/lib/python3.9/site-packages/fastapi/routing.py", line 245, in app
    content = await serialize_response(
  File "/home/p_116749/projects/python/americana/idp/.venv/lib/python3.9/site-packages/fastapi/routing.py", line 138, in serialize_response
    raise ValidationError(errors, field.type_)
pydantic.error_wrappers.ValidationError: 1 validation error for User
response
  value is not a valid dict (type=type_error.dict)
[2022-08-02T19:56:18:1659450378 IST+0530] INFO [sqlalchemy.engine.Engine._begin_impl:953] BEGIN (implicit)
[2022-08-02T19:56:18:1659450378 IST+0530] INFO [sqlalchemy.engine.Engine._execute_context:1772] SELECT tbl_invalid_tokens.token, tbl_invalid_tokens.token_logout_datetime, tbl_invalid_tokens.token_logout_source 
FROM tbl_invalid_tokens 
WHERE tbl_invalid_tokens.token = %s
[2022-08-02T19:56:18:1659450378 IST+0530] INFO [sqlalchemy.engine.Engine._execute_context:1777] [cached since 114.3s ago] ('eyJhbGciOiJSUzI1NiIsInR5cCI6IkpXVCJ9.eyJzdWIiOiJkcml2ZXIxIiwiZXhwIjoxNjU5NDUxNzY2LCJpYXQiOjE2NTk0NDk5NjYsInNjb3BlcyI6eyJtZSI6IkdldCBpbmZvcm1hdGlvbiBh ... (605 characters truncated) ... W9pWAYvAqm_LfM-vwH9oY6cO9TWDFnxSpF3Ze16-g3NYMh1-kcYy_LJMwZsfgLr75xMwHd5EbQ28DvenRbVKx1lbtz9f9Jp3aE2uH5g5r_zVwzQfuakQ4NdbMlz-ve--2-tYkdbJ3lDY6LLGdbD0U',)
[2022-08-02T19:56:20:1659450380 IST+0530] INFO [sqlalchemy.engine.Engine._execute_context:1772] SELECT tbl_users.login_name, tbl_users.hashed_password, tbl_users.roles, tbl_users.is_active 
FROM tbl_users 
WHERE tbl_users.login_name = %s
[2022-08-02T19:56:20:1659450380 IST+0530] INFO [sqlalchemy.engine.Engine._execute_context:1777] [cached since 95.11s ago] ('driver1',)
[2022-08-02T19:56:20:1659450380 IST+0530] INFO [sqlalchemy.engine.Engine._rollback_impl:981] ROLLBACK
[2022-08-02T19:56:20:1659450380 IST+0530] ERROR [uvicorn.error.run_asgi:406] Exception in ASGI application
Traceback (most recent call last):
  File "/home/p_116749/projects/python/americana/idp/.venv/lib/python3.9/site-packages/uvicorn/protocols/http/h11_impl.py", line 403, in run_asgi
    result = await app(self.scope, self.receive, self.send)
  File "/home/p_116749/projects/python/americana/idp/.venv/lib/python3.9/site-packages/uvicorn/middleware/proxy_headers.py", line 78, in __call__
    return await self.app(scope, receive, send)
  File "/home/p_116749/projects/python/americana/idp/.venv/lib/python3.9/site-packages/fastapi/applications.py", line 269, in __call__
    await super().__call__(scope, receive, send)
  File "/home/p_116749/projects/python/americana/idp/.venv/lib/python3.9/site-packages/starlette/applications.py", line 124, in __call__
    await self.middleware_stack(scope, receive, send)
  File "/home/p_116749/projects/python/americana/idp/.venv/lib/python3.9/site-packages/starlette/middleware/errors.py", line 184, in __call__
    raise exc
  File "/home/p_116749/projects/python/americana/idp/.venv/lib/python3.9/site-packages/starlette/middleware/errors.py", line 162, in __call__
    await self.app(scope, receive, _send)
  File "/home/p_116749/projects/python/americana/idp/.venv/lib/python3.9/site-packages/starlette/middleware/cors.py", line 84, in __call__
    await self.app(scope, receive, send)
  File "/home/p_116749/projects/python/americana/idp/.venv/lib/python3.9/site-packages/starlette/exceptions.py", line 93, in __call__
    raise exc
  File "/home/p_116749/projects/python/americana/idp/.venv/lib/python3.9/site-packages/starlette/exceptions.py", line 82, in __call__
    await self.app(scope, receive, sender)
  File "/home/p_116749/projects/python/americana/idp/.venv/lib/python3.9/site-packages/fastapi/middleware/asyncexitstack.py", line 21, in __call__
    raise e
  File "/home/p_116749/projects/python/americana/idp/.venv/lib/python3.9/site-packages/fastapi/middleware/asyncexitstack.py", line 18, in __call__
    await self.app(scope, receive, send)
  File "/home/p_116749/projects/python/americana/idp/.venv/lib/python3.9/site-packages/starlette/routing.py", line 670, in __call__
    await route.handle(scope, receive, send)
  File "/home/p_116749/projects/python/americana/idp/.venv/lib/python3.9/site-packages/starlette/routing.py", line 266, in handle
    await self.app(scope, receive, send)
  File "/home/p_116749/projects/python/americana/idp/.venv/lib/python3.9/site-packages/starlette/routing.py", line 65, in app
    response = await func(request)
  File "/home/p_116749/projects/python/americana/idp/.venv/lib/python3.9/site-packages/fastapi/routing.py", line 217, in app
    solved_result = await solve_dependencies(
  File "/home/p_116749/projects/python/americana/idp/.venv/lib/python3.9/site-packages/fastapi/dependencies/utils.py", line 529, in solve_dependencies
    solved = await call(**sub_values)
  File "/home/p_116749/projects/python/americana/idp/./src/service/auth_service.py", line 101, in get_current_active_user
    if not current_user[0].is_active:
AttributeError: 'list' object has no attribute 'is_active'
[2022-08-02T19:56:32:1659450392 IST+0530] INFO [sqlalchemy.engine.Engine._begin_impl:953] BEGIN (implicit)
[2022-08-02T19:56:32:1659450392 IST+0530] INFO [sqlalchemy.engine.Engine._execute_context:1772] SELECT tbl_invalid_tokens.token, tbl_invalid_tokens.token_logout_datetime, tbl_invalid_tokens.token_logout_source 
FROM tbl_invalid_tokens 
WHERE tbl_invalid_tokens.token = %s
[2022-08-02T19:56:32:1659450392 IST+0530] INFO [sqlalchemy.engine.Engine._execute_context:1777] [cached since 127.9s ago] ('eyJhbGciOiJSUzI1NiIsInR5cCI6IkpXVCJ9.eyJzdWIiOiJkcml2ZXIxIiwiZXhwIjoxNjU5NDUxNzY2LCJpYXQiOjE2NTk0NDk5NjYsInNjb3BlcyI6eyJtZSI6IkdldCBpbmZvcm1hdGlvbiBh ... (605 characters truncated) ... W9pWAYvAqm_LfM-vwH9oY6cO9TWDFnxSpF3Ze16-g3NYMh1-kcYy_LJMwZsfgLr75xMwHd5EbQ28DvenRbVKx1lbtz9f9Jp3aE2uH5g5r_zVwzQfuakQ4NdbMlz-ve--2-tYkdbJ3lDY6LLGdbD0U',)
[2022-08-02T19:56:35:1659450395 IST+0530] INFO [sqlalchemy.engine.Engine._execute_context:1772] SELECT tbl_users.login_name, tbl_users.hashed_password, tbl_users.roles, tbl_users.is_active 
FROM tbl_users 
WHERE tbl_users.login_name = %s
[2022-08-02T19:56:35:1659450395 IST+0530] INFO [sqlalchemy.engine.Engine._execute_context:1777] [cached since 110.2s ago] ('driver1',)
[2022-08-02T19:57:19:1659450439 IST+0530] INFO [sqlalchemy.engine.Engine._rollback_impl:981] ROLLBACK
[2022-08-02T19:57:19:1659450439 IST+0530] ERROR [uvicorn.error.run_asgi:406] Exception in ASGI application
Traceback (most recent call last):
  File "/home/p_116749/projects/python/americana/idp/.venv/lib/python3.9/site-packages/uvicorn/protocols/http/h11_impl.py", line 403, in run_asgi
    result = await app(self.scope, self.receive, self.send)
  File "/home/p_116749/projects/python/americana/idp/.venv/lib/python3.9/site-packages/uvicorn/middleware/proxy_headers.py", line 78, in __call__
    return await self.app(scope, receive, send)
  File "/home/p_116749/projects/python/americana/idp/.venv/lib/python3.9/site-packages/fastapi/applications.py", line 269, in __call__
    await super().__call__(scope, receive, send)
  File "/home/p_116749/projects/python/americana/idp/.venv/lib/python3.9/site-packages/starlette/applications.py", line 124, in __call__
    await self.middleware_stack(scope, receive, send)
  File "/home/p_116749/projects/python/americana/idp/.venv/lib/python3.9/site-packages/starlette/middleware/errors.py", line 184, in __call__
    raise exc
  File "/home/p_116749/projects/python/americana/idp/.venv/lib/python3.9/site-packages/starlette/middleware/errors.py", line 162, in __call__
    await self.app(scope, receive, _send)
  File "/home/p_116749/projects/python/americana/idp/.venv/lib/python3.9/site-packages/starlette/middleware/cors.py", line 84, in __call__
    await self.app(scope, receive, send)
  File "/home/p_116749/projects/python/americana/idp/.venv/lib/python3.9/site-packages/starlette/exceptions.py", line 93, in __call__
    raise exc
  File "/home/p_116749/projects/python/americana/idp/.venv/lib/python3.9/site-packages/starlette/exceptions.py", line 82, in __call__
    await self.app(scope, receive, sender)
  File "/home/p_116749/projects/python/americana/idp/.venv/lib/python3.9/site-packages/fastapi/middleware/asyncexitstack.py", line 21, in __call__
    raise e
  File "/home/p_116749/projects/python/americana/idp/.venv/lib/python3.9/site-packages/fastapi/middleware/asyncexitstack.py", line 18, in __call__
    await self.app(scope, receive, send)
  File "/home/p_116749/projects/python/americana/idp/.venv/lib/python3.9/site-packages/starlette/routing.py", line 670, in __call__
    await route.handle(scope, receive, send)
  File "/home/p_116749/projects/python/americana/idp/.venv/lib/python3.9/site-packages/starlette/routing.py", line 266, in handle
    await self.app(scope, receive, send)
  File "/home/p_116749/projects/python/americana/idp/.venv/lib/python3.9/site-packages/starlette/routing.py", line 65, in app
    response = await func(request)
  File "/home/p_116749/projects/python/americana/idp/.venv/lib/python3.9/site-packages/fastapi/routing.py", line 217, in app
    solved_result = await solve_dependencies(
  File "/home/p_116749/projects/python/americana/idp/.venv/lib/python3.9/site-packages/fastapi/dependencies/utils.py", line 529, in solve_dependencies
    solved = await call(**sub_values)
  File "/home/p_116749/projects/python/americana/idp/./src/service/auth_service.py", line 101, in get_current_active_user
    if not current_user[0].is_active:
AttributeError: 'list' object has no attribute 'is_active'
[2022-08-02T19:58:13:1659450493 IST+0530] INFO [root.__init_application:29] creating API service and Web Site
[2022-08-02T19:58:14:1659450494 IST+0530] INFO [root.__init_routes:19] initializing all routes
[2022-08-02T19:58:15:1659450495 IST+0530] INFO [uvicorn.error.serve:75] Started server process [3890]
[2022-08-02T19:58:15:1659450495 IST+0530] INFO [uvicorn.error.startup:47] Waiting for application startup.
[2022-08-02T19:58:16:1659450496 IST+0530] INFO [sqlalchemy.engine.Engine._execute_context:1772] select pg_catalog.version()
[2022-08-02T19:58:16:1659450496 IST+0530] INFO [sqlalchemy.engine.Engine._execute_context:1777] [raw sql] ()
[2022-08-02T19:58:17:1659450497 IST+0530] INFO [sqlalchemy.engine.Engine._execute_context:1772] select current_schema()
[2022-08-02T19:58:17:1659450497 IST+0530] INFO [sqlalchemy.engine.Engine._execute_context:1777] [raw sql] ()
[2022-08-02T19:58:17:1659450497 IST+0530] INFO [sqlalchemy.engine.Engine._execute_context:1772] show standard_conforming_strings
[2022-08-02T19:58:17:1659450497 IST+0530] INFO [sqlalchemy.engine.Engine._execute_context:1777] [raw sql] ()
[2022-08-02T19:58:17:1659450497 IST+0530] INFO [sqlalchemy.engine.Engine._begin_impl:953] BEGIN (implicit)
[2022-08-02T19:58:17:1659450497 IST+0530] INFO [sqlalchemy.engine.Engine._execute_context:1772] select relname from pg_class c join pg_namespace n on n.oid=c.relnamespace where pg_catalog.pg_table_is_visible(c.oid) and relname=%s
[2022-08-02T19:58:17:1659450497 IST+0530] INFO [sqlalchemy.engine.Engine._execute_context:1777] [generated in 0.00089s] ('tbl_users',)
[2022-08-02T19:58:18:1659450498 IST+0530] INFO [sqlalchemy.engine.Engine._execute_context:1772] select relname from pg_class c join pg_namespace n on n.oid=c.relnamespace where pg_catalog.pg_table_is_visible(c.oid) and relname=%s
[2022-08-02T19:58:18:1659450498 IST+0530] INFO [sqlalchemy.engine.Engine._execute_context:1777] [cached since 0.38s ago] ('tbl_userlog',)
[2022-08-02T19:58:18:1659450498 IST+0530] INFO [sqlalchemy.engine.Engine._execute_context:1772] select relname from pg_class c join pg_namespace n on n.oid=c.relnamespace where pg_catalog.pg_table_is_visible(c.oid) and relname=%s
[2022-08-02T19:58:18:1659450498 IST+0530] INFO [sqlalchemy.engine.Engine._execute_context:1777] [cached since 0.4894s ago] ('tbl_invalid_tokens',)
[2022-08-02T19:58:43:1659450523 IST+0530] INFO [sqlalchemy.engine.Engine._commit_impl:1013] COMMIT
[2022-08-02T19:58:43:1659450523 IST+0530] INFO [uvicorn.error.startup:61] Application startup complete.
[2022-08-02T19:58:43:1659450523 IST+0530] INFO [uvicorn.error._log_started_message:207] Uvicorn running on http://127.0.0.1:9091 (Press CTRL+C to quit)
[2022-08-02T19:59:03:1659450543 IST+0530] INFO [sqlalchemy.engine.Engine._begin_impl:953] BEGIN (implicit)
[2022-08-02T19:59:03:1659450543 IST+0530] INFO [sqlalchemy.engine.Engine._execute_context:1772] SELECT tbl_invalid_tokens.token, tbl_invalid_tokens.token_logout_datetime, tbl_invalid_tokens.token_logout_source 
FROM tbl_invalid_tokens 
WHERE tbl_invalid_tokens.token = %s
[2022-08-02T19:59:03:1659450543 IST+0530] INFO [sqlalchemy.engine.Engine._execute_context:1777] [generated in 0.00111s] ('eyJhbGciOiJSUzI1NiIsInR5cCI6IkpXVCJ9.eyJzdWIiOiJkcml2ZXIxIiwiZXhwIjoxNjU5NDUxNzY2LCJpYXQiOjE2NTk0NDk5NjYsInNjb3BlcyI6eyJtZSI6IkdldCBpbmZvcm1hdGlvbiBh ... (605 characters truncated) ... W9pWAYvAqm_LfM-vwH9oY6cO9TWDFnxSpF3Ze16-g3NYMh1-kcYy_LJMwZsfgLr75xMwHd5EbQ28DvenRbVKx1lbtz9f9Jp3aE2uH5g5r_zVwzQfuakQ4NdbMlz-ve--2-tYkdbJ3lDY6LLGdbD0U',)
[2022-08-02T19:59:26:1659450566 IST+0530] INFO [sqlalchemy.engine.Engine._execute_context:1772] SELECT tbl_users.login_name, tbl_users.hashed_password, tbl_users.roles, tbl_users.is_active 
FROM tbl_users 
WHERE tbl_users.login_name = %s
[2022-08-02T19:59:26:1659450566 IST+0530] INFO [sqlalchemy.engine.Engine._execute_context:1777] [generated in 0.00078s] ('driver1',)
[2022-08-02T20:02:37:1659450757 IST+0530] INFO [sqlalchemy.engine.Engine._rollback_impl:981] ROLLBACK
[2022-08-02T20:02:37:1659450757 IST+0530] ERROR [uvicorn.error.run_asgi:406] Exception in ASGI application
Traceback (most recent call last):
  File "/home/p_116749/projects/python/americana/idp/.venv/lib/python3.9/site-packages/uvicorn/protocols/http/h11_impl.py", line 403, in run_asgi
    result = await app(self.scope, self.receive, self.send)
  File "/home/p_116749/projects/python/americana/idp/.venv/lib/python3.9/site-packages/uvicorn/middleware/proxy_headers.py", line 78, in __call__
    return await self.app(scope, receive, send)
  File "/home/p_116749/projects/python/americana/idp/.venv/lib/python3.9/site-packages/fastapi/applications.py", line 269, in __call__
    await super().__call__(scope, receive, send)
  File "/home/p_116749/projects/python/americana/idp/.venv/lib/python3.9/site-packages/starlette/applications.py", line 124, in __call__
    await self.middleware_stack(scope, receive, send)
  File "/home/p_116749/projects/python/americana/idp/.venv/lib/python3.9/site-packages/starlette/middleware/errors.py", line 184, in __call__
    raise exc
  File "/home/p_116749/projects/python/americana/idp/.venv/lib/python3.9/site-packages/starlette/middleware/errors.py", line 162, in __call__
    await self.app(scope, receive, _send)
  File "/home/p_116749/projects/python/americana/idp/.venv/lib/python3.9/site-packages/starlette/middleware/cors.py", line 84, in __call__
    await self.app(scope, receive, send)
  File "/home/p_116749/projects/python/americana/idp/.venv/lib/python3.9/site-packages/starlette/exceptions.py", line 93, in __call__
    raise exc
  File "/home/p_116749/projects/python/americana/idp/.venv/lib/python3.9/site-packages/starlette/exceptions.py", line 82, in __call__
    await self.app(scope, receive, sender)
  File "/home/p_116749/projects/python/americana/idp/.venv/lib/python3.9/site-packages/fastapi/middleware/asyncexitstack.py", line 21, in __call__
    raise e
  File "/home/p_116749/projects/python/americana/idp/.venv/lib/python3.9/site-packages/fastapi/middleware/asyncexitstack.py", line 18, in __call__
    await self.app(scope, receive, send)
  File "/home/p_116749/projects/python/americana/idp/.venv/lib/python3.9/site-packages/starlette/routing.py", line 670, in __call__
    await route.handle(scope, receive, send)
  File "/home/p_116749/projects/python/americana/idp/.venv/lib/python3.9/site-packages/starlette/routing.py", line 266, in handle
    await self.app(scope, receive, send)
  File "/home/p_116749/projects/python/americana/idp/.venv/lib/python3.9/site-packages/starlette/routing.py", line 65, in app
    response = await func(request)
  File "/home/p_116749/projects/python/americana/idp/.venv/lib/python3.9/site-packages/fastapi/routing.py", line 245, in app
    content = await serialize_response(
  File "/home/p_116749/projects/python/americana/idp/.venv/lib/python3.9/site-packages/fastapi/routing.py", line 138, in serialize_response
    raise ValidationError(errors, field.type_)
pydantic.error_wrappers.ValidationError: 1 validation error for User
response
  value is not a valid dict (type=type_error.dict)
[2022-08-02T20:19:34:1659451774 IST+0530] INFO [uvicorn.error.shutdown:253] Shutting down
[2022-08-02T20:19:34:1659451774 IST+0530] INFO [uvicorn.error.shutdown:66] Waiting for application shutdown.
[2022-08-02T20:19:37:1659451777 IST+0530] INFO [uvicorn.error.shutdown:77] Application shutdown complete.
[2022-08-02T20:19:37:1659451777 IST+0530] INFO [uvicorn.error.serve:85] Finished server process [3890]
[2022-08-02T20:34:02:1659452642 IST+0530] INFO [root.__init_application:29] creating API service and Web Site
[2022-08-02T20:34:02:1659452642 IST+0530] INFO [root.__init_routes:19] initializing all routes
[2022-08-02T20:34:02:1659452642 IST+0530] INFO [uvicorn.error.__init__:359] Will watch for changes in these directories: ['/home/p_116749/projects/python/americana/idp']
[2022-08-02T20:34:02:1659452642 IST+0530] INFO [uvicorn.error.bind_socket:585] Uvicorn running on http://0.0.0.0:9091 (Press CTRL+C to quit)
[2022-08-02T20:34:02:1659452642 IST+0530] INFO [uvicorn.error.startup:72] Started reloader process [4180] using StatReload
[2022-08-02T20:34:03:1659452643 IST+0530] INFO [root.__init_application:29] creating API service and Web Site
[2022-08-02T20:34:03:1659452643 IST+0530] INFO [root.__init_routes:19] initializing all routes
[2022-08-02T20:34:03:1659452643 IST+0530] DEBUG [asyncio.__init__:59] Using selector: EpollSelector
[2022-08-02T20:34:03:1659452643 IST+0530] INFO [root.__init_application:29] creating API service and Web Site
[2022-08-02T20:34:03:1659452643 IST+0530] INFO [root.__init_routes:19] initializing all routes
[2022-08-02T20:34:03:1659452643 IST+0530] INFO [uvicorn.error.serve:75] Started server process [4182]
[2022-08-02T20:34:03:1659452643 IST+0530] INFO [uvicorn.error.startup:47] Waiting for application startup.
[2022-08-02T20:34:04:1659452644 IST+0530] INFO [sqlalchemy.engine.Engine._execute_context:1772] select pg_catalog.version()
