[2022-08-02T20:34:04:1659452644 IST+0530] INFO [sqlalchemy.engine.Engine._execute_context:1777] [raw sql] ()
[2022-08-02T20:34:04:1659452644 IST+0530] INFO [sqlalchemy.engine.Engine._execute_context:1772] select current_schema()
[2022-08-02T20:34:04:1659452644 IST+0530] INFO [sqlalchemy.engine.Engine._execute_context:1777] [raw sql] ()
[2022-08-02T20:34:04:1659452644 IST+0530] INFO [sqlalchemy.engine.Engine._execute_context:1772] show standard_conforming_strings
[2022-08-02T20:34:04:1659452644 IST+0530] INFO [sqlalchemy.engine.Engine._execute_context:1777] [raw sql] ()
[2022-08-02T20:34:05:1659452645 IST+0530] INFO [sqlalchemy.engine.Engine._begin_impl:953] BEGIN (implicit)
[2022-08-02T20:34:05:1659452645 IST+0530] INFO [sqlalchemy.engine.Engine._execute_context:1772] select relname from pg_class c join pg_namespace n on n.oid=c.relnamespace where pg_catalog.pg_table_is_visible(c.oid) and relname=%s
[2022-08-02T20:34:05:1659452645 IST+0530] INFO [sqlalchemy.engine.Engine._execute_context:1777] [generated in 0.00122s] ('tbl_users',)
[2022-08-02T20:34:05:1659452645 IST+0530] INFO [sqlalchemy.engine.Engine._execute_context:1772] select relname from pg_class c join pg_namespace n on n.oid=c.relnamespace where pg_catalog.pg_table_is_visible(c.oid) and relname=%s
[2022-08-02T20:34:05:1659452645 IST+0530] INFO [sqlalchemy.engine.Engine._execute_context:1777] [cached since 0.246s ago] ('tbl_userlog',)
[2022-08-02T20:34:05:1659452645 IST+0530] INFO [sqlalchemy.engine.Engine._execute_context:1772] select relname from pg_class c join pg_namespace n on n.oid=c.relnamespace where pg_catalog.pg_table_is_visible(c.oid) and relname=%s
[2022-08-02T20:34:05:1659452645 IST+0530] INFO [sqlalchemy.engine.Engine._execute_context:1777] [cached since 0.3028s ago] ('tbl_invalid_tokens',)
[2022-08-02T20:34:05:1659452645 IST+0530] INFO [sqlalchemy.engine.Engine._commit_impl:1013] COMMIT
[2022-08-02T20:34:05:1659452645 IST+0530] INFO [uvicorn.error.startup:61] Application startup complete.
[2022-08-02T20:34:15:1659452655 IST+0530] INFO [sqlalchemy.engine.Engine._begin_impl:953] BEGIN (implicit)
[2022-08-02T20:34:15:1659452655 IST+0530] INFO [sqlalchemy.engine.Engine._execute_context:1772] SELECT tbl_invalid_tokens.token, tbl_invalid_tokens.token_logout_datetime, tbl_invalid_tokens.token_logout_source 
FROM tbl_invalid_tokens 
WHERE tbl_invalid_tokens.token = %s
[2022-08-02T20:34:15:1659452655 IST+0530] INFO [sqlalchemy.engine.Engine._execute_context:1777] [generated in 0.00028s] ('eyJhbGciOiJSUzI1NiIsInR5cCI6IkpXVCJ9.eyJzdWIiOiJkcml2ZXIxIiwiZXhwIjoxNjU5NDUxNzY2LCJpYXQiOjE2NTk0NDk5NjYsInNjb3BlcyI6eyJtZSI6IkdldCBpbmZvcm1hdGlvbiBh ... (605 characters truncated) ... W9pWAYvAqm_LfM-vwH9oY6cO9TWDFnxSpF3Ze16-g3NYMh1-kcYy_LJMwZsfgLr75xMwHd5EbQ28DvenRbVKx1lbtz9f9Jp3aE2uH5g5r_zVwzQfuakQ4NdbMlz-ve--2-tYkdbJ3lDY6LLGdbD0U',)
[2022-08-02T20:34:15:1659452655 IST+0530] ERROR [root.decode_access_token:34] EXCEPTION: auth_security->decode_access_token(): Signature has expired.
Traceback (most recent call last):
  File "/home/p_116749/projects/python/americana/idp/src/utilities/auth_security.py", line 30, in decode_access_token
    payload = jwt.decode(token_data_to_decode, public_key, algorithms=[algorithm], audience=audience)
  File "/home/p_116749/projects/python/americana/idp/.venv/lib/python3.9/site-packages/jose/jwt.py", line 157, in decode
    _validate_claims(
  File "/home/p_116749/projects/python/americana/idp/.venv/lib/python3.9/site-packages/jose/jwt.py", line 481, in _validate_claims
    _validate_exp(claims, leeway=leeway)
  File "/home/p_116749/projects/python/americana/idp/.venv/lib/python3.9/site-packages/jose/jwt.py", line 314, in _validate_exp
    raise ExpiredSignatureError("Signature has expired.")
jose.exceptions.ExpiredSignatureError: Signature has expired.
[2022-08-02T20:34:15:1659452655 IST+0530] ERROR [root.get_current_user:91] EXCEPTION-auth_service.py:get_current_user(): {ex}
Traceback (most recent call last):
  File "/home/p_116749/projects/python/americana/idp/src/service/auth_service.py", line 83, in get_current_user
    payload = decode_access_token(token_data_to_decode=token, public_key=SECRET_KEY, algorithm=ALGORITHM, audience=AUDIENCE)
  File "/home/p_116749/projects/python/americana/idp/src/utilities/auth_security.py", line 35, in decode_access_token
    raise ex
  File "/home/p_116749/projects/python/americana/idp/src/utilities/auth_security.py", line 30, in decode_access_token
    payload = jwt.decode(token_data_to_decode, public_key, algorithms=[algorithm], audience=audience)
  File "/home/p_116749/projects/python/americana/idp/.venv/lib/python3.9/site-packages/jose/jwt.py", line 157, in decode
    _validate_claims(
  File "/home/p_116749/projects/python/americana/idp/.venv/lib/python3.9/site-packages/jose/jwt.py", line 481, in _validate_claims
    _validate_exp(claims, leeway=leeway)
  File "/home/p_116749/projects/python/americana/idp/.venv/lib/python3.9/site-packages/jose/jwt.py", line 314, in _validate_exp
    raise ExpiredSignatureError("Signature has expired.")
jose.exceptions.ExpiredSignatureError: Signature has expired.
[2022-08-02T20:34:15:1659452655 IST+0530] INFO [sqlalchemy.engine.Engine._rollback_impl:981] ROLLBACK
[2022-08-02T20:34:39:1659452679 IST+0530] DEBUG [multipart.multipart.callback:604] Calling on_field_start with no data
[2022-08-02T20:34:39:1659452679 IST+0530] DEBUG [multipart.multipart.callback:601] Calling on_field_name with data[0:10]
[2022-08-02T20:34:39:1659452679 IST+0530] DEBUG [multipart.multipart.callback:601] Calling on_field_data with data[11:19]
[2022-08-02T20:34:39:1659452679 IST+0530] DEBUG [multipart.multipart.callback:604] Calling on_field_end with no data
[2022-08-02T20:34:39:1659452679 IST+0530] DEBUG [multipart.multipart.callback:604] Calling on_field_start with no data
[2022-08-02T20:34:39:1659452679 IST+0530] DEBUG [multipart.multipart.callback:601] Calling on_field_name with data[20:25]
[2022-08-02T20:34:39:1659452679 IST+0530] DEBUG [multipart.multipart.callback:601] Calling on_field_data with data[26:28]
[2022-08-02T20:34:39:1659452679 IST+0530] DEBUG [multipart.multipart.callback:604] Calling on_field_end with no data
[2022-08-02T20:34:39:1659452679 IST+0530] DEBUG [multipart.multipart.callback:604] Calling on_field_start with no data
[2022-08-02T20:34:39:1659452679 IST+0530] DEBUG [multipart.multipart.callback:601] Calling on_field_name with data[29:37]
[2022-08-02T20:34:39:1659452679 IST+0530] DEBUG [multipart.multipart.callback:601] Calling on_field_data with data[38:45]
[2022-08-02T20:34:39:1659452679 IST+0530] DEBUG [multipart.multipart.callback:604] Calling on_field_end with no data
[2022-08-02T20:34:39:1659452679 IST+0530] DEBUG [multipart.multipart.callback:604] Calling on_field_start with no data
[2022-08-02T20:34:39:1659452679 IST+0530] DEBUG [multipart.multipart.callback:601] Calling on_field_name with data[46:54]
[2022-08-02T20:34:39:1659452679 IST+0530] DEBUG [multipart.multipart.callback:601] Calling on_field_data with data[55:62]
[2022-08-02T20:34:39:1659452679 IST+0530] DEBUG [multipart.multipart.callback:604] Calling on_field_end with no data
[2022-08-02T20:34:39:1659452679 IST+0530] DEBUG [multipart.multipart.callback:604] Calling on_end with no data
[2022-08-02T20:34:39:1659452679 IST+0530] INFO [sqlalchemy.engine.Engine._begin_impl:953] BEGIN (implicit)
[2022-08-02T20:34:39:1659452679 IST+0530] INFO [sqlalchemy.engine.Engine._execute_context:1772] SELECT tbl_users.login_name, tbl_users.hashed_password, tbl_users.roles, tbl_users.is_active 
FROM tbl_users 
WHERE tbl_users.login_name = %s
[2022-08-02T20:34:39:1659452679 IST+0530] INFO [sqlalchemy.engine.Engine._execute_context:1777] [generated in 0.00038s] ('driver1',)
[2022-08-02T20:34:39:1659452679 IST+0530] DEBUG [passlib.handlers.bcrypt._load_backend_mixin:625] detected 'bcrypt' backend, version '3.2.2'
[2022-08-02T20:34:39:1659452679 IST+0530] DEBUG [passlib.handlers.bcrypt._finalize_backend_mixin:406] 'bcrypt' backend lacks $2$ support, enabling workaround
[2022-08-02T20:34:39:1659452679 IST+0530] INFO [sqlalchemy.engine.Engine._rollback_impl:981] ROLLBACK
[2022-08-02T20:34:44:1659452684 IST+0530] INFO [sqlalchemy.engine.Engine._begin_impl:953] BEGIN (implicit)
[2022-08-02T20:34:44:1659452684 IST+0530] INFO [sqlalchemy.engine.Engine._execute_context:1772] SELECT tbl_invalid_tokens.token, tbl_invalid_tokens.token_logout_datetime, tbl_invalid_tokens.token_logout_source 
FROM tbl_invalid_tokens 
WHERE tbl_invalid_tokens.token = %s
[2022-08-02T20:34:44:1659452684 IST+0530] INFO [sqlalchemy.engine.Engine._execute_context:1777] [cached since 28.8s ago] ('eyJhbGciOiJSUzI1NiIsInR5cCI6IkpXVCJ9.eyJzdWIiOiJkcml2ZXIxIiwiZXhwIjoxNjU5NDU0NDc5LCJpYXQiOjE2NTk0NTI2NzksInNjb3BlcyI6eyJtZSI6IkdldCBpbmZvcm1hdGlvbiBh ... (605 characters truncated) ... Tn0Q8Owav6UZHVDXq6ti5qTbouNbbNJHEPNPffXYeH2eXtAub5UO-ij68T4Q4XyKaerPI1z_C8Gew7HLsH2o5Y_VWpQgM6UjfwH-sDsnoPNSXyFixq_3nQBIkdkebLKTnTITcMW48XEV0_uEInxi4',)
[2022-08-02T20:34:44:1659452684 IST+0530] INFO [sqlalchemy.engine.Engine._execute_context:1772] SELECT tbl_users.login_name, tbl_users.hashed_password, tbl_users.roles, tbl_users.is_active 
FROM tbl_users 
WHERE tbl_users.login_name = %s
[2022-08-02T20:34:44:1659452684 IST+0530] INFO [sqlalchemy.engine.Engine._execute_context:1777] [cached since 5.295s ago] ('driver1',)
[2022-08-02T20:34:44:1659452684 IST+0530] INFO [sqlalchemy.engine.Engine._rollback_impl:981] ROLLBACK
[2022-08-02T20:34:44:1659452684 IST+0530] ERROR [uvicorn.error.run_asgi:406] Exception in ASGI application
Traceback (most recent call last):
  File "/home/p_116749/projects/python/americana/idp/.venv/lib/python3.9/site-packages/uvicorn/protocols/http/h11_impl.py", line 403, in run_asgi
    result = await app(self.scope, self.receive, self.send)
  File "/home/p_116749/projects/python/americana/idp/.venv/lib/python3.9/site-packages/uvicorn/middleware/proxy_headers.py", line 78, in __call__
    return await self.app(scope, receive, send)
  File "/home/p_116749/projects/python/americana/idp/.venv/lib/python3.9/site-packages/fastapi/applications.py", line 269, in __call__
    await super().__call__(scope, receive, send)
  File "/home/p_116749/projects/python/americana/idp/.venv/lib/python3.9/site-packages/starlette/applications.py", line 124, in __call__
    await self.middleware_stack(scope, receive, send)
  File "/home/p_116749/projects/python/americana/idp/.venv/lib/python3.9/site-packages/starlette/middleware/errors.py", line 184, in __call__
    raise exc
  File "/home/p_116749/projects/python/americana/idp/.venv/lib/python3.9/site-packages/starlette/middleware/errors.py", line 162, in __call__
    await self.app(scope, receive, _send)
  File "/home/p_116749/projects/python/americana/idp/.venv/lib/python3.9/site-packages/starlette/middleware/cors.py", line 84, in __call__
    await self.app(scope, receive, send)
  File "/home/p_116749/projects/python/americana/idp/.venv/lib/python3.9/site-packages/starlette/exceptions.py", line 93, in __call__
    raise exc
  File "/home/p_116749/projects/python/americana/idp/.venv/lib/python3.9/site-packages/starlette/exceptions.py", line 82, in __call__
    await self.app(scope, receive, sender)
  File "/home/p_116749/projects/python/americana/idp/.venv/lib/python3.9/site-packages/fastapi/middleware/asyncexitstack.py", line 21, in __call__
    raise e
  File "/home/p_116749/projects/python/americana/idp/.venv/lib/python3.9/site-packages/fastapi/middleware/asyncexitstack.py", line 18, in __call__
    await self.app(scope, receive, send)
  File "/home/p_116749/projects/python/americana/idp/.venv/lib/python3.9/site-packages/starlette/routing.py", line 670, in __call__
    await route.handle(scope, receive, send)
  File "/home/p_116749/projects/python/americana/idp/.venv/lib/python3.9/site-packages/starlette/routing.py", line 266, in handle
    await self.app(scope, receive, send)
  File "/home/p_116749/projects/python/americana/idp/.venv/lib/python3.9/site-packages/starlette/routing.py", line 65, in app
    response = await func(request)
  File "/home/p_116749/projects/python/americana/idp/.venv/lib/python3.9/site-packages/fastapi/routing.py", line 217, in app
    solved_result = await solve_dependencies(
  File "/home/p_116749/projects/python/americana/idp/.venv/lib/python3.9/site-packages/fastapi/dependencies/utils.py", line 529, in solve_dependencies
    solved = await call(**sub_values)
  File "/home/p_116749/projects/python/americana/idp/src/service/auth_service.py", line 101, in get_current_active_user
    if not current_user[0].is_active:
TypeError: 'UsersTable' object is not subscriptable
[2022-08-02T20:35:14:1659452714 IST+0530] INFO [uvicorn.error.shutdown:253] Shutting down
[2022-08-02T20:35:14:1659452714 IST+0530] INFO [uvicorn.error.shutdown:66] Waiting for application shutdown.
[2022-08-02T20:35:14:1659452714 IST+0530] INFO [uvicorn.error.shutdown:77] Application shutdown complete.
[2022-08-02T20:35:14:1659452714 IST+0530] INFO [uvicorn.error.serve:85] Finished server process [4182]
