[2022-07-30T19:05:40:1659188140 IST+0530] WARNING [uvicorn.error.run:47] StatReload detected changes in 'src/utilities/auth_security.py'. Reloading...
[2022-07-30T19:05:41:1659188141 IST+0530] INFO [root.__init_application:29] creating API service and Web Site
[2022-07-30T19:05:41:1659188141 IST+0530] INFO [root.__init_routes:19] initializing all routes
[2022-07-30T19:05:41:1659188141 IST+0530] DEBUG [asyncio.__init__:59] Using selector: EpollSelector
[2022-07-30T19:05:41:1659188141 IST+0530] INFO [root.__init_application:29] creating API service and Web Site
[2022-07-30T19:05:41:1659188141 IST+0530] INFO [root.__init_routes:19] initializing all routes
[2022-07-30T19:05:41:1659188141 IST+0530] INFO [uvicorn.error.serve:75] Started server process [4715]
[2022-07-30T19:05:41:1659188141 IST+0530] INFO [uvicorn.error.startup:47] Waiting for application startup.
[2022-07-30T19:05:41:1659188141 IST+0530] INFO [databases.connect:83] Connected to database postgresql://idp_admin:********@localhost:5432/idp_db?sslmode=prefer
[2022-07-30T19:05:41:1659188141 IST+0530] INFO [uvicorn.error.startup:61] Application startup complete.
[2022-07-30T19:05:52:1659188152 IST+0530] WARNING [uvicorn.error.run:47] StatReload detected changes in 'src/utilities/auth_security.py'. Reloading...
[2022-07-30T19:05:52:1659188152 IST+0530] INFO [uvicorn.error.shutdown:253] Shutting down
[2022-07-30T19:05:52:1659188152 IST+0530] INFO [uvicorn.error.shutdown:66] Waiting for application shutdown.
[2022-07-30T19:05:52:1659188152 IST+0530] INFO [databases.disconnect:119] Disconnected from database postgresql://idp_admin:********@localhost:5432/idp_db?sslmode=prefer
[2022-07-30T19:05:52:1659188152 IST+0530] INFO [uvicorn.error.shutdown:77] Application shutdown complete.
[2022-07-30T19:05:52:1659188152 IST+0530] INFO [uvicorn.error.serve:85] Finished server process [4715]
[2022-07-30T19:05:53:1659188153 IST+0530] INFO [root.__init_application:29] creating API service and Web Site
[2022-07-30T19:05:53:1659188153 IST+0530] INFO [root.__init_routes:19] initializing all routes
[2022-07-30T19:05:53:1659188153 IST+0530] DEBUG [asyncio.__init__:59] Using selector: EpollSelector
[2022-07-30T19:05:53:1659188153 IST+0530] INFO [root.__init_application:29] creating API service and Web Site
[2022-07-30T19:05:53:1659188153 IST+0530] INFO [root.__init_routes:19] initializing all routes
[2022-07-30T19:05:53:1659188153 IST+0530] INFO [uvicorn.error.serve:75] Started server process [4721]
[2022-07-30T19:05:53:1659188153 IST+0530] INFO [uvicorn.error.startup:47] Waiting for application startup.
[2022-07-30T19:05:53:1659188153 IST+0530] INFO [databases.connect:83] Connected to database postgresql://idp_admin:********@localhost:5432/idp_db?sslmode=prefer
[2022-07-30T19:05:53:1659188153 IST+0530] INFO [uvicorn.error.startup:61] Application startup complete.
[2022-07-30T19:05:57:1659188157 IST+0530] WARNING [uvicorn.error.run:47] StatReload detected changes in 'src/utilities/auth_security.py'. Reloading...
[2022-07-30T19:05:57:1659188157 IST+0530] INFO [uvicorn.error.shutdown:253] Shutting down
[2022-07-30T19:05:57:1659188157 IST+0530] INFO [uvicorn.error.shutdown:66] Waiting for application shutdown.
[2022-07-30T19:05:57:1659188157 IST+0530] INFO [databases.disconnect:119] Disconnected from database postgresql://idp_admin:********@localhost:5432/idp_db?sslmode=prefer
[2022-07-30T19:05:57:1659188157 IST+0530] INFO [uvicorn.error.shutdown:77] Application shutdown complete.
[2022-07-30T19:05:57:1659188157 IST+0530] INFO [uvicorn.error.serve:85] Finished server process [4721]
[2022-07-30T19:05:57:1659188157 IST+0530] INFO [root.__init_application:29] creating API service and Web Site
[2022-07-30T19:05:57:1659188157 IST+0530] INFO [root.__init_routes:19] initializing all routes
[2022-07-30T19:05:57:1659188157 IST+0530] DEBUG [asyncio.__init__:59] Using selector: EpollSelector
[2022-07-30T19:05:57:1659188157 IST+0530] INFO [root.__init_application:29] creating API service and Web Site
[2022-07-30T19:05:57:1659188157 IST+0530] INFO [root.__init_routes:19] initializing all routes
[2022-07-30T19:05:57:1659188157 IST+0530] INFO [uvicorn.error.serve:75] Started server process [4728]
[2022-07-30T19:05:57:1659188157 IST+0530] INFO [uvicorn.error.startup:47] Waiting for application startup.
[2022-07-30T19:05:57:1659188157 IST+0530] INFO [databases.connect:83] Connected to database postgresql://idp_admin:********@localhost:5432/idp_db?sslmode=prefer
[2022-07-30T19:05:57:1659188157 IST+0530] INFO [uvicorn.error.startup:61] Application startup complete.
[2022-07-30T19:06:06:1659188166 IST+0530] WARNING [uvicorn.error.run:47] StatReload detected changes in 'src/utilities/auth_security.py'. Reloading...
[2022-07-30T19:06:06:1659188166 IST+0530] INFO [uvicorn.error.shutdown:253] Shutting down
[2022-07-30T19:06:06:1659188166 IST+0530] INFO [uvicorn.error.shutdown:66] Waiting for application shutdown.
[2022-07-30T19:06:06:1659188166 IST+0530] INFO [databases.disconnect:119] Disconnected from database postgresql://idp_admin:********@localhost:5432/idp_db?sslmode=prefer
[2022-07-30T19:06:06:1659188166 IST+0530] INFO [uvicorn.error.shutdown:77] Application shutdown complete.
[2022-07-30T19:06:06:1659188166 IST+0530] INFO [uvicorn.error.serve:85] Finished server process [4728]
[2022-07-30T19:06:07:1659188167 IST+0530] INFO [root.__init_application:29] creating API service and Web Site
[2022-07-30T19:06:07:1659188167 IST+0530] INFO [root.__init_routes:19] initializing all routes
[2022-07-30T19:06:07:1659188167 IST+0530] DEBUG [asyncio.__init__:59] Using selector: EpollSelector
[2022-07-30T19:06:07:1659188167 IST+0530] INFO [root.__init_application:29] creating API service and Web Site
[2022-07-30T19:06:07:1659188167 IST+0530] INFO [root.__init_routes:19] initializing all routes
[2022-07-30T19:06:07:1659188167 IST+0530] INFO [uvicorn.error.serve:75] Started server process [4735]
[2022-07-30T19:06:07:1659188167 IST+0530] INFO [uvicorn.error.startup:47] Waiting for application startup.
[2022-07-30T19:06:07:1659188167 IST+0530] INFO [databases.connect:83] Connected to database postgresql://idp_admin:********@localhost:5432/idp_db?sslmode=prefer
[2022-07-30T19:06:07:1659188167 IST+0530] INFO [uvicorn.error.startup:61] Application startup complete.
[2022-07-30T19:06:53:1659188213 IST+0530] WARNING [uvicorn.error.run:47] StatReload detected changes in 'src/utilities/auth_security.py'. Reloading...
[2022-07-30T19:06:54:1659188214 IST+0530] INFO [uvicorn.error.shutdown:253] Shutting down
[2022-07-30T19:06:54:1659188214 IST+0530] INFO [uvicorn.error.shutdown:66] Waiting for application shutdown.
[2022-07-30T19:06:54:1659188214 IST+0530] INFO [databases.disconnect:119] Disconnected from database postgresql://idp_admin:********@localhost:5432/idp_db?sslmode=prefer
[2022-07-30T19:06:54:1659188214 IST+0530] INFO [uvicorn.error.shutdown:77] Application shutdown complete.
[2022-07-30T19:06:54:1659188214 IST+0530] INFO [uvicorn.error.serve:85] Finished server process [4735]
[2022-07-30T19:06:54:1659188214 IST+0530] INFO [root.__init_application:29] creating API service and Web Site
[2022-07-30T19:06:54:1659188214 IST+0530] INFO [root.__init_routes:19] initializing all routes
[2022-07-30T19:06:54:1659188214 IST+0530] DEBUG [asyncio.__init__:59] Using selector: EpollSelector
[2022-07-30T19:06:54:1659188214 IST+0530] INFO [root.__init_application:29] creating API service and Web Site
[2022-07-30T19:06:54:1659188214 IST+0530] INFO [root.__init_routes:19] initializing all routes
[2022-07-30T19:06:54:1659188214 IST+0530] INFO [uvicorn.error.serve:75] Started server process [4743]
[2022-07-30T19:06:54:1659188214 IST+0530] INFO [uvicorn.error.startup:47] Waiting for application startup.
[2022-07-30T19:06:54:1659188214 IST+0530] INFO [databases.connect:83] Connected to database postgresql://idp_admin:********@localhost:5432/idp_db?sslmode=prefer
[2022-07-30T19:06:54:1659188214 IST+0530] INFO [uvicorn.error.startup:61] Application startup complete.
[2022-07-30T19:07:22:1659188242 IST+0530] WARNING [uvicorn.error.run:47] StatReload detected changes in 'src/utilities/auth_security.py'. Reloading...
[2022-07-30T19:07:22:1659188242 IST+0530] INFO [uvicorn.error.shutdown:253] Shutting down
[2022-07-30T19:07:22:1659188242 IST+0530] INFO [uvicorn.error.shutdown:66] Waiting for application shutdown.
[2022-07-30T19:07:22:1659188242 IST+0530] INFO [databases.disconnect:119] Disconnected from database postgresql://idp_admin:********@localhost:5432/idp_db?sslmode=prefer
[2022-07-30T19:07:22:1659188242 IST+0530] INFO [uvicorn.error.shutdown:77] Application shutdown complete.
[2022-07-30T19:07:22:1659188242 IST+0530] INFO [uvicorn.error.serve:85] Finished server process [4743]
[2022-07-30T19:07:22:1659188242 IST+0530] INFO [root.__init_application:29] creating API service and Web Site
[2022-07-30T19:07:22:1659188242 IST+0530] INFO [root.__init_routes:19] initializing all routes
[2022-07-30T19:07:22:1659188242 IST+0530] DEBUG [asyncio.__init__:59] Using selector: EpollSelector
[2022-07-30T19:07:22:1659188242 IST+0530] INFO [root.__init_application:29] creating API service and Web Site
[2022-07-30T19:07:22:1659188242 IST+0530] INFO [root.__init_routes:19] initializing all routes
[2022-07-30T19:07:22:1659188242 IST+0530] INFO [uvicorn.error.serve:75] Started server process [4751]
[2022-07-30T19:07:22:1659188242 IST+0530] INFO [uvicorn.error.startup:47] Waiting for application startup.
[2022-07-30T19:07:23:1659188243 IST+0530] INFO [databases.connect:83] Connected to database postgresql://idp_admin:********@localhost:5432/idp_db?sslmode=prefer
[2022-07-30T19:07:23:1659188243 IST+0530] INFO [uvicorn.error.startup:61] Application startup complete.
[2022-07-30T19:07:23:1659188243 IST+0530] WARNING [uvicorn.error.run:47] StatReload detected changes in 'src/utilities/auth_security.py'. Reloading...
[2022-07-30T19:07:23:1659188243 IST+0530] INFO [uvicorn.error.shutdown:253] Shutting down
[2022-07-30T19:07:23:1659188243 IST+0530] INFO [uvicorn.error.shutdown:66] Waiting for application shutdown.
[2022-07-30T19:07:23:1659188243 IST+0530] INFO [databases.disconnect:119] Disconnected from database postgresql://idp_admin:********@localhost:5432/idp_db?sslmode=prefer
[2022-07-30T19:07:23:1659188243 IST+0530] INFO [uvicorn.error.shutdown:77] Application shutdown complete.
[2022-07-30T19:07:23:1659188243 IST+0530] INFO [uvicorn.error.serve:85] Finished server process [4751]
[2022-07-30T19:07:24:1659188244 IST+0530] INFO [root.__init_application:29] creating API service and Web Site
[2022-07-30T19:07:24:1659188244 IST+0530] INFO [root.__init_routes:19] initializing all routes
[2022-07-30T19:07:24:1659188244 IST+0530] DEBUG [asyncio.__init__:59] Using selector: EpollSelector
[2022-07-30T19:07:24:1659188244 IST+0530] INFO [root.__init_application:29] creating API service and Web Site
[2022-07-30T19:07:24:1659188244 IST+0530] INFO [root.__init_routes:19] initializing all routes
[2022-07-30T19:07:24:1659188244 IST+0530] INFO [uvicorn.error.serve:75] Started server process [4757]
[2022-07-30T19:07:24:1659188244 IST+0530] INFO [uvicorn.error.startup:47] Waiting for application startup.
[2022-07-30T19:07:24:1659188244 IST+0530] INFO [databases.connect:83] Connected to database postgresql://idp_admin:********@localhost:5432/idp_db?sslmode=prefer
[2022-07-30T19:07:24:1659188244 IST+0530] INFO [uvicorn.error.startup:61] Application startup complete.
[2022-07-30T19:07:29:1659188249 IST+0530] WARNING [uvicorn.error.run:47] StatReload detected changes in 'src/utilities/auth_security.py'. Reloading...
[2022-07-30T19:07:29:1659188249 IST+0530] INFO [uvicorn.error.shutdown:253] Shutting down
[2022-07-30T19:07:30:1659188250 IST+0530] INFO [uvicorn.error.shutdown:66] Waiting for application shutdown.
[2022-07-30T19:07:30:1659188250 IST+0530] INFO [databases.disconnect:119] Disconnected from database postgresql://idp_admin:********@localhost:5432/idp_db?sslmode=prefer
[2022-07-30T19:07:30:1659188250 IST+0530] INFO [uvicorn.error.shutdown:77] Application shutdown complete.
[2022-07-30T19:07:30:1659188250 IST+0530] INFO [uvicorn.error.serve:85] Finished server process [4757]
[2022-07-30T19:07:30:1659188250 IST+0530] INFO [root.__init_application:29] creating API service and Web Site
[2022-07-30T19:07:30:1659188250 IST+0530] INFO [root.__init_routes:19] initializing all routes
[2022-07-30T19:07:30:1659188250 IST+0530] DEBUG [asyncio.__init__:59] Using selector: EpollSelector
[2022-07-30T19:07:30:1659188250 IST+0530] INFO [root.__init_application:29] creating API service and Web Site
[2022-07-30T19:07:30:1659188250 IST+0530] INFO [root.__init_routes:19] initializing all routes
[2022-07-30T19:07:30:1659188250 IST+0530] INFO [uvicorn.error.serve:75] Started server process [4763]
[2022-07-30T19:07:30:1659188250 IST+0530] INFO [uvicorn.error.startup:47] Waiting for application startup.
[2022-07-30T19:07:30:1659188250 IST+0530] INFO [databases.connect:83] Connected to database postgresql://idp_admin:********@localhost:5432/idp_db?sslmode=prefer
[2022-07-30T19:07:30:1659188250 IST+0530] INFO [uvicorn.error.startup:61] Application startup complete.
[2022-07-30T19:07:35:1659188255 IST+0530] WARNING [uvicorn.error.run:47] StatReload detected changes in 'src/utilities/auth_security.py'. Reloading...
[2022-07-30T19:07:35:1659188255 IST+0530] INFO [uvicorn.error.shutdown:253] Shutting down
[2022-07-30T19:07:35:1659188255 IST+0530] INFO [uvicorn.error.shutdown:66] Waiting for application shutdown.
[2022-07-30T19:07:35:1659188255 IST+0530] INFO [databases.disconnect:119] Disconnected from database postgresql://idp_admin:********@localhost:5432/idp_db?sslmode=prefer
[2022-07-30T19:07:35:1659188255 IST+0530] INFO [uvicorn.error.shutdown:77] Application shutdown complete.
[2022-07-30T19:07:35:1659188255 IST+0530] INFO [uvicorn.error.serve:85] Finished server process [4763]
[2022-07-30T19:07:35:1659188255 IST+0530] INFO [root.__init_application:29] creating API service and Web Site
[2022-07-30T19:07:35:1659188255 IST+0530] INFO [root.__init_routes:19] initializing all routes
[2022-07-30T19:07:36:1659188256 IST+0530] DEBUG [asyncio.__init__:59] Using selector: EpollSelector
[2022-07-30T19:07:36:1659188256 IST+0530] INFO [root.__init_application:29] creating API service and Web Site
[2022-07-30T19:07:36:1659188256 IST+0530] INFO [root.__init_routes:19] initializing all routes
[2022-07-30T19:07:36:1659188256 IST+0530] INFO [uvicorn.error.serve:75] Started server process [4769]
[2022-07-30T19:07:36:1659188256 IST+0530] INFO [uvicorn.error.startup:47] Waiting for application startup.
[2022-07-30T19:07:36:1659188256 IST+0530] INFO [databases.connect:83] Connected to database postgresql://idp_admin:********@localhost:5432/idp_db?sslmode=prefer
[2022-07-30T19:07:36:1659188256 IST+0530] INFO [uvicorn.error.startup:61] Application startup complete.
[2022-07-30T19:07:42:1659188262 IST+0530] WARNING [uvicorn.error.run:47] StatReload detected changes in 'src/utilities/auth_security.py'. Reloading...
[2022-07-30T19:07:42:1659188262 IST+0530] INFO [uvicorn.error.shutdown:253] Shutting down
[2022-07-30T19:07:42:1659188262 IST+0530] INFO [uvicorn.error.shutdown:66] Waiting for application shutdown.
[2022-07-30T19:07:42:1659188262 IST+0530] INFO [databases.disconnect:119] Disconnected from database postgresql://idp_admin:********@localhost:5432/idp_db?sslmode=prefer
[2022-07-30T19:07:42:1659188262 IST+0530] INFO [uvicorn.error.shutdown:77] Application shutdown complete.
[2022-07-30T19:07:42:1659188262 IST+0530] INFO [uvicorn.error.serve:85] Finished server process [4769]
[2022-07-30T19:07:43:1659188263 IST+0530] INFO [root.__init_application:29] creating API service and Web Site
[2022-07-30T19:07:43:1659188263 IST+0530] INFO [root.__init_routes:19] initializing all routes
[2022-07-30T19:07:43:1659188263 IST+0530] DEBUG [asyncio.__init__:59] Using selector: EpollSelector
[2022-07-30T19:07:43:1659188263 IST+0530] INFO [root.__init_application:29] creating API service and Web Site
[2022-07-30T19:07:43:1659188263 IST+0530] INFO [root.__init_routes:19] initializing all routes
[2022-07-30T19:07:43:1659188263 IST+0530] INFO [uvicorn.error.serve:75] Started server process [4775]
[2022-07-30T19:07:43:1659188263 IST+0530] INFO [uvicorn.error.startup:47] Waiting for application startup.
[2022-07-30T19:07:43:1659188263 IST+0530] INFO [databases.connect:83] Connected to database postgresql://idp_admin:********@localhost:5432/idp_db?sslmode=prefer
[2022-07-30T19:07:43:1659188263 IST+0530] INFO [uvicorn.error.startup:61] Application startup complete.
[2022-07-30T19:07:46:1659188266 IST+0530] WARNING [uvicorn.error.run:47] StatReload detected changes in 'src/utilities/auth_security.py'. Reloading...
[2022-07-30T19:07:46:1659188266 IST+0530] INFO [uvicorn.error.shutdown:253] Shutting down
[2022-07-30T19:07:46:1659188266 IST+0530] INFO [uvicorn.error.shutdown:66] Waiting for application shutdown.
[2022-07-30T19:07:46:1659188266 IST+0530] INFO [databases.disconnect:119] Disconnected from database postgresql://idp_admin:********@localhost:5432/idp_db?sslmode=prefer
[2022-07-30T19:07:46:1659188266 IST+0530] INFO [uvicorn.error.shutdown:77] Application shutdown complete.
[2022-07-30T19:07:46:1659188266 IST+0530] INFO [uvicorn.error.serve:85] Finished server process [4775]
[2022-07-30T19:07:47:1659188267 IST+0530] INFO [root.__init_application:29] creating API service and Web Site
[2022-07-30T19:07:47:1659188267 IST+0530] INFO [root.__init_routes:19] initializing all routes
[2022-07-30T19:07:47:1659188267 IST+0530] DEBUG [asyncio.__init__:59] Using selector: EpollSelector
[2022-07-30T19:07:47:1659188267 IST+0530] INFO [root.__init_application:29] creating API service and Web Site
[2022-07-30T19:07:47:1659188267 IST+0530] INFO [root.__init_routes:19] initializing all routes
[2022-07-30T19:07:47:1659188267 IST+0530] INFO [uvicorn.error.serve:75] Started server process [4782]
[2022-07-30T19:07:47:1659188267 IST+0530] INFO [uvicorn.error.startup:47] Waiting for application startup.
[2022-07-30T19:07:47:1659188267 IST+0530] INFO [databases.connect:83] Connected to database postgresql://idp_admin:********@localhost:5432/idp_db?sslmode=prefer
[2022-07-30T19:07:47:1659188267 IST+0530] INFO [uvicorn.error.startup:61] Application startup complete.
[2022-07-30T19:08:15:1659188295 IST+0530] WARNING [uvicorn.error.run:47] StatReload detected changes in 'src/utilities/auth_security.py'. Reloading...
[2022-07-30T19:08:16:1659188296 IST+0530] INFO [uvicorn.error.shutdown:253] Shutting down
[2022-07-30T19:08:16:1659188296 IST+0530] INFO [uvicorn.error.shutdown:66] Waiting for application shutdown.
[2022-07-30T19:08:16:1659188296 IST+0530] INFO [databases.disconnect:119] Disconnected from database postgresql://idp_admin:********@localhost:5432/idp_db?sslmode=prefer
[2022-07-30T19:08:16:1659188296 IST+0530] INFO [uvicorn.error.shutdown:77] Application shutdown complete.
[2022-07-30T19:08:16:1659188296 IST+0530] INFO [uvicorn.error.serve:85] Finished server process [4782]
[2022-07-30T19:08:16:1659188296 IST+0530] INFO [root.__init_application:29] creating API service and Web Site
[2022-07-30T19:08:16:1659188296 IST+0530] INFO [root.__init_routes:19] initializing all routes
[2022-07-30T19:08:16:1659188296 IST+0530] DEBUG [asyncio.__init__:59] Using selector: EpollSelector
[2022-07-30T19:08:16:1659188296 IST+0530] INFO [root.__init_application:29] creating API service and Web Site
[2022-07-30T19:08:16:1659188296 IST+0530] INFO [root.__init_routes:19] initializing all routes
[2022-07-30T19:08:16:1659188296 IST+0530] INFO [uvicorn.error.serve:75] Started server process [4790]
[2022-07-30T19:08:16:1659188296 IST+0530] INFO [uvicorn.error.startup:47] Waiting for application startup.
[2022-07-30T19:08:16:1659188296 IST+0530] INFO [databases.connect:83] Connected to database postgresql://idp_admin:********@localhost:5432/idp_db?sslmode=prefer
[2022-07-30T19:08:16:1659188296 IST+0530] INFO [uvicorn.error.startup:61] Application startup complete.
[2022-07-30T19:08:52:1659188332 IST+0530] WARNING [uvicorn.error.run:47] StatReload detected changes in 'src/utilities/auth_security.py'. Reloading...
[2022-07-30T19:08:52:1659188332 IST+0530] INFO [uvicorn.error.shutdown:253] Shutting down
[2022-07-30T19:08:52:1659188332 IST+0530] INFO [uvicorn.error.shutdown:66] Waiting for application shutdown.
[2022-07-30T19:08:52:1659188332 IST+0530] INFO [databases.disconnect:119] Disconnected from database postgresql://idp_admin:********@localhost:5432/idp_db?sslmode=prefer
[2022-07-30T19:08:52:1659188332 IST+0530] INFO [uvicorn.error.shutdown:77] Application shutdown complete.
[2022-07-30T19:08:52:1659188332 IST+0530] INFO [uvicorn.error.serve:85] Finished server process [4790]
[2022-07-30T19:08:53:1659188333 IST+0530] WARNING [uvicorn.error.run:47] StatReload detected changes in 'src/utilities/auth_security.py'. Reloading...
[2022-07-30T19:08:54:1659188334 IST+0530] INFO [root.__init_application:29] creating API service and Web Site
[2022-07-30T19:08:54:1659188334 IST+0530] INFO [root.__init_routes:19] initializing all routes
[2022-07-30T19:08:54:1659188334 IST+0530] DEBUG [asyncio.__init__:59] Using selector: EpollSelector
[2022-07-30T19:08:54:1659188334 IST+0530] INFO [root.__init_application:29] creating API service and Web Site
[2022-07-30T19:08:54:1659188334 IST+0530] INFO [root.__init_routes:19] initializing all routes
[2022-07-30T19:08:54:1659188334 IST+0530] INFO [uvicorn.error.serve:75] Started server process [4797]
[2022-07-30T19:08:54:1659188334 IST+0530] INFO [uvicorn.error.startup:47] Waiting for application startup.
[2022-07-30T19:08:54:1659188334 IST+0530] INFO [databases.connect:83] Connected to database postgresql://idp_admin:********@localhost:5432/idp_db?sslmode=prefer
[2022-07-30T19:08:54:1659188334 IST+0530] INFO [uvicorn.error.startup:61] Application startup complete.
[2022-07-30T19:09:10:1659188350 IST+0530] WARNING [uvicorn.error.run:47] StatReload detected changes in 'src/utilities/auth_security.py'. Reloading...
[2022-07-30T19:09:10:1659188350 IST+0530] INFO [uvicorn.error.shutdown:253] Shutting down
[2022-07-30T19:09:11:1659188351 IST+0530] INFO [uvicorn.error.shutdown:66] Waiting for application shutdown.
[2022-07-30T19:09:11:1659188351 IST+0530] INFO [databases.disconnect:119] Disconnected from database postgresql://idp_admin:********@localhost:5432/idp_db?sslmode=prefer
[2022-07-30T19:09:11:1659188351 IST+0530] INFO [uvicorn.error.shutdown:77] Application shutdown complete.
[2022-07-30T19:09:11:1659188351 IST+0530] INFO [uvicorn.error.serve:85] Finished server process [4797]
[2022-07-30T19:09:11:1659188351 IST+0530] INFO [root.__init_application:29] creating API service and Web Site
[2022-07-30T19:09:11:1659188351 IST+0530] INFO [root.__init_routes:19] initializing all routes
[2022-07-30T19:09:11:1659188351 IST+0530] DEBUG [asyncio.__init__:59] Using selector: EpollSelector
[2022-07-30T19:09:11:1659188351 IST+0530] INFO [root.__init_application:29] creating API service and Web Site
[2022-07-30T19:09:11:1659188351 IST+0530] INFO [root.__init_routes:19] initializing all routes
[2022-07-30T19:09:11:1659188351 IST+0530] INFO [uvicorn.error.serve:75] Started server process [4803]
[2022-07-30T19:09:11:1659188351 IST+0530] INFO [uvicorn.error.startup:47] Waiting for application startup.
[2022-07-30T19:09:11:1659188351 IST+0530] INFO [databases.connect:83] Connected to database postgresql://idp_admin:********@localhost:5432/idp_db?sslmode=prefer
[2022-07-30T19:09:11:1659188351 IST+0530] INFO [uvicorn.error.startup:61] Application startup complete.
[2022-07-30T19:10:10:1659188410 IST+0530] DEBUG [multipart.multipart.callback:604] Calling on_field_start with no data
[2022-07-30T19:10:10:1659188410 IST+0530] DEBUG [multipart.multipart.callback:601] Calling on_field_name with data[0:10]
[2022-07-30T19:10:10:1659188410 IST+0530] DEBUG [multipart.multipart.callback:601] Calling on_field_data with data[11:19]
[2022-07-30T19:10:10:1659188410 IST+0530] DEBUG [multipart.multipart.callback:604] Calling on_field_end with no data
[2022-07-30T19:10:10:1659188410 IST+0530] DEBUG [multipart.multipart.callback:604] Calling on_field_start with no data
[2022-07-30T19:10:10:1659188410 IST+0530] DEBUG [multipart.multipart.callback:601] Calling on_field_name with data[20:28]
[2022-07-30T19:10:10:1659188410 IST+0530] DEBUG [multipart.multipart.callback:601] Calling on_field_data with data[29:36]
[2022-07-30T19:10:10:1659188410 IST+0530] DEBUG [multipart.multipart.callback:604] Calling on_field_end with no data
[2022-07-30T19:10:10:1659188410 IST+0530] DEBUG [multipart.multipart.callback:604] Calling on_field_start with no data
[2022-07-30T19:10:10:1659188410 IST+0530] DEBUG [multipart.multipart.callback:601] Calling on_field_name with data[37:45]
[2022-07-30T19:10:10:1659188410 IST+0530] DEBUG [multipart.multipart.callback:601] Calling on_field_data with data[46:58]
[2022-07-30T19:10:10:1659188410 IST+0530] DEBUG [multipart.multipart.callback:604] Calling on_field_end with no data
[2022-07-30T19:10:10:1659188410 IST+0530] DEBUG [multipart.multipart.callback:604] Calling on_field_start with no data
[2022-07-30T19:10:10:1659188410 IST+0530] DEBUG [multipart.multipart.callback:601] Calling on_field_name with data[59:67]
[2022-07-30T19:10:10:1659188410 IST+0530] DEBUG [multipart.multipart.callback:601] Calling on_field_data with data[68:83]
[2022-07-30T19:10:10:1659188410 IST+0530] DEBUG [multipart.multipart.callback:604] Calling on_field_end with no data
[2022-07-30T19:10:10:1659188410 IST+0530] DEBUG [multipart.multipart.callback:604] Calling on_field_start with no data
[2022-07-30T19:10:10:1659188410 IST+0530] DEBUG [multipart.multipart.callback:601] Calling on_field_name with data[84:93]
[2022-07-30T19:10:10:1659188410 IST+0530] DEBUG [multipart.multipart.callback:604] Calling on_field_end with no data
[2022-07-30T19:10:10:1659188410 IST+0530] DEBUG [multipart.multipart.callback:604] Calling on_field_start with no data
[2022-07-30T19:10:10:1659188410 IST+0530] DEBUG [multipart.multipart.callback:601] Calling on_field_name with data[95:108]
[2022-07-30T19:10:10:1659188410 IST+0530] DEBUG [multipart.multipart.callback:604] Calling on_field_end with no data
[2022-07-30T19:10:10:1659188410 IST+0530] DEBUG [multipart.multipart.callback:604] Calling on_end with no data
[2022-07-30T19:10:10:1659188410 IST+0530] DEBUG [databases._compile:266] Query: SELECT users.login_name, users.hashed_password, users.roles, users.is_active FROM users WHERE users.login_name = $1 Args: ('driver1',)
[2022-07-30T19:10:10:1659188410 IST+0530] DEBUG [passlib.handlers.bcrypt._load_backend_mixin:625] detected 'bcrypt' backend, version '3.2.2'
[2022-07-30T19:10:10:1659188410 IST+0530] DEBUG [passlib.handlers.bcrypt._finalize_backend_mixin:406] 'bcrypt' backend lacks $2$ support, enabling workaround
[2022-07-30T19:10:10:1659188410 IST+0530] ERROR [root.create_access_token:24] EXCEPPTION-auth_security->create_access_token(): Unable to parse an RSA_JWK from key: <cryptography.hazmat.backends.openssl.rsa._RSAPrivateKey object at 0x7f5d24707430>
Traceback (most recent call last):
  File "/home/p_116749/projects/python/americana/idp/.venv/lib/python3.9/site-packages/jose/jws.py", line 160, in _sign_header_and_claims
    key = jwk.construct(key, algorithm)
  File "/home/p_116749/projects/python/americana/idp/.venv/lib/python3.9/site-packages/jose/jwk.py", line 79, in construct
    return key_class(key_data, algorithm)
  File "/home/p_116749/projects/python/americana/idp/.venv/lib/python3.9/site-packages/jose/backends/cryptography_backend.py", line 272, in __init__
    raise JWKError("Unable to parse an RSA_JWK from key: %s" % key)
jose.exceptions.JWKError: Unable to parse an RSA_JWK from key: <cryptography.hazmat.backends.openssl.rsa._RSAPrivateKey object at 0x7f5d24707430>

During handling of the above exception, another exception occurred:

Traceback (most recent call last):
  File "/home/p_116749/projects/python/americana/idp/src/utilities/auth_security.py", line 20, in create_access_token
    encoded_jwt = jwt.encode(token_data_to_encode, private_key, algorithm)
  File "/home/p_116749/projects/python/americana/idp/.venv/lib/python3.9/site-packages/jose/jwt.py", line 53, in encode
    return jws.sign(claims, key, headers=headers, algorithm=algorithm)
  File "/home/p_116749/projects/python/americana/idp/.venv/lib/python3.9/site-packages/jose/jws.py", line 43, in sign
    signed_output = _sign_header_and_claims(encoded_header, encoded_payload, algorithm, key)
  File "/home/p_116749/projects/python/americana/idp/.venv/lib/python3.9/site-packages/jose/jws.py", line 163, in _sign_header_and_claims
    raise JWSError(e)
jose.exceptions.JWSError: Unable to parse an RSA_JWK from key: <cryptography.hazmat.backends.openssl.rsa._RSAPrivateKey object at 0x7f5d24707430>
[2022-07-30T19:10:10:1659188410 IST+0530] ERROR [uvicorn.error.run_asgi:406] Exception in ASGI application
Traceback (most recent call last):
  File "/home/p_116749/projects/python/americana/idp/.venv/lib/python3.9/site-packages/uvicorn/protocols/http/h11_impl.py", line 403, in run_asgi
    result = await app(self.scope, self.receive, self.send)
  File "/home/p_116749/projects/python/americana/idp/.venv/lib/python3.9/site-packages/uvicorn/middleware/proxy_headers.py", line 78, in __call__
    return await self.app(scope, receive, send)
  File "/home/p_116749/projects/python/americana/idp/.venv/lib/python3.9/site-packages/fastapi/applications.py", line 269, in __call__
    await super().__call__(scope, receive, send)
  File "/home/p_116749/projects/python/americana/idp/.venv/lib/python3.9/site-packages/starlette/applications.py", line 124, in __call__
    await self.middleware_stack(scope, receive, send)
  File "/home/p_116749/projects/python/americana/idp/.venv/lib/python3.9/site-packages/starlette/middleware/errors.py", line 184, in __call__
    raise exc
  File "/home/p_116749/projects/python/americana/idp/.venv/lib/python3.9/site-packages/starlette/middleware/errors.py", line 162, in __call__
    await self.app(scope, receive, _send)
  File "/home/p_116749/projects/python/americana/idp/.venv/lib/python3.9/site-packages/starlette/middleware/cors.py", line 84, in __call__
    await self.app(scope, receive, send)
  File "/home/p_116749/projects/python/americana/idp/.venv/lib/python3.9/site-packages/starlette/exceptions.py", line 93, in __call__
    raise exc
  File "/home/p_116749/projects/python/americana/idp/.venv/lib/python3.9/site-packages/starlette/exceptions.py", line 82, in __call__
    await self.app(scope, receive, sender)
  File "/home/p_116749/projects/python/americana/idp/.venv/lib/python3.9/site-packages/fastapi/middleware/asyncexitstack.py", line 21, in __call__
    raise e
  File "/home/p_116749/projects/python/americana/idp/.venv/lib/python3.9/site-packages/fastapi/middleware/asyncexitstack.py", line 18, in __call__
    await self.app(scope, receive, send)
  File "/home/p_116749/projects/python/americana/idp/.venv/lib/python3.9/site-packages/starlette/routing.py", line 670, in __call__
    await route.handle(scope, receive, send)
  File "/home/p_116749/projects/python/americana/idp/.venv/lib/python3.9/site-packages/starlette/routing.py", line 266, in handle
    await self.app(scope, receive, send)
  File "/home/p_116749/projects/python/americana/idp/.venv/lib/python3.9/site-packages/starlette/routing.py", line 65, in app
    response = await func(request)
  File "/home/p_116749/projects/python/americana/idp/.venv/lib/python3.9/site-packages/fastapi/routing.py", line 245, in app
    content = await serialize_response(
  File "/home/p_116749/projects/python/americana/idp/.venv/lib/python3.9/site-packages/fastapi/routing.py", line 138, in serialize_response
    raise ValidationError(errors, field.type_)
pydantic.error_wrappers.ValidationError: 1 validation error for Token
response -> access_token
  none is not an allowed value (type=type_error.none.not_allowed)
[2022-07-30T19:10:16:1659188416 IST+0530] DEBUG [multipart.multipart.callback:604] Calling on_field_start with no data
[2022-07-30T19:10:16:1659188416 IST+0530] DEBUG [multipart.multipart.callback:601] Calling on_field_name with data[0:10]
[2022-07-30T19:10:16:1659188416 IST+0530] DEBUG [multipart.multipart.callback:601] Calling on_field_data with data[11:19]
[2022-07-30T19:10:16:1659188416 IST+0530] DEBUG [multipart.multipart.callback:604] Calling on_field_end with no data
[2022-07-30T19:10:16:1659188416 IST+0530] DEBUG [multipart.multipart.callback:604] Calling on_field_start with no data
[2022-07-30T19:10:16:1659188416 IST+0530] DEBUG [multipart.multipart.callback:601] Calling on_field_name with data[20:28]
[2022-07-30T19:10:16:1659188416 IST+0530] DEBUG [multipart.multipart.callback:601] Calling on_field_data with data[29:36]
[2022-07-30T19:10:16:1659188416 IST+0530] DEBUG [multipart.multipart.callback:604] Calling on_field_end with no data
[2022-07-30T19:10:16:1659188416 IST+0530] DEBUG [multipart.multipart.callback:604] Calling on_field_start with no data
[2022-07-30T19:10:16:1659188416 IST+0530] DEBUG [multipart.multipart.callback:601] Calling on_field_name with data[37:45]
[2022-07-30T19:10:16:1659188416 IST+0530] DEBUG [multipart.multipart.callback:601] Calling on_field_data with data[46:58]
[2022-07-30T19:10:16:1659188416 IST+0530] DEBUG [multipart.multipart.callback:604] Calling on_field_end with no data
[2022-07-30T19:10:16:1659188416 IST+0530] DEBUG [multipart.multipart.callback:604] Calling on_field_start with no data
[2022-07-30T19:10:16:1659188416 IST+0530] DEBUG [multipart.multipart.callback:601] Calling on_field_name with data[59:67]
[2022-07-30T19:10:16:1659188416 IST+0530] DEBUG [multipart.multipart.callback:601] Calling on_field_data with data[68:83]
[2022-07-30T19:10:16:1659188416 IST+0530] DEBUG [multipart.multipart.callback:604] Calling on_field_end with no data
[2022-07-30T19:10:16:1659188416 IST+0530] DEBUG [multipart.multipart.callback:604] Calling on_field_start with no data
[2022-07-30T19:10:16:1659188416 IST+0530] DEBUG [multipart.multipart.callback:601] Calling on_field_name with data[84:93]
[2022-07-30T19:10:16:1659188416 IST+0530] DEBUG [multipart.multipart.callback:604] Calling on_field_end with no data
[2022-07-30T19:10:16:1659188416 IST+0530] DEBUG [multipart.multipart.callback:604] Calling on_field_start with no data
[2022-07-30T19:10:16:1659188416 IST+0530] DEBUG [multipart.multipart.callback:601] Calling on_field_name with data[95:108]
[2022-07-30T19:10:16:1659188416 IST+0530] DEBUG [multipart.multipart.callback:604] Calling on_field_end with no data
[2022-07-30T19:10:16:1659188416 IST+0530] DEBUG [multipart.multipart.callback:604] Calling on_end with no data
[2022-07-30T19:10:16:1659188416 IST+0530] DEBUG [databases._compile:266] Query: SELECT users.login_name, users.hashed_password, users.roles, users.is_active FROM users WHERE users.login_name = $1 Args: ('driver1',)
[2022-07-30T19:10:16:1659188416 IST+0530] ERROR [root.create_access_token:24] EXCEPPTION-auth_security->create_access_token(): Unable to parse an RSA_JWK from key: <cryptography.hazmat.backends.openssl.rsa._RSAPrivateKey object at 0x7f5d24645a60>
Traceback (most recent call last):
  File "/home/p_116749/projects/python/americana/idp/.venv/lib/python3.9/site-packages/jose/jws.py", line 160, in _sign_header_and_claims
    key = jwk.construct(key, algorithm)
  File "/home/p_116749/projects/python/americana/idp/.venv/lib/python3.9/site-packages/jose/jwk.py", line 79, in construct
    return key_class(key_data, algorithm)
  File "/home/p_116749/projects/python/americana/idp/.venv/lib/python3.9/site-packages/jose/backends/cryptography_backend.py", line 272, in __init__
    raise JWKError("Unable to parse an RSA_JWK from key: %s" % key)
jose.exceptions.JWKError: Unable to parse an RSA_JWK from key: <cryptography.hazmat.backends.openssl.rsa._RSAPrivateKey object at 0x7f5d24645a60>

During handling of the above exception, another exception occurred:

Traceback (most recent call last):
  File "/home/p_116749/projects/python/americana/idp/src/utilities/auth_security.py", line 20, in create_access_token
    encoded_jwt = jwt.encode(token_data_to_encode, private_key, algorithm)
  File "/home/p_116749/projects/python/americana/idp/.venv/lib/python3.9/site-packages/jose/jwt.py", line 53, in encode
    return jws.sign(claims, key, headers=headers, algorithm=algorithm)
  File "/home/p_116749/projects/python/americana/idp/.venv/lib/python3.9/site-packages/jose/jws.py", line 43, in sign
    signed_output = _sign_header_and_claims(encoded_header, encoded_payload, algorithm, key)
  File "/home/p_116749/projects/python/americana/idp/.venv/lib/python3.9/site-packages/jose/jws.py", line 163, in _sign_header_and_claims
    raise JWSError(e)
jose.exceptions.JWSError: Unable to parse an RSA_JWK from key: <cryptography.hazmat.backends.openssl.rsa._RSAPrivateKey object at 0x7f5d24645a60>
[2022-07-30T19:10:16:1659188416 IST+0530] ERROR [uvicorn.error.run_asgi:406] Exception in ASGI application
Traceback (most recent call last):
  File "/home/p_116749/projects/python/americana/idp/.venv/lib/python3.9/site-packages/uvicorn/protocols/http/h11_impl.py", line 403, in run_asgi
    result = await app(self.scope, self.receive, self.send)
  File "/home/p_116749/projects/python/americana/idp/.venv/lib/python3.9/site-packages/uvicorn/middleware/proxy_headers.py", line 78, in __call__
    return await self.app(scope, receive, send)
  File "/home/p_116749/projects/python/americana/idp/.venv/lib/python3.9/site-packages/fastapi/applications.py", line 269, in __call__
    await super().__call__(scope, receive, send)
  File "/home/p_116749/projects/python/americana/idp/.venv/lib/python3.9/site-packages/starlette/applications.py", line 124, in __call__
    await self.middleware_stack(scope, receive, send)
  File "/home/p_116749/projects/python/americana/idp/.venv/lib/python3.9/site-packages/starlette/middleware/errors.py", line 184, in __call__
    raise exc
  File "/home/p_116749/projects/python/americana/idp/.venv/lib/python3.9/site-packages/starlette/middleware/errors.py", line 162, in __call__
    await self.app(scope, receive, _send)
  File "/home/p_116749/projects/python/americana/idp/.venv/lib/python3.9/site-packages/starlette/middleware/cors.py", line 84, in __call__
    await self.app(scope, receive, send)
  File "/home/p_116749/projects/python/americana/idp/.venv/lib/python3.9/site-packages/starlette/exceptions.py", line 93, in __call__
    raise exc
  File "/home/p_116749/projects/python/americana/idp/.venv/lib/python3.9/site-packages/starlette/exceptions.py", line 82, in __call__
    await self.app(scope, receive, sender)
  File "/home/p_116749/projects/python/americana/idp/.venv/lib/python3.9/site-packages/fastapi/middleware/asyncexitstack.py", line 21, in __call__
    raise e
  File "/home/p_116749/projects/python/americana/idp/.venv/lib/python3.9/site-packages/fastapi/middleware/asyncexitstack.py", line 18, in __call__
    await self.app(scope, receive, send)
  File "/home/p_116749/projects/python/americana/idp/.venv/lib/python3.9/site-packages/starlette/routing.py", line 670, in __call__
    await route.handle(scope, receive, send)
  File "/home/p_116749/projects/python/americana/idp/.venv/lib/python3.9/site-packages/starlette/routing.py", line 266, in handle
    await self.app(scope, receive, send)
  File "/home/p_116749/projects/python/americana/idp/.venv/lib/python3.9/site-packages/starlette/routing.py", line 65, in app
    response = await func(request)
  File "/home/p_116749/projects/python/americana/idp/.venv/lib/python3.9/site-packages/fastapi/routing.py", line 245, in app
    content = await serialize_response(
  File "/home/p_116749/projects/python/americana/idp/.venv/lib/python3.9/site-packages/fastapi/routing.py", line 138, in serialize_response
    raise ValidationError(errors, field.type_)
pydantic.error_wrappers.ValidationError: 1 validation error for Token
response -> access_token
  none is not an allowed value (type=type_error.none.not_allowed)
[2022-07-30T19:10:39:1659188439 IST+0530] INFO [uvicorn.error.shutdown:253] Shutting down
[2022-07-30T19:10:39:1659188439 IST+0530] INFO [uvicorn.error.shutdown:66] Waiting for application shutdown.
[2022-07-30T19:10:39:1659188439 IST+0530] INFO [databases.disconnect:119] Disconnected from database postgresql://idp_admin:********@localhost:5432/idp_db?sslmode=prefer
[2022-07-30T19:10:39:1659188439 IST+0530] INFO [uvicorn.error.shutdown:77] Application shutdown complete.
[2022-07-30T19:10:39:1659188439 IST+0530] INFO [uvicorn.error.serve:85] Finished server process [4803]
[2022-07-30T19:10:39:1659188439 IST+0530] INFO [uvicorn.error.shutdown:103] Stopping reloader process [4651]
[2022-07-30T19:11:18:1659188478 IST+0530] INFO [root.__init_application:29] creating API service and Web Site
[2022-07-30T19:11:18:1659188478 IST+0530] INFO [root.__init_routes:19] initializing all routes
[2022-07-30T19:11:18:1659188478 IST+0530] INFO [uvicorn.error.__init__:359] Will watch for changes in these directories: ['/home/p_116749/projects/python/americana/idp']
[2022-07-30T19:11:18:1659188478 IST+0530] INFO [uvicorn.error.bind_socket:585] Uvicorn running on http://0.0.0.0:9091 (Press CTRL+C to quit)
[2022-07-30T19:11:18:1659188478 IST+0530] INFO [uvicorn.error.startup:72] Started reloader process [4813] using StatReload
[2022-07-30T19:11:18:1659188478 IST+0530] INFO [root.__init_application:29] creating API service and Web Site
[2022-07-30T19:11:18:1659188478 IST+0530] INFO [root.__init_routes:19] initializing all routes
[2022-07-30T19:11:18:1659188478 IST+0530] DEBUG [asyncio.__init__:59] Using selector: EpollSelector
[2022-07-30T19:11:18:1659188478 IST+0530] INFO [root.__init_application:29] creating API service and Web Site
[2022-07-30T19:11:18:1659188478 IST+0530] INFO [root.__init_routes:19] initializing all routes
[2022-07-30T19:11:18:1659188478 IST+0530] INFO [uvicorn.error.serve:75] Started server process [4815]
[2022-07-30T19:11:18:1659188478 IST+0530] INFO [uvicorn.error.startup:47] Waiting for application startup.
[2022-07-30T19:11:18:1659188478 IST+0530] INFO [databases.connect:83] Connected to database postgresql://idp_admin:********@localhost:5432/idp_db?sslmode=prefer
[2022-07-30T19:11:18:1659188478 IST+0530] INFO [uvicorn.error.startup:61] Application startup complete.
[2022-07-30T19:11:24:1659188484 IST+0530] DEBUG [multipart.multipart.callback:604] Calling on_field_start with no data
[2022-07-30T19:11:24:1659188484 IST+0530] DEBUG [multipart.multipart.callback:601] Calling on_field_name with data[0:10]
[2022-07-30T19:11:24:1659188484 IST+0530] DEBUG [multipart.multipart.callback:601] Calling on_field_data with data[11:19]
[2022-07-30T19:11:24:1659188484 IST+0530] DEBUG [multipart.multipart.callback:604] Calling on_field_end with no data
[2022-07-30T19:11:24:1659188484 IST+0530] DEBUG [multipart.multipart.callback:604] Calling on_field_start with no data
[2022-07-30T19:11:24:1659188484 IST+0530] DEBUG [multipart.multipart.callback:601] Calling on_field_name with data[20:28]
[2022-07-30T19:11:24:1659188484 IST+0530] DEBUG [multipart.multipart.callback:601] Calling on_field_data with data[29:36]
[2022-07-30T19:11:24:1659188484 IST+0530] DEBUG [multipart.multipart.callback:604] Calling on_field_end with no data
[2022-07-30T19:11:24:1659188484 IST+0530] DEBUG [multipart.multipart.callback:604] Calling on_field_start with no data
[2022-07-30T19:11:24:1659188484 IST+0530] DEBUG [multipart.multipart.callback:601] Calling on_field_name with data[37:45]
[2022-07-30T19:11:24:1659188484 IST+0530] DEBUG [multipart.multipart.callback:601] Calling on_field_data with data[46:58]
[2022-07-30T19:11:24:1659188484 IST+0530] DEBUG [multipart.multipart.callback:604] Calling on_field_end with no data
[2022-07-30T19:11:24:1659188484 IST+0530] DEBUG [multipart.multipart.callback:604] Calling on_field_start with no data
[2022-07-30T19:11:24:1659188484 IST+0530] DEBUG [multipart.multipart.callback:601] Calling on_field_name with data[59:67]
[2022-07-30T19:11:24:1659188484 IST+0530] DEBUG [multipart.multipart.callback:601] Calling on_field_data with data[68:83]
[2022-07-30T19:11:24:1659188484 IST+0530] DEBUG [multipart.multipart.callback:604] Calling on_field_end with no data
[2022-07-30T19:11:24:1659188484 IST+0530] DEBUG [multipart.multipart.callback:604] Calling on_field_start with no data
[2022-07-30T19:11:24:1659188484 IST+0530] DEBUG [multipart.multipart.callback:601] Calling on_field_name with data[84:93]
[2022-07-30T19:11:24:1659188484 IST+0530] DEBUG [multipart.multipart.callback:604] Calling on_field_end with no data
[2022-07-30T19:11:24:1659188484 IST+0530] DEBUG [multipart.multipart.callback:604] Calling on_field_start with no data
[2022-07-30T19:11:24:1659188484 IST+0530] DEBUG [multipart.multipart.callback:601] Calling on_field_name with data[95:108]
[2022-07-30T19:11:24:1659188484 IST+0530] DEBUG [multipart.multipart.callback:604] Calling on_field_end with no data
[2022-07-30T19:11:24:1659188484 IST+0530] DEBUG [multipart.multipart.callback:604] Calling on_end with no data
[2022-07-30T19:11:24:1659188484 IST+0530] DEBUG [databases._compile:266] Query: SELECT users.login_name, users.hashed_password, users.roles, users.is_active FROM users WHERE users.login_name = $1 Args: ('driver1',)
[2022-07-30T19:11:24:1659188484 IST+0530] DEBUG [passlib.handlers.bcrypt._load_backend_mixin:625] detected 'bcrypt' backend, version '3.2.2'
[2022-07-30T19:11:24:1659188484 IST+0530] DEBUG [passlib.handlers.bcrypt._finalize_backend_mixin:406] 'bcrypt' backend lacks $2$ support, enabling workaround
[2022-07-30T19:11:24:1659188484 IST+0530] ERROR [root.create_access_token:24] EXCEPPTION-auth_security->create_access_token(): Unable to parse an RSA_JWK from key: <cryptography.hazmat.backends.openssl.rsa._RSAPrivateKey object at 0x7fbb042073d0>
Traceback (most recent call last):
  File "/home/p_116749/projects/python/americana/idp/.venv/lib/python3.9/site-packages/jose/jws.py", line 160, in _sign_header_and_claims
    key = jwk.construct(key, algorithm)
  File "/home/p_116749/projects/python/americana/idp/.venv/lib/python3.9/site-packages/jose/jwk.py", line 79, in construct
    return key_class(key_data, algorithm)
  File "/home/p_116749/projects/python/americana/idp/.venv/lib/python3.9/site-packages/jose/backends/cryptography_backend.py", line 272, in __init__
    raise JWKError("Unable to parse an RSA_JWK from key: %s" % key)
jose.exceptions.JWKError: Unable to parse an RSA_JWK from key: <cryptography.hazmat.backends.openssl.rsa._RSAPrivateKey object at 0x7fbb042073d0>

During handling of the above exception, another exception occurred:

Traceback (most recent call last):
  File "/home/p_116749/projects/python/americana/idp/src/utilities/auth_security.py", line 20, in create_access_token
    encoded_jwt = jwt.encode(token_data_to_encode, private_key, algorithm)
  File "/home/p_116749/projects/python/americana/idp/.venv/lib/python3.9/site-packages/jose/jwt.py", line 53, in encode
    return jws.sign(claims, key, headers=headers, algorithm=algorithm)
  File "/home/p_116749/projects/python/americana/idp/.venv/lib/python3.9/site-packages/jose/jws.py", line 43, in sign
    signed_output = _sign_header_and_claims(encoded_header, encoded_payload, algorithm, key)
  File "/home/p_116749/projects/python/americana/idp/.venv/lib/python3.9/site-packages/jose/jws.py", line 163, in _sign_header_and_claims
    raise JWSError(e)
jose.exceptions.JWSError: Unable to parse an RSA_JWK from key: <cryptography.hazmat.backends.openssl.rsa._RSAPrivateKey object at 0x7fbb042073d0>
[2022-07-30T19:11:24:1659188484 IST+0530] ERROR [uvicorn.error.run_asgi:406] Exception in ASGI application
Traceback (most recent call last):
  File "/home/p_116749/projects/python/americana/idp/.venv/lib/python3.9/site-packages/uvicorn/protocols/http/h11_impl.py", line 403, in run_asgi
    result = await app(self.scope, self.receive, self.send)
  File "/home/p_116749/projects/python/americana/idp/.venv/lib/python3.9/site-packages/uvicorn/middleware/proxy_headers.py", line 78, in __call__
    return await self.app(scope, receive, send)
  File "/home/p_116749/projects/python/americana/idp/.venv/lib/python3.9/site-packages/fastapi/applications.py", line 269, in __call__
    await super().__call__(scope, receive, send)
  File "/home/p_116749/projects/python/americana/idp/.venv/lib/python3.9/site-packages/starlette/applications.py", line 124, in __call__
    await self.middleware_stack(scope, receive, send)
  File "/home/p_116749/projects/python/americana/idp/.venv/lib/python3.9/site-packages/starlette/middleware/errors.py", line 184, in __call__
    raise exc
  File "/home/p_116749/projects/python/americana/idp/.venv/lib/python3.9/site-packages/starlette/middleware/errors.py", line 162, in __call__
    await self.app(scope, receive, _send)
  File "/home/p_116749/projects/python/americana/idp/.venv/lib/python3.9/site-packages/starlette/middleware/cors.py", line 84, in __call__
    await self.app(scope, receive, send)
  File "/home/p_116749/projects/python/americana/idp/.venv/lib/python3.9/site-packages/starlette/exceptions.py", line 93, in __call__
    raise exc
  File "/home/p_116749/projects/python/americana/idp/.venv/lib/python3.9/site-packages/starlette/exceptions.py", line 82, in __call__
    await self.app(scope, receive, sender)
  File "/home/p_116749/projects/python/americana/idp/.venv/lib/python3.9/site-packages/fastapi/middleware/asyncexitstack.py", line 21, in __call__
    raise e
  File "/home/p_116749/projects/python/americana/idp/.venv/lib/python3.9/site-packages/fastapi/middleware/asyncexitstack.py", line 18, in __call__
    await self.app(scope, receive, send)
  File "/home/p_116749/projects/python/americana/idp/.venv/lib/python3.9/site-packages/starlette/routing.py", line 670, in __call__
    await route.handle(scope, receive, send)
  File "/home/p_116749/projects/python/americana/idp/.venv/lib/python3.9/site-packages/starlette/routing.py", line 266, in handle
    await self.app(scope, receive, send)
  File "/home/p_116749/projects/python/americana/idp/.venv/lib/python3.9/site-packages/starlette/routing.py", line 65, in app
    response = await func(request)
  File "/home/p_116749/projects/python/americana/idp/.venv/lib/python3.9/site-packages/fastapi/routing.py", line 245, in app
    content = await serialize_response(
  File "/home/p_116749/projects/python/americana/idp/.venv/lib/python3.9/site-packages/fastapi/routing.py", line 138, in serialize_response
    raise ValidationError(errors, field.type_)
pydantic.error_wrappers.ValidationError: 1 validation error for Token
response -> access_token
  none is not an allowed value (type=type_error.none.not_allowed)
[2022-07-30T19:13:18:1659188598 IST+0530] INFO [uvicorn.error.shutdown:253] Shutting down
[2022-07-30T19:13:18:1659188598 IST+0530] INFO [uvicorn.error.shutdown:66] Waiting for application shutdown.
[2022-07-30T19:13:18:1659188598 IST+0530] INFO [databases.disconnect:119] Disconnected from database postgresql://idp_admin:********@localhost:5432/idp_db?sslmode=prefer
[2022-07-30T19:13:18:1659188598 IST+0530] INFO [uvicorn.error.shutdown:77] Application shutdown complete.
[2022-07-30T19:13:18:1659188598 IST+0530] INFO [uvicorn.error.serve:85] Finished server process [4815]
[2022-07-30T19:13:18:1659188598 IST+0530] INFO [uvicorn.error.shutdown:103] Stopping reloader process [4813]
[2022-07-30T19:13:22:1659188602 IST+0530] INFO [root.__init_application:29] creating API service and Web Site
[2022-07-30T19:13:22:1659188602 IST+0530] INFO [root.__init_routes:19] initializing all routes
[2022-07-30T19:13:22:1659188602 IST+0530] INFO [uvicorn.error.serve:75] Started server process [4839]
[2022-07-30T19:13:22:1659188602 IST+0530] INFO [uvicorn.error.startup:47] Waiting for application startup.
[2022-07-30T19:13:23:1659188603 IST+0530] INFO [databases.connect:83] Connected to database postgresql://idp_admin:********@localhost:5432/idp_db?sslmode=prefer
[2022-07-30T19:13:23:1659188603 IST+0530] INFO [uvicorn.error.startup:61] Application startup complete.
[2022-07-30T19:13:23:1659188603 IST+0530] INFO [uvicorn.error._log_started_message:207] Uvicorn running on http://127.0.0.1:9091 (Press CTRL+C to quit)
[2022-07-30T19:13:28:1659188608 IST+0530] DEBUG [multipart.multipart.callback:604] Calling on_field_start with no data
[2022-07-30T19:13:28:1659188608 IST+0530] DEBUG [multipart.multipart.callback:601] Calling on_field_name with data[0:10]
[2022-07-30T19:13:28:1659188608 IST+0530] DEBUG [multipart.multipart.callback:601] Calling on_field_data with data[11:19]
[2022-07-30T19:13:28:1659188608 IST+0530] DEBUG [multipart.multipart.callback:604] Calling on_field_end with no data
[2022-07-30T19:13:28:1659188608 IST+0530] DEBUG [multipart.multipart.callback:604] Calling on_field_start with no data
[2022-07-30T19:13:28:1659188608 IST+0530] DEBUG [multipart.multipart.callback:601] Calling on_field_name with data[20:28]
[2022-07-30T19:13:28:1659188608 IST+0530] DEBUG [multipart.multipart.callback:601] Calling on_field_data with data[29:36]
[2022-07-30T19:13:28:1659188608 IST+0530] DEBUG [multipart.multipart.callback:604] Calling on_field_end with no data
[2022-07-30T19:13:28:1659188608 IST+0530] DEBUG [multipart.multipart.callback:604] Calling on_field_start with no data
[2022-07-30T19:13:28:1659188608 IST+0530] DEBUG [multipart.multipart.callback:601] Calling on_field_name with data[37:45]
[2022-07-30T19:13:28:1659188608 IST+0530] DEBUG [multipart.multipart.callback:601] Calling on_field_data with data[46:58]
[2022-07-30T19:13:28:1659188608 IST+0530] DEBUG [multipart.multipart.callback:604] Calling on_field_end with no data
[2022-07-30T19:13:28:1659188608 IST+0530] DEBUG [multipart.multipart.callback:604] Calling on_field_start with no data
[2022-07-30T19:13:28:1659188608 IST+0530] DEBUG [multipart.multipart.callback:601] Calling on_field_name with data[59:67]
[2022-07-30T19:13:28:1659188608 IST+0530] DEBUG [multipart.multipart.callback:601] Calling on_field_data with data[68:83]
[2022-07-30T19:13:28:1659188608 IST+0530] DEBUG [multipart.multipart.callback:604] Calling on_field_end with no data
[2022-07-30T19:13:28:1659188608 IST+0530] DEBUG [multipart.multipart.callback:604] Calling on_field_start with no data
[2022-07-30T19:13:28:1659188608 IST+0530] DEBUG [multipart.multipart.callback:601] Calling on_field_name with data[84:93]
[2022-07-30T19:13:28:1659188608 IST+0530] DEBUG [multipart.multipart.callback:604] Calling on_field_end with no data
[2022-07-30T19:13:28:1659188608 IST+0530] DEBUG [multipart.multipart.callback:604] Calling on_field_start with no data
[2022-07-30T19:13:28:1659188608 IST+0530] DEBUG [multipart.multipart.callback:601] Calling on_field_name with data[95:108]
[2022-07-30T19:13:28:1659188608 IST+0530] DEBUG [multipart.multipart.callback:604] Calling on_field_end with no data
[2022-07-30T19:13:28:1659188608 IST+0530] DEBUG [multipart.multipart.callback:604] Calling on_end with no data
[2022-07-30T19:13:28:1659188608 IST+0530] DEBUG [databases._compile:266] Query: SELECT users.login_name, users.hashed_password, users.roles, users.is_active FROM users WHERE users.login_name = $1 Args: ('driver1',)
[2022-07-30T19:13:28:1659188608 IST+0530] DEBUG [passlib.handlers.bcrypt._load_backend_mixin:625] detected 'bcrypt' backend, version '3.2.2'
[2022-07-30T19:13:28:1659188608 IST+0530] DEBUG [passlib.handlers.bcrypt._finalize_backend_mixin:406] 'bcrypt' backend lacks $2$ support, enabling workaround
[2022-07-30T20:02:15:1659191535 IST+0530] INFO [root.__init_application:29] creating API service and Web Site
[2022-07-30T20:02:15:1659191535 IST+0530] INFO [root.__init_routes:19] initializing all routes
[2022-07-30T20:02:15:1659191535 IST+0530] INFO [uvicorn.error.serve:75] Started server process [4948]
[2022-07-30T20:02:15:1659191535 IST+0530] INFO [uvicorn.error.startup:47] Waiting for application startup.
[2022-07-30T20:02:16:1659191536 IST+0530] INFO [databases.connect:83] Connected to database postgresql://idp_admin:********@localhost:5432/idp_db?sslmode=prefer
[2022-07-30T20:02:16:1659191536 IST+0530] INFO [uvicorn.error.startup:61] Application startup complete.
[2022-07-30T20:02:16:1659191536 IST+0530] INFO [uvicorn.error._log_started_message:207] Uvicorn running on http://127.0.0.1:9091 (Press CTRL+C to quit)
[2022-07-30T20:02:22:1659191542 IST+0530] DEBUG [multipart.multipart.callback:604] Calling on_field_start with no data
[2022-07-30T20:02:22:1659191542 IST+0530] DEBUG [multipart.multipart.callback:601] Calling on_field_name with data[0:10]
[2022-07-30T20:02:22:1659191542 IST+0530] DEBUG [multipart.multipart.callback:601] Calling on_field_data with data[11:19]
[2022-07-30T20:02:22:1659191542 IST+0530] DEBUG [multipart.multipart.callback:604] Calling on_field_end with no data
[2022-07-30T20:02:22:1659191542 IST+0530] DEBUG [multipart.multipart.callback:604] Calling on_field_start with no data
[2022-07-30T20:02:22:1659191542 IST+0530] DEBUG [multipart.multipart.callback:601] Calling on_field_name with data[20:28]
[2022-07-30T20:02:22:1659191542 IST+0530] DEBUG [multipart.multipart.callback:601] Calling on_field_data with data[29:36]
[2022-07-30T20:02:22:1659191542 IST+0530] DEBUG [multipart.multipart.callback:604] Calling on_field_end with no data
[2022-07-30T20:02:22:1659191542 IST+0530] DEBUG [multipart.multipart.callback:604] Calling on_field_start with no data
[2022-07-30T20:02:22:1659191542 IST+0530] DEBUG [multipart.multipart.callback:601] Calling on_field_name with data[37:45]
[2022-07-30T20:02:22:1659191542 IST+0530] DEBUG [multipart.multipart.callback:601] Calling on_field_data with data[46:58]
[2022-07-30T20:02:22:1659191542 IST+0530] DEBUG [multipart.multipart.callback:604] Calling on_field_end with no data
[2022-07-30T20:02:22:1659191542 IST+0530] DEBUG [multipart.multipart.callback:604] Calling on_field_start with no data
[2022-07-30T20:02:22:1659191542 IST+0530] DEBUG [multipart.multipart.callback:601] Calling on_field_name with data[59:67]
[2022-07-30T20:02:22:1659191542 IST+0530] DEBUG [multipart.multipart.callback:601] Calling on_field_data with data[68:83]
[2022-07-30T20:02:22:1659191542 IST+0530] DEBUG [multipart.multipart.callback:604] Calling on_field_end with no data
[2022-07-30T20:02:22:1659191542 IST+0530] DEBUG [multipart.multipart.callback:604] Calling on_field_start with no data
[2022-07-30T20:02:22:1659191542 IST+0530] DEBUG [multipart.multipart.callback:601] Calling on_field_name with data[84:93]
[2022-07-30T20:02:22:1659191542 IST+0530] DEBUG [multipart.multipart.callback:604] Calling on_field_end with no data
[2022-07-30T20:02:22:1659191542 IST+0530] DEBUG [multipart.multipart.callback:604] Calling on_field_start with no data
[2022-07-30T20:02:22:1659191542 IST+0530] DEBUG [multipart.multipart.callback:601] Calling on_field_name with data[95:108]
[2022-07-30T20:02:22:1659191542 IST+0530] DEBUG [multipart.multipart.callback:604] Calling on_field_end with no data
[2022-07-30T20:02:22:1659191542 IST+0530] DEBUG [multipart.multipart.callback:604] Calling on_end with no data
[2022-07-30T20:02:22:1659191542 IST+0530] DEBUG [databases._compile:266] Query: SELECT users.login_name, users.hashed_password, users.roles, users.is_active FROM users WHERE users.login_name = $1 Args: ('driver1',)
[2022-07-30T20:02:22:1659191542 IST+0530] DEBUG [passlib.handlers.bcrypt._load_backend_mixin:625] detected 'bcrypt' backend, version '3.2.2'
[2022-07-30T20:02:22:1659191542 IST+0530] DEBUG [passlib.handlers.bcrypt._finalize_backend_mixin:406] 'bcrypt' backend lacks $2$ support, enabling workaround
[2022-07-30T20:02:31:1659191551 IST+0530] ERROR [uvicorn.error.run_asgi:406] Exception in ASGI application
Traceback (most recent call last):
  File "/home/p_116749/projects/python/americana/idp/.venv/lib/python3.9/site-packages/uvicorn/protocols/http/h11_impl.py", line 403, in run_asgi
    result = await app(self.scope, self.receive, self.send)
  File "/home/p_116749/projects/python/americana/idp/.venv/lib/python3.9/site-packages/uvicorn/middleware/proxy_headers.py", line 78, in __call__
    return await self.app(scope, receive, send)
  File "/home/p_116749/projects/python/americana/idp/.venv/lib/python3.9/site-packages/fastapi/applications.py", line 269, in __call__
    await super().__call__(scope, receive, send)
  File "/home/p_116749/projects/python/americana/idp/.venv/lib/python3.9/site-packages/starlette/applications.py", line 124, in __call__
    await self.middleware_stack(scope, receive, send)
  File "/home/p_116749/projects/python/americana/idp/.venv/lib/python3.9/site-packages/starlette/middleware/errors.py", line 184, in __call__
    raise exc
  File "/home/p_116749/projects/python/americana/idp/.venv/lib/python3.9/site-packages/starlette/middleware/errors.py", line 162, in __call__
    await self.app(scope, receive, _send)
  File "/home/p_116749/projects/python/americana/idp/.venv/lib/python3.9/site-packages/starlette/middleware/cors.py", line 84, in __call__
    await self.app(scope, receive, send)
  File "/home/p_116749/projects/python/americana/idp/.venv/lib/python3.9/site-packages/starlette/exceptions.py", line 93, in __call__
    raise exc
  File "/home/p_116749/projects/python/americana/idp/.venv/lib/python3.9/site-packages/starlette/exceptions.py", line 82, in __call__
    await self.app(scope, receive, sender)
  File "/home/p_116749/projects/python/americana/idp/.venv/lib/python3.9/site-packages/fastapi/middleware/asyncexitstack.py", line 21, in __call__
    raise e
  File "/home/p_116749/projects/python/americana/idp/.venv/lib/python3.9/site-packages/fastapi/middleware/asyncexitstack.py", line 18, in __call__
    await self.app(scope, receive, send)
  File "/home/p_116749/projects/python/americana/idp/.venv/lib/python3.9/site-packages/starlette/routing.py", line 670, in __call__
    await route.handle(scope, receive, send)
  File "/home/p_116749/projects/python/americana/idp/.venv/lib/python3.9/site-packages/starlette/routing.py", line 266, in handle
    await self.app(scope, receive, send)
  File "/home/p_116749/projects/python/americana/idp/.venv/lib/python3.9/site-packages/starlette/routing.py", line 65, in app
    response = await func(request)
  File "/home/p_116749/projects/python/americana/idp/.venv/lib/python3.9/site-packages/fastapi/routing.py", line 227, in app
    raw_response = await run_endpoint_function(
  File "/home/p_116749/projects/python/americana/idp/.venv/lib/python3.9/site-packages/fastapi/routing.py", line 160, in run_endpoint_function
    return await dependant.call(**values)
  File "/home/p_116749/projects/python/americana/idp/./src/controller/version1/auth_controller.py", line 25, in login
    access_token = generate_access_token(user)
  File "/home/p_116749/projects/python/americana/idp/./src/service/auth_service.py", line 54, in generate_access_token
    encoded_jwt = create_access_token(
TypeError: create_access_token() got an unexpected keyword argument 'secret_key'
[2022-07-30T20:03:21:1659191601 IST+0530] INFO [uvicorn.error.shutdown:253] Shutting down
[2022-07-30T20:03:21:1659191601 IST+0530] INFO [uvicorn.error.shutdown:66] Waiting for application shutdown.
[2022-07-30T20:03:21:1659191601 IST+0530] INFO [databases.disconnect:119] Disconnected from database postgresql://idp_admin:********@localhost:5432/idp_db?sslmode=prefer
[2022-07-30T20:03:21:1659191601 IST+0530] INFO [uvicorn.error.shutdown:77] Application shutdown complete.
[2022-07-30T20:03:21:1659191601 IST+0530] INFO [uvicorn.error.serve:85] Finished server process [4948]
[2022-07-30T20:06:06:1659191766 IST+0530] INFO [root.__init_application:29] creating API service and Web Site
[2022-07-30T20:06:06:1659191766 IST+0530] INFO [root.__init_routes:19] initializing all routes
[2022-07-30T20:06:06:1659191766 IST+0530] INFO [uvicorn.error.serve:75] Started server process [1171]
[2022-07-30T20:06:06:1659191766 IST+0530] INFO [uvicorn.error.startup:47] Waiting for application startup.
[2022-07-30T20:06:06:1659191766 IST+0530] INFO [databases.connect:83] Connected to database postgresql://idp_admin:********@localhost:5432/idp_db?sslmode=prefer
[2022-07-30T20:06:06:1659191766 IST+0530] INFO [uvicorn.error.startup:61] Application startup complete.
[2022-07-30T20:06:06:1659191766 IST+0530] INFO [uvicorn.error._log_started_message:207] Uvicorn running on http://127.0.0.1:9091 (Press CTRL+C to quit)
[2022-07-30T20:06:12:1659191772 IST+0530] DEBUG [multipart.multipart.callback:604] Calling on_field_start with no data
[2022-07-30T20:06:12:1659191772 IST+0530] DEBUG [multipart.multipart.callback:601] Calling on_field_name with data[0:10]
[2022-07-30T20:06:12:1659191772 IST+0530] DEBUG [multipart.multipart.callback:601] Calling on_field_data with data[11:19]
[2022-07-30T20:06:12:1659191772 IST+0530] DEBUG [multipart.multipart.callback:604] Calling on_field_end with no data
[2022-07-30T20:06:12:1659191772 IST+0530] DEBUG [multipart.multipart.callback:604] Calling on_field_start with no data
[2022-07-30T20:06:12:1659191772 IST+0530] DEBUG [multipart.multipart.callback:601] Calling on_field_name with data[20:28]
[2022-07-30T20:06:12:1659191772 IST+0530] DEBUG [multipart.multipart.callback:601] Calling on_field_data with data[29:36]
[2022-07-30T20:06:12:1659191772 IST+0530] DEBUG [multipart.multipart.callback:604] Calling on_field_end with no data
[2022-07-30T20:06:12:1659191772 IST+0530] DEBUG [multipart.multipart.callback:604] Calling on_field_start with no data
[2022-07-30T20:06:12:1659191772 IST+0530] DEBUG [multipart.multipart.callback:601] Calling on_field_name with data[37:45]
[2022-07-30T20:06:12:1659191772 IST+0530] DEBUG [multipart.multipart.callback:601] Calling on_field_data with data[46:58]
[2022-07-30T20:06:12:1659191772 IST+0530] DEBUG [multipart.multipart.callback:604] Calling on_field_end with no data
[2022-07-30T20:06:12:1659191772 IST+0530] DEBUG [multipart.multipart.callback:604] Calling on_field_start with no data
[2022-07-30T20:06:12:1659191772 IST+0530] DEBUG [multipart.multipart.callback:601] Calling on_field_name with data[59:67]
[2022-07-30T20:06:12:1659191772 IST+0530] DEBUG [multipart.multipart.callback:601] Calling on_field_data with data[68:83]
[2022-07-30T20:06:12:1659191772 IST+0530] DEBUG [multipart.multipart.callback:604] Calling on_field_end with no data
[2022-07-30T20:06:12:1659191772 IST+0530] DEBUG [multipart.multipart.callback:604] Calling on_field_start with no data
[2022-07-30T20:06:12:1659191772 IST+0530] DEBUG [multipart.multipart.callback:601] Calling on_field_name with data[84:93]
[2022-07-30T20:06:12:1659191772 IST+0530] DEBUG [multipart.multipart.callback:604] Calling on_field_end with no data
[2022-07-30T20:06:12:1659191772 IST+0530] DEBUG [multipart.multipart.callback:604] Calling on_field_start with no data
[2022-07-30T20:06:12:1659191772 IST+0530] DEBUG [multipart.multipart.callback:601] Calling on_field_name with data[95:108]
[2022-07-30T20:06:12:1659191772 IST+0530] DEBUG [multipart.multipart.callback:604] Calling on_field_end with no data
[2022-07-30T20:06:12:1659191772 IST+0530] DEBUG [multipart.multipart.callback:604] Calling on_end with no data
[2022-07-30T20:06:12:1659191772 IST+0530] DEBUG [databases._compile:266] Query: SELECT users.login_name, users.hashed_password, users.roles, users.is_active FROM users WHERE users.login_name = $1 Args: ('driver1',)
[2022-07-30T20:06:12:1659191772 IST+0530] DEBUG [passlib.handlers.bcrypt._load_backend_mixin:625] detected 'bcrypt' backend, version '3.2.2'
[2022-07-30T20:06:12:1659191772 IST+0530] DEBUG [passlib.handlers.bcrypt._finalize_backend_mixin:406] 'bcrypt' backend lacks $2$ support, enabling workaround
[2022-07-30T20:06:55:1659191815 IST+0530] DEBUG [databases._compile:266] Query: SELECT invalid_tokens.token, invalid_tokens.logout_datetime, invalid_tokens.logout_source FROM invalid_tokens WHERE invalid_tokens.token = $1 Args: ('eyJhbGciOiJSUzI1NiIsInR5cCI6IkpXVCJ9.eyJzdWIiOiJkcml2ZXIxIiwiZXhwIjoxNjU5MTkzNTczLCJpYXQiOjE2NTkxOTE3NzMsInNjb3BlcyI6eyJtZSI6IkdldCBpbmZvcm1hdGlvbiBhYm91dCB5b3UiLCJyb2xlcyI6WyJkcml2ZXIiXX0sImF1ZCI6ImFsbXBfSWRQOmF1dGgifQ.eKyvpmpzS-vrMVd-T2NXcGEZv1epWMlIeBcMn-L2fCKfD6-qxShXvqXysYUxERRFt-pPEN7_ID8Ftblp-3Fbn2EjtsaGlOeHG_II9VVovPopjFrdz0C5PQwg03bqS0kJyTBOEe9k9nTeYf8pQkpEsSF8JQPToBubcFmwsMA7S8J01CtK9YAxxGUnQBaCvooTz14j1X4h4mE_0KmnZpb4237xVC2BtfkmHwdI6Au0eL0fFidSqzhhyzCLV-PoWUV_F7wQtOTL2oa8XPop-EjyjJa49Ow9NT4e1kglIIgLsgegl3BcUAUgZLLvhL2JaaY9fx7NN9K52pxrfgpeixGBh5vukPJLWMfDlss-jw0MCvRNGo-xuSKAS947VIcNQEdUq9Q0fR1kklZjBwrzN9XnCHYOvX1o3XaQvC6Yu4aJDOB1srmP6puLnW-gYKVeWKIluHDTeI2xSaCXZh1BQ1Inimrcr9gJtqwcjUwcmqsL4Zmrv56yj0IxS2M4zANLOaq1Nx4lkh1RnojXkonXuiCB_VIk0V7hU0EqHH6fkUSuU4jwCGblf-DFb7DC_OHm4Gs6EDckvJeeW4MkS_aYknDiBv09WBh1_YMogDZn5QdvGRbIpxFx9UjIsF_5ZNFQgbP2X7E6PxnYizTSkwZxk95wZtA2WtMpy8Pwszhn4BFJ1jM',)
[2022-07-30T20:07:29:1659191849 IST+0530] DEBUG [databases._compile:266] Query: SELECT users.login_name, users.hashed_password, users.roles, users.is_active FROM users WHERE users.login_name = $1 Args: ('driver1',)
[2022-07-30T20:07:46:1659191866 IST+0530] DEBUG [databases._compile:266] Query: INSERT INTO users (login_name, hashed_password, roles, is_active) VALUES ($3, $1, $4, $2) Args: ('$2b$12$dP5VR10NGuaH7XMYzoEVKOKD3HvEeZCWJPhIWTtuRalEWbj7rIF6e', True, 'driver13', ['driver'])
[2022-07-30T20:07:51:1659191871 IST+0530] DEBUG [databases._compile:266] Query: INSERT INTO user_log (login_name, log_datetime, log_payload) VALUES ($3, $1, $2) Args: (datetime.datetime(2022, 7, 30, 20, 7, 36, 848590), '{"event": "new registration"}', 'driver13')
[2022-07-30T20:10:11:1659192011 IST+0530] INFO [uvicorn.error.shutdown:253] Shutting down
[2022-07-30T20:10:11:1659192011 IST+0530] INFO [uvicorn.error.shutdown:66] Waiting for application shutdown.
[2022-07-30T20:10:13:1659192013 IST+0530] INFO [databases.disconnect:119] Disconnected from database postgresql://idp_admin:********@localhost:5432/idp_db?sslmode=prefer
[2022-07-30T20:10:13:1659192013 IST+0530] INFO [uvicorn.error.shutdown:77] Application shutdown complete.
[2022-07-30T20:10:13:1659192013 IST+0530] INFO [uvicorn.error.serve:85] Finished server process [1171]
[2022-07-30T20:16:35:1659192395 IST+0530] INFO [root.__init_application:29] creating API service and Web Site
[2022-07-30T20:16:35:1659192395 IST+0530] INFO [root.__init_routes:19] initializing all routes
[2022-07-30T20:16:35:1659192395 IST+0530] INFO [uvicorn.error.__init__:359] Will watch for changes in these directories: ['/home/p_116749/projects/python/americana/idp']
[2022-07-30T20:16:35:1659192395 IST+0530] INFO [uvicorn.error.bind_socket:585] Uvicorn running on http://0.0.0.0:9091 (Press CTRL+C to quit)
[2022-07-30T20:16:35:1659192395 IST+0530] INFO [uvicorn.error.startup:72] Started reloader process [1466] using StatReload
[2022-07-30T20:16:36:1659192396 IST+0530] INFO [root.__init_application:29] creating API service and Web Site
[2022-07-30T20:16:36:1659192396 IST+0530] INFO [root.__init_routes:19] initializing all routes
[2022-07-30T20:16:36:1659192396 IST+0530] DEBUG [asyncio.__init__:59] Using selector: EpollSelector
[2022-07-30T20:16:36:1659192396 IST+0530] INFO [root.__init_application:29] creating API service and Web Site
[2022-07-30T20:16:36:1659192396 IST+0530] INFO [root.__init_routes:19] initializing all routes
[2022-07-30T20:16:36:1659192396 IST+0530] INFO [uvicorn.error.serve:75] Started server process [1468]
[2022-07-30T20:16:36:1659192396 IST+0530] INFO [uvicorn.error.startup:47] Waiting for application startup.
[2022-07-30T20:16:36:1659192396 IST+0530] INFO [databases.connect:83] Connected to database postgresql://idp_admin:********@localhost:5432/idp_db?sslmode=prefer
[2022-07-30T20:16:36:1659192396 IST+0530] INFO [uvicorn.error.startup:61] Application startup complete.
[2022-07-30T20:17:00:1659192420 IST+0530] WARNING [uvicorn.error.run:47] StatReload detected changes in 'src/controller/version1/auth_controller.py'. Reloading...
[2022-07-30T20:17:00:1659192420 IST+0530] INFO [uvicorn.error.shutdown:253] Shutting down
[2022-07-30T20:17:00:1659192420 IST+0530] INFO [uvicorn.error.shutdown:66] Waiting for application shutdown.
[2022-07-30T20:17:00:1659192420 IST+0530] INFO [databases.disconnect:119] Disconnected from database postgresql://idp_admin:********@localhost:5432/idp_db?sslmode=prefer
[2022-07-30T20:17:00:1659192420 IST+0530] INFO [uvicorn.error.shutdown:77] Application shutdown complete.
[2022-07-30T20:17:00:1659192420 IST+0530] INFO [uvicorn.error.serve:85] Finished server process [1468]
[2022-07-30T20:17:00:1659192420 IST+0530] INFO [root.__init_application:29] creating API service and Web Site
[2022-07-30T20:17:00:1659192420 IST+0530] INFO [root.__init_routes:19] initializing all routes
[2022-07-30T20:17:00:1659192420 IST+0530] DEBUG [asyncio.__init__:59] Using selector: EpollSelector
[2022-07-30T20:17:00:1659192420 IST+0530] INFO [root.__init_application:29] creating API service and Web Site
[2022-07-30T20:17:00:1659192420 IST+0530] INFO [root.__init_routes:19] initializing all routes
[2022-07-30T20:17:00:1659192420 IST+0530] INFO [uvicorn.error.serve:75] Started server process [1479]
[2022-07-30T20:17:00:1659192420 IST+0530] INFO [uvicorn.error.startup:47] Waiting for application startup.
[2022-07-30T20:17:01:1659192421 IST+0530] INFO [databases.connect:83] Connected to database postgresql://idp_admin:********@localhost:5432/idp_db?sslmode=prefer
[2022-07-30T20:17:01:1659192421 IST+0530] INFO [uvicorn.error.startup:61] Application startup complete.
[2022-07-30T20:17:02:1659192422 IST+0530] WARNING [uvicorn.error.run:47] StatReload detected changes in 'src/controller/version1/auth_controller.py'. Reloading...
[2022-07-30T20:17:02:1659192422 IST+0530] INFO [uvicorn.error.shutdown:253] Shutting down
[2022-07-30T20:17:02:1659192422 IST+0530] INFO [uvicorn.error.shutdown:66] Waiting for application shutdown.
[2022-07-30T20:17:02:1659192422 IST+0530] INFO [databases.disconnect:119] Disconnected from database postgresql://idp_admin:********@localhost:5432/idp_db?sslmode=prefer
[2022-07-30T20:17:02:1659192422 IST+0530] INFO [uvicorn.error.shutdown:77] Application shutdown complete.
[2022-07-30T20:17:02:1659192422 IST+0530] INFO [uvicorn.error.serve:85] Finished server process [1479]
[2022-07-30T20:17:02:1659192422 IST+0530] INFO [root.__init_application:29] creating API service and Web Site
[2022-07-30T20:17:02:1659192422 IST+0530] INFO [root.__init_routes:19] initializing all routes
[2022-07-30T20:17:02:1659192422 IST+0530] DEBUG [asyncio.__init__:59] Using selector: EpollSelector
[2022-07-30T20:17:02:1659192422 IST+0530] INFO [root.__init_application:29] creating API service and Web Site
[2022-07-30T20:17:02:1659192422 IST+0530] INFO [root.__init_routes:19] initializing all routes
[2022-07-30T20:17:02:1659192422 IST+0530] INFO [uvicorn.error.serve:75] Started server process [1486]
[2022-07-30T20:17:02:1659192422 IST+0530] INFO [uvicorn.error.startup:47] Waiting for application startup.
[2022-07-30T20:17:03:1659192423 IST+0530] INFO [databases.connect:83] Connected to database postgresql://idp_admin:********@localhost:5432/idp_db?sslmode=prefer
[2022-07-30T20:17:03:1659192423 IST+0530] INFO [uvicorn.error.startup:61] Application startup complete.
[2022-07-30T20:23:49:1659192829 IST+0530] INFO [uvicorn.error.shutdown:253] Shutting down
[2022-07-30T20:23:49:1659192829 IST+0530] INFO [uvicorn.error.shutdown:66] Waiting for application shutdown.
[2022-07-30T20:23:49:1659192829 IST+0530] INFO [databases.disconnect:119] Disconnected from database postgresql://idp_admin:********@localhost:5432/idp_db?sslmode=prefer
[2022-07-30T20:23:49:1659192829 IST+0530] INFO [uvicorn.error.shutdown:77] Application shutdown complete.
[2022-07-30T20:23:49:1659192829 IST+0530] INFO [uvicorn.error.serve:85] Finished server process [1486]
[2022-07-30T20:23:49:1659192829 IST+0530] INFO [uvicorn.error.shutdown:103] Stopping reloader process [1466]
[2022-08-02T09:38:40:1659413320 IST+0530] INFO [root.__init_application:29] creating API service and Web Site
[2022-08-02T09:38:40:1659413320 IST+0530] INFO [root.__init_routes:19] initializing all routes
[2022-08-02T09:38:40:1659413320 IST+0530] INFO [uvicorn.error.__init__:359] Will watch for changes in these directories: ['/home/p_116749/projects/python/americana/idp']
[2022-08-02T09:38:40:1659413320 IST+0530] INFO [uvicorn.error.bind_socket:585] Uvicorn running on http://0.0.0.0:9091 (Press CTRL+C to quit)
[2022-08-02T09:38:40:1659413320 IST+0530] INFO [uvicorn.error.startup:72] Started reloader process [1282] using StatReload
[2022-08-02T09:38:40:1659413320 IST+0530] INFO [root.__init_application:29] creating API service and Web Site
[2022-08-02T09:38:40:1659413320 IST+0530] INFO [root.__init_routes:19] initializing all routes
[2022-08-02T09:38:40:1659413320 IST+0530] DEBUG [asyncio.__init__:59] Using selector: EpollSelector
[2022-08-02T09:38:40:1659413320 IST+0530] INFO [root.__init_application:29] creating API service and Web Site
[2022-08-02T09:38:40:1659413320 IST+0530] INFO [root.__init_routes:19] initializing all routes
[2022-08-02T09:38:40:1659413320 IST+0530] INFO [uvicorn.error.serve:75] Started server process [1284]
[2022-08-02T09:38:40:1659413320 IST+0530] INFO [uvicorn.error.startup:47] Waiting for application startup.
[2022-08-02T09:38:40:1659413320 IST+0530] ERROR [uvicorn.error.send:121] Traceback (most recent call last):
  File "/home/p_116749/projects/python/americana/idp/.venv/lib/python3.9/site-packages/starlette/routing.py", line 635, in lifespan
    async with self.lifespan_context(app):
  File "/home/p_116749/projects/python/americana/idp/.venv/lib/python3.9/site-packages/starlette/routing.py", line 530, in __aenter__
    await self._router.startup()
  File "/home/p_116749/projects/python/americana/idp/.venv/lib/python3.9/site-packages/starlette/routing.py", line 612, in startup
    await handler()
  File "/home/p_116749/projects/python/americana/idp/main.py", line 52, in startup
    await database.connect()
  File "/home/p_116749/projects/python/americana/idp/.venv/lib/python3.9/site-packages/databases/core.py", line 82, in connect
    await self._backend.connect()
  File "/home/p_116749/projects/python/americana/idp/.venv/lib/python3.9/site-packages/databases/backends/postgres.py", line 74, in connect
    self._pool = await asyncpg.create_pool(**kwargs)
  File "/home/p_116749/projects/python/americana/idp/.venv/lib/python3.9/site-packages/asyncpg/pool.py", line 413, in _async__init__
    await self._initialize()
  File "/home/p_116749/projects/python/americana/idp/.venv/lib/python3.9/site-packages/asyncpg/pool.py", line 441, in _initialize
    await first_ch.connect()
  File "/home/p_116749/projects/python/americana/idp/.venv/lib/python3.9/site-packages/asyncpg/pool.py", line 133, in connect
    self._con = await self._pool._get_new_connection()
  File "/home/p_116749/projects/python/americana/idp/.venv/lib/python3.9/site-packages/asyncpg/pool.py", line 511, in _get_new_connection
    con = await connection.connect(
  File "/home/p_116749/projects/python/americana/idp/.venv/lib/python3.9/site-packages/asyncpg/connection.py", line 2093, in connect
    return await connect_utils._connect(
  File "/home/p_116749/projects/python/americana/idp/.venv/lib/python3.9/site-packages/asyncpg/connect_utils.py", line 903, in _connect
    raise last_error
  File "/home/p_116749/projects/python/americana/idp/.venv/lib/python3.9/site-packages/asyncpg/connect_utils.py", line 889, in _connect
    return await _connect_addr(
  File "/home/p_116749/projects/python/americana/idp/.venv/lib/python3.9/site-packages/asyncpg/connect_utils.py", line 781, in _connect_addr
    return await __connect_addr(params, timeout, True, *args)
  File "/home/p_116749/projects/python/americana/idp/.venv/lib/python3.9/site-packages/asyncpg/connect_utils.py", line 833, in __connect_addr
    tr, pr = await compat.wait_for(connector, timeout=timeout)
  File "/home/p_116749/projects/python/americana/idp/.venv/lib/python3.9/site-packages/asyncpg/compat.py", line 66, in wait_for
    return await asyncio.wait_for(fut, timeout)
  File "/usr/lib/python3.9/asyncio/tasks.py", line 481, in wait_for
    return fut.result()
  File "/home/p_116749/projects/python/americana/idp/.venv/lib/python3.9/site-packages/asyncpg/connect_utils.py", line 692, in _create_ssl_connection
    tr, pr = await loop.create_connection(
  File "/usr/lib/python3.9/asyncio/base_events.py", line 1056, in create_connection
    raise exceptions[0]
  File "/usr/lib/python3.9/asyncio/base_events.py", line 1041, in create_connection
    sock = await self._connect_sock(
  File "/usr/lib/python3.9/asyncio/base_events.py", line 955, in _connect_sock
    await self.sock_connect(sock, address)
  File "/usr/lib/python3.9/asyncio/selector_events.py", line 502, in sock_connect
    return await fut
  File "/usr/lib/python3.9/asyncio/selector_events.py", line 507, in _sock_connect
    sock.connect(address)
OSError: [Errno 22] Invalid argument

[2022-08-02T09:38:40:1659413320 IST+0530] ERROR [uvicorn.error.startup:58] Application startup failed. Exiting.
[2022-08-02T09:40:56:1659413456 IST+0530] WARNING [uvicorn.error.run:47] StatReload detected changes in 'src/repository/db.py'. Reloading...
[2022-08-02T09:40:56:1659413456 IST+0530] INFO [root.__init_application:29] creating API service and Web Site
[2022-08-02T09:40:56:1659413456 IST+0530] INFO [root.__init_routes:19] initializing all routes
[2022-08-02T09:40:56:1659413456 IST+0530] DEBUG [asyncio.__init__:59] Using selector: EpollSelector
[2022-08-02T09:40:56:1659413456 IST+0530] INFO [root.__init_application:29] creating API service and Web Site
[2022-08-02T09:40:56:1659413456 IST+0530] INFO [root.__init_routes:19] initializing all routes
[2022-08-02T09:40:56:1659413456 IST+0530] INFO [uvicorn.error.serve:75] Started server process [1291]
[2022-08-02T09:40:56:1659413456 IST+0530] INFO [uvicorn.error.startup:47] Waiting for application startup.
[2022-08-02T09:40:56:1659413456 IST+0530] ERROR [uvicorn.error.send:121] Traceback (most recent call last):
  File "/home/p_116749/projects/python/americana/idp/.venv/lib/python3.9/site-packages/starlette/routing.py", line 635, in lifespan
    async with self.lifespan_context(app):
  File "/home/p_116749/projects/python/americana/idp/.venv/lib/python3.9/site-packages/starlette/routing.py", line 530, in __aenter__
    await self._router.startup()
  File "/home/p_116749/projects/python/americana/idp/.venv/lib/python3.9/site-packages/starlette/routing.py", line 612, in startup
    await handler()
  File "/home/p_116749/projects/python/americana/idp/main.py", line 52, in startup
    await database.connect()
  File "/home/p_116749/projects/python/americana/idp/.venv/lib/python3.9/site-packages/databases/core.py", line 82, in connect
    await self._backend.connect()
  File "/home/p_116749/projects/python/americana/idp/.venv/lib/python3.9/site-packages/databases/backends/postgres.py", line 74, in connect
    self._pool = await asyncpg.create_pool(**kwargs)
  File "/home/p_116749/projects/python/americana/idp/.venv/lib/python3.9/site-packages/asyncpg/pool.py", line 413, in _async__init__
    await self._initialize()
  File "/home/p_116749/projects/python/americana/idp/.venv/lib/python3.9/site-packages/asyncpg/pool.py", line 441, in _initialize
    await first_ch.connect()
  File "/home/p_116749/projects/python/americana/idp/.venv/lib/python3.9/site-packages/asyncpg/pool.py", line 133, in connect
    self._con = await self._pool._get_new_connection()
  File "/home/p_116749/projects/python/americana/idp/.venv/lib/python3.9/site-packages/asyncpg/pool.py", line 511, in _get_new_connection
    con = await connection.connect(
  File "/home/p_116749/projects/python/americana/idp/.venv/lib/python3.9/site-packages/asyncpg/connection.py", line 2093, in connect
    return await connect_utils._connect(
  File "/home/p_116749/projects/python/americana/idp/.venv/lib/python3.9/site-packages/asyncpg/connect_utils.py", line 903, in _connect
    raise last_error
  File "/home/p_116749/projects/python/americana/idp/.venv/lib/python3.9/site-packages/asyncpg/connect_utils.py", line 889, in _connect
    return await _connect_addr(
  File "/home/p_116749/projects/python/americana/idp/.venv/lib/python3.9/site-packages/asyncpg/connect_utils.py", line 781, in _connect_addr
    return await __connect_addr(params, timeout, True, *args)
  File "/home/p_116749/projects/python/americana/idp/.venv/lib/python3.9/site-packages/asyncpg/connect_utils.py", line 833, in __connect_addr
    tr, pr = await compat.wait_for(connector, timeout=timeout)
  File "/home/p_116749/projects/python/americana/idp/.venv/lib/python3.9/site-packages/asyncpg/compat.py", line 66, in wait_for
    return await asyncio.wait_for(fut, timeout)
  File "/usr/lib/python3.9/asyncio/tasks.py", line 481, in wait_for
    return fut.result()
  File "/home/p_116749/projects/python/americana/idp/.venv/lib/python3.9/site-packages/asyncpg/connect_utils.py", line 692, in _create_ssl_connection
    tr, pr = await loop.create_connection(
  File "/usr/lib/python3.9/asyncio/base_events.py", line 1056, in create_connection
    raise exceptions[0]
  File "/usr/lib/python3.9/asyncio/base_events.py", line 1041, in create_connection
    sock = await self._connect_sock(
  File "/usr/lib/python3.9/asyncio/base_events.py", line 955, in _connect_sock
    await self.sock_connect(sock, address)
  File "/usr/lib/python3.9/asyncio/selector_events.py", line 502, in sock_connect
    return await fut
  File "/usr/lib/python3.9/asyncio/selector_events.py", line 507, in _sock_connect
    sock.connect(address)
OSError: [Errno 22] Invalid argument

[2022-08-02T09:40:56:1659413456 IST+0530] ERROR [uvicorn.error.startup:58] Application startup failed. Exiting.
[2022-08-02T09:41:01:1659413461 IST+0530] WARNING [uvicorn.error.run:47] StatReload detected changes in 'src/repository/db.py'. Reloading...
[2022-08-02T09:41:02:1659413462 IST+0530] INFO [root.__init_application:29] creating API service and Web Site
[2022-08-02T09:41:02:1659413462 IST+0530] INFO [root.__init_routes:19] initializing all routes
[2022-08-02T09:41:02:1659413462 IST+0530] DEBUG [asyncio.__init__:59] Using selector: EpollSelector
[2022-08-02T09:41:02:1659413462 IST+0530] INFO [root.__init_application:29] creating API service and Web Site
[2022-08-02T09:41:02:1659413462 IST+0530] INFO [root.__init_routes:19] initializing all routes
[2022-08-02T09:41:02:1659413462 IST+0530] INFO [uvicorn.error.serve:75] Started server process [1294]
[2022-08-02T09:41:02:1659413462 IST+0530] INFO [uvicorn.error.startup:47] Waiting for application startup.
[2022-08-02T09:41:02:1659413462 IST+0530] ERROR [uvicorn.error.send:121] Traceback (most recent call last):
  File "/home/p_116749/projects/python/americana/idp/.venv/lib/python3.9/site-packages/starlette/routing.py", line 635, in lifespan
    async with self.lifespan_context(app):
  File "/home/p_116749/projects/python/americana/idp/.venv/lib/python3.9/site-packages/starlette/routing.py", line 530, in __aenter__
    await self._router.startup()
  File "/home/p_116749/projects/python/americana/idp/.venv/lib/python3.9/site-packages/starlette/routing.py", line 612, in startup
    await handler()
  File "/home/p_116749/projects/python/americana/idp/main.py", line 52, in startup
    await database.connect()
  File "/home/p_116749/projects/python/americana/idp/.venv/lib/python3.9/site-packages/databases/core.py", line 82, in connect
    await self._backend.connect()
  File "/home/p_116749/projects/python/americana/idp/.venv/lib/python3.9/site-packages/databases/backends/postgres.py", line 74, in connect
    self._pool = await asyncpg.create_pool(**kwargs)
  File "/home/p_116749/projects/python/americana/idp/.venv/lib/python3.9/site-packages/asyncpg/pool.py", line 413, in _async__init__
    await self._initialize()
  File "/home/p_116749/projects/python/americana/idp/.venv/lib/python3.9/site-packages/asyncpg/pool.py", line 441, in _initialize
    await first_ch.connect()
  File "/home/p_116749/projects/python/americana/idp/.venv/lib/python3.9/site-packages/asyncpg/pool.py", line 133, in connect
    self._con = await self._pool._get_new_connection()
  File "/home/p_116749/projects/python/americana/idp/.venv/lib/python3.9/site-packages/asyncpg/pool.py", line 511, in _get_new_connection
    con = await connection.connect(
  File "/home/p_116749/projects/python/americana/idp/.venv/lib/python3.9/site-packages/asyncpg/connection.py", line 2093, in connect
    return await connect_utils._connect(
  File "/home/p_116749/projects/python/americana/idp/.venv/lib/python3.9/site-packages/asyncpg/connect_utils.py", line 903, in _connect
    raise last_error
  File "/home/p_116749/projects/python/americana/idp/.venv/lib/python3.9/site-packages/asyncpg/connect_utils.py", line 889, in _connect
    return await _connect_addr(
  File "/home/p_116749/projects/python/americana/idp/.venv/lib/python3.9/site-packages/asyncpg/connect_utils.py", line 781, in _connect_addr
    return await __connect_addr(params, timeout, True, *args)
  File "/home/p_116749/projects/python/americana/idp/.venv/lib/python3.9/site-packages/asyncpg/connect_utils.py", line 833, in __connect_addr
    tr, pr = await compat.wait_for(connector, timeout=timeout)
  File "/home/p_116749/projects/python/americana/idp/.venv/lib/python3.9/site-packages/asyncpg/compat.py", line 66, in wait_for
    return await asyncio.wait_for(fut, timeout)
  File "/usr/lib/python3.9/asyncio/tasks.py", line 481, in wait_for
    return fut.result()
  File "/home/p_116749/projects/python/americana/idp/.venv/lib/python3.9/site-packages/asyncpg/connect_utils.py", line 692, in _create_ssl_connection
    tr, pr = await loop.create_connection(
  File "/usr/lib/python3.9/asyncio/base_events.py", line 1056, in create_connection
    raise exceptions[0]
  File "/usr/lib/python3.9/asyncio/base_events.py", line 1041, in create_connection
    sock = await self._connect_sock(
  File "/usr/lib/python3.9/asyncio/base_events.py", line 955, in _connect_sock
    await self.sock_connect(sock, address)
  File "/usr/lib/python3.9/asyncio/selector_events.py", line 502, in sock_connect
    return await fut
  File "/usr/lib/python3.9/asyncio/selector_events.py", line 507, in _sock_connect
    sock.connect(address)
OSError: [Errno 22] Invalid argument

[2022-08-02T09:41:02:1659413462 IST+0530] ERROR [uvicorn.error.startup:58] Application startup failed. Exiting.
[2022-08-02T09:41:18:1659413478 IST+0530] WARNING [uvicorn.error.run:47] StatReload detected changes in 'src/repository/db.py'. Reloading...
[2022-08-02T09:41:18:1659413478 IST+0530] INFO [root.__init_application:29] creating API service and Web Site
[2022-08-02T09:41:18:1659413478 IST+0530] INFO [root.__init_routes:19] initializing all routes
[2022-08-02T09:41:18:1659413478 IST+0530] DEBUG [asyncio.__init__:59] Using selector: EpollSelector
[2022-08-02T09:41:18:1659413478 IST+0530] INFO [root.__init_application:29] creating API service and Web Site
[2022-08-02T09:41:18:1659413478 IST+0530] INFO [root.__init_routes:19] initializing all routes
[2022-08-02T09:41:18:1659413478 IST+0530] INFO [uvicorn.error.serve:75] Started server process [1297]
[2022-08-02T09:41:18:1659413478 IST+0530] INFO [uvicorn.error.startup:47] Waiting for application startup.
[2022-08-02T09:41:18:1659413478 IST+0530] ERROR [uvicorn.error.send:121] Traceback (most recent call last):
  File "/home/p_116749/projects/python/americana/idp/.venv/lib/python3.9/site-packages/starlette/routing.py", line 635, in lifespan
    async with self.lifespan_context(app):
  File "/home/p_116749/projects/python/americana/idp/.venv/lib/python3.9/site-packages/starlette/routing.py", line 530, in __aenter__
    await self._router.startup()
  File "/home/p_116749/projects/python/americana/idp/.venv/lib/python3.9/site-packages/starlette/routing.py", line 612, in startup
    await handler()
  File "/home/p_116749/projects/python/americana/idp/main.py", line 52, in startup
    await database.connect()
  File "/home/p_116749/projects/python/americana/idp/.venv/lib/python3.9/site-packages/databases/core.py", line 82, in connect
    await self._backend.connect()
  File "/home/p_116749/projects/python/americana/idp/.venv/lib/python3.9/site-packages/databases/backends/postgres.py", line 74, in connect
    self._pool = await asyncpg.create_pool(**kwargs)
  File "/home/p_116749/projects/python/americana/idp/.venv/lib/python3.9/site-packages/asyncpg/pool.py", line 413, in _async__init__
    await self._initialize()
  File "/home/p_116749/projects/python/americana/idp/.venv/lib/python3.9/site-packages/asyncpg/pool.py", line 441, in _initialize
    await first_ch.connect()
  File "/home/p_116749/projects/python/americana/idp/.venv/lib/python3.9/site-packages/asyncpg/pool.py", line 133, in connect
    self._con = await self._pool._get_new_connection()
  File "/home/p_116749/projects/python/americana/idp/.venv/lib/python3.9/site-packages/asyncpg/pool.py", line 511, in _get_new_connection
    con = await connection.connect(
  File "/home/p_116749/projects/python/americana/idp/.venv/lib/python3.9/site-packages/asyncpg/connection.py", line 2093, in connect
    return await connect_utils._connect(
  File "/home/p_116749/projects/python/americana/idp/.venv/lib/python3.9/site-packages/asyncpg/connect_utils.py", line 903, in _connect
    raise last_error
  File "/home/p_116749/projects/python/americana/idp/.venv/lib/python3.9/site-packages/asyncpg/connect_utils.py", line 889, in _connect
    return await _connect_addr(
  File "/home/p_116749/projects/python/americana/idp/.venv/lib/python3.9/site-packages/asyncpg/connect_utils.py", line 781, in _connect_addr
    return await __connect_addr(params, timeout, True, *args)
  File "/home/p_116749/projects/python/americana/idp/.venv/lib/python3.9/site-packages/asyncpg/connect_utils.py", line 833, in __connect_addr
    tr, pr = await compat.wait_for(connector, timeout=timeout)
  File "/home/p_116749/projects/python/americana/idp/.venv/lib/python3.9/site-packages/asyncpg/compat.py", line 66, in wait_for
    return await asyncio.wait_for(fut, timeout)
  File "/usr/lib/python3.9/asyncio/tasks.py", line 481, in wait_for
    return fut.result()
  File "/home/p_116749/projects/python/americana/idp/.venv/lib/python3.9/site-packages/asyncpg/connect_utils.py", line 692, in _create_ssl_connection
    tr, pr = await loop.create_connection(
  File "/usr/lib/python3.9/asyncio/base_events.py", line 1056, in create_connection
    raise exceptions[0]
  File "/usr/lib/python3.9/asyncio/base_events.py", line 1041, in create_connection
    sock = await self._connect_sock(
  File "/usr/lib/python3.9/asyncio/base_events.py", line 955, in _connect_sock
    await self.sock_connect(sock, address)
  File "/usr/lib/python3.9/asyncio/selector_events.py", line 502, in sock_connect
    return await fut
  File "/usr/lib/python3.9/asyncio/selector_events.py", line 507, in _sock_connect
    sock.connect(address)
OSError: [Errno 22] Invalid argument

[2022-08-02T09:41:18:1659413478 IST+0530] ERROR [uvicorn.error.startup:58] Application startup failed. Exiting.
[2022-08-02T09:41:23:1659413483 IST+0530] WARNING [uvicorn.error.run:47] StatReload detected changes in 'src/repository/db.py'. Reloading...
[2022-08-02T09:41:24:1659413484 IST+0530] INFO [root.__init_application:29] creating API service and Web Site
[2022-08-02T09:41:24:1659413484 IST+0530] INFO [root.__init_routes:19] initializing all routes
[2022-08-02T09:41:24:1659413484 IST+0530] DEBUG [asyncio.__init__:59] Using selector: EpollSelector
[2022-08-02T09:41:24:1659413484 IST+0530] INFO [root.__init_application:29] creating API service and Web Site
[2022-08-02T09:41:24:1659413484 IST+0530] INFO [root.__init_routes:19] initializing all routes
[2022-08-02T09:41:24:1659413484 IST+0530] INFO [uvicorn.error.serve:75] Started server process [1300]
[2022-08-02T09:41:24:1659413484 IST+0530] INFO [uvicorn.error.startup:47] Waiting for application startup.
[2022-08-02T09:41:24:1659413484 IST+0530] ERROR [uvicorn.error.send:121] Traceback (most recent call last):
  File "/home/p_116749/projects/python/americana/idp/.venv/lib/python3.9/site-packages/starlette/routing.py", line 635, in lifespan
    async with self.lifespan_context(app):
  File "/home/p_116749/projects/python/americana/idp/.venv/lib/python3.9/site-packages/starlette/routing.py", line 530, in __aenter__
    await self._router.startup()
  File "/home/p_116749/projects/python/americana/idp/.venv/lib/python3.9/site-packages/starlette/routing.py", line 612, in startup
    await handler()
  File "/home/p_116749/projects/python/americana/idp/main.py", line 52, in startup
    await database.connect()
  File "/home/p_116749/projects/python/americana/idp/.venv/lib/python3.9/site-packages/databases/core.py", line 82, in connect
    await self._backend.connect()
  File "/home/p_116749/projects/python/americana/idp/.venv/lib/python3.9/site-packages/databases/backends/postgres.py", line 74, in connect
    self._pool = await asyncpg.create_pool(**kwargs)
  File "/home/p_116749/projects/python/americana/idp/.venv/lib/python3.9/site-packages/asyncpg/pool.py", line 413, in _async__init__
    await self._initialize()
  File "/home/p_116749/projects/python/americana/idp/.venv/lib/python3.9/site-packages/asyncpg/pool.py", line 441, in _initialize
    await first_ch.connect()
  File "/home/p_116749/projects/python/americana/idp/.venv/lib/python3.9/site-packages/asyncpg/pool.py", line 133, in connect
    self._con = await self._pool._get_new_connection()
  File "/home/p_116749/projects/python/americana/idp/.venv/lib/python3.9/site-packages/asyncpg/pool.py", line 511, in _get_new_connection
    con = await connection.connect(
  File "/home/p_116749/projects/python/americana/idp/.venv/lib/python3.9/site-packages/asyncpg/connection.py", line 2093, in connect
    return await connect_utils._connect(
  File "/home/p_116749/projects/python/americana/idp/.venv/lib/python3.9/site-packages/asyncpg/connect_utils.py", line 903, in _connect
    raise last_error
  File "/home/p_116749/projects/python/americana/idp/.venv/lib/python3.9/site-packages/asyncpg/connect_utils.py", line 889, in _connect
    return await _connect_addr(
  File "/home/p_116749/projects/python/americana/idp/.venv/lib/python3.9/site-packages/asyncpg/connect_utils.py", line 781, in _connect_addr
    return await __connect_addr(params, timeout, True, *args)
  File "/home/p_116749/projects/python/americana/idp/.venv/lib/python3.9/site-packages/asyncpg/connect_utils.py", line 833, in __connect_addr
    tr, pr = await compat.wait_for(connector, timeout=timeout)
  File "/home/p_116749/projects/python/americana/idp/.venv/lib/python3.9/site-packages/asyncpg/compat.py", line 66, in wait_for
    return await asyncio.wait_for(fut, timeout)
  File "/usr/lib/python3.9/asyncio/tasks.py", line 481, in wait_for
    return fut.result()
  File "/home/p_116749/projects/python/americana/idp/.venv/lib/python3.9/site-packages/asyncpg/connect_utils.py", line 692, in _create_ssl_connection
    tr, pr = await loop.create_connection(
  File "/usr/lib/python3.9/asyncio/base_events.py", line 1056, in create_connection
    raise exceptions[0]
  File "/usr/lib/python3.9/asyncio/base_events.py", line 1041, in create_connection
    sock = await self._connect_sock(
  File "/usr/lib/python3.9/asyncio/base_events.py", line 955, in _connect_sock
    await self.sock_connect(sock, address)
  File "/usr/lib/python3.9/asyncio/selector_events.py", line 502, in sock_connect
    return await fut
  File "/usr/lib/python3.9/asyncio/selector_events.py", line 507, in _sock_connect
    sock.connect(address)
OSError: [Errno 22] Invalid argument

[2022-08-02T09:41:24:1659413484 IST+0530] ERROR [uvicorn.error.startup:58] Application startup failed. Exiting.
[2022-08-02T09:41:30:1659413490 IST+0530] WARNING [uvicorn.error.run:47] StatReload detected changes in 'src/repository/db.py'. Reloading...
