[2022-08-02T20:35:14:1659452714 IST+0530] WARNING [uvicorn.error.run:47] StatReload detected changes in 'src/service/auth_service.py'. Reloading...
[2022-08-02T20:35:15:1659452715 IST+0530] INFO [root.__init_application:29] creating API service and Web Site
[2022-08-02T20:35:15:1659452715 IST+0530] INFO [root.__init_routes:19] initializing all routes
[2022-08-02T20:35:15:1659452715 IST+0530] DEBUG [asyncio.__init__:59] Using selector: EpollSelector
[2022-08-02T20:35:15:1659452715 IST+0530] INFO [root.__init_application:29] creating API service and Web Site
[2022-08-02T20:35:15:1659452715 IST+0530] INFO [root.__init_routes:19] initializing all routes
[2022-08-02T20:35:15:1659452715 IST+0530] INFO [uvicorn.error.serve:75] Started server process [4188]
[2022-08-02T20:35:15:1659452715 IST+0530] INFO [uvicorn.error.startup:47] Waiting for application startup.
[2022-08-02T20:35:16:1659452716 IST+0530] INFO [sqlalchemy.engine.Engine._execute_context:1772] select pg_catalog.version()
[2022-08-02T20:35:16:1659452716 IST+0530] INFO [sqlalchemy.engine.Engine._execute_context:1777] [raw sql] ()
[2022-08-02T20:35:16:1659452716 IST+0530] INFO [sqlalchemy.engine.Engine._execute_context:1772] select current_schema()
[2022-08-02T20:35:16:1659452716 IST+0530] INFO [sqlalchemy.engine.Engine._execute_context:1777] [raw sql] ()
[2022-08-02T20:35:17:1659452717 IST+0530] INFO [sqlalchemy.engine.Engine._execute_context:1772] show standard_conforming_strings
[2022-08-02T20:35:17:1659452717 IST+0530] INFO [sqlalchemy.engine.Engine._execute_context:1777] [raw sql] ()
[2022-08-02T20:35:17:1659452717 IST+0530] INFO [sqlalchemy.engine.Engine._begin_impl:953] BEGIN (implicit)
[2022-08-02T20:35:17:1659452717 IST+0530] INFO [sqlalchemy.engine.Engine._execute_context:1772] select relname from pg_class c join pg_namespace n on n.oid=c.relnamespace where pg_catalog.pg_table_is_visible(c.oid) and relname=%s
[2022-08-02T20:35:17:1659452717 IST+0530] INFO [sqlalchemy.engine.Engine._execute_context:1777] [generated in 0.00054s] ('tbl_users',)
[2022-08-02T20:35:17:1659452717 IST+0530] INFO [sqlalchemy.engine.Engine._execute_context:1772] select relname from pg_class c join pg_namespace n on n.oid=c.relnamespace where pg_catalog.pg_table_is_visible(c.oid) and relname=%s
[2022-08-02T20:35:17:1659452717 IST+0530] INFO [sqlalchemy.engine.Engine._execute_context:1777] [cached since 0.2584s ago] ('tbl_userlog',)
[2022-08-02T20:35:17:1659452717 IST+0530] INFO [sqlalchemy.engine.Engine._execute_context:1772] select relname from pg_class c join pg_namespace n on n.oid=c.relnamespace where pg_catalog.pg_table_is_visible(c.oid) and relname=%s
[2022-08-02T20:35:17:1659452717 IST+0530] INFO [sqlalchemy.engine.Engine._execute_context:1777] [cached since 0.3147s ago] ('tbl_invalid_tokens',)
[2022-08-02T20:35:17:1659452717 IST+0530] INFO [sqlalchemy.engine.Engine._commit_impl:1013] COMMIT
[2022-08-02T20:35:17:1659452717 IST+0530] INFO [uvicorn.error.startup:61] Application startup complete.
[2022-08-02T20:35:17:1659452717 IST+0530] WARNING [uvicorn.error.run:47] StatReload detected changes in 'src/service/auth_service.py'. Reloading...
[2022-08-02T20:35:17:1659452717 IST+0530] INFO [uvicorn.error.shutdown:253] Shutting down
[2022-08-02T20:35:17:1659452717 IST+0530] INFO [uvicorn.error.shutdown:66] Waiting for application shutdown.
[2022-08-02T20:35:17:1659452717 IST+0530] INFO [uvicorn.error.shutdown:77] Application shutdown complete.
[2022-08-02T20:35:17:1659452717 IST+0530] INFO [uvicorn.error.serve:85] Finished server process [4188]
[2022-08-02T20:35:18:1659452718 IST+0530] INFO [root.__init_application:29] creating API service and Web Site
[2022-08-02T20:35:18:1659452718 IST+0530] INFO [root.__init_routes:19] initializing all routes
[2022-08-02T20:35:18:1659452718 IST+0530] DEBUG [asyncio.__init__:59] Using selector: EpollSelector
[2022-08-02T20:35:18:1659452718 IST+0530] INFO [root.__init_application:29] creating API service and Web Site
[2022-08-02T20:35:18:1659452718 IST+0530] INFO [root.__init_routes:19] initializing all routes
[2022-08-02T20:35:18:1659452718 IST+0530] INFO [uvicorn.error.serve:75] Started server process [4191]
[2022-08-02T20:35:18:1659452718 IST+0530] INFO [uvicorn.error.startup:47] Waiting for application startup.
[2022-08-02T20:35:19:1659452719 IST+0530] INFO [sqlalchemy.engine.Engine._execute_context:1772] select pg_catalog.version()
[2022-08-02T20:35:19:1659452719 IST+0530] INFO [sqlalchemy.engine.Engine._execute_context:1777] [raw sql] ()
[2022-08-02T20:35:19:1659452719 IST+0530] INFO [sqlalchemy.engine.Engine._execute_context:1772] select current_schema()
[2022-08-02T20:35:19:1659452719 IST+0530] INFO [sqlalchemy.engine.Engine._execute_context:1777] [raw sql] ()
[2022-08-02T20:35:19:1659452719 IST+0530] INFO [sqlalchemy.engine.Engine._execute_context:1772] show standard_conforming_strings
[2022-08-02T20:35:19:1659452719 IST+0530] INFO [sqlalchemy.engine.Engine._execute_context:1777] [raw sql] ()
[2022-08-02T20:35:20:1659452720 IST+0530] INFO [sqlalchemy.engine.Engine._begin_impl:953] BEGIN (implicit)
[2022-08-02T20:35:20:1659452720 IST+0530] INFO [sqlalchemy.engine.Engine._execute_context:1772] select relname from pg_class c join pg_namespace n on n.oid=c.relnamespace where pg_catalog.pg_table_is_visible(c.oid) and relname=%s
[2022-08-02T20:35:20:1659452720 IST+0530] INFO [sqlalchemy.engine.Engine._execute_context:1777] [generated in 0.00062s] ('tbl_users',)
[2022-08-02T20:35:20:1659452720 IST+0530] INFO [sqlalchemy.engine.Engine._execute_context:1772] select relname from pg_class c join pg_namespace n on n.oid=c.relnamespace where pg_catalog.pg_table_is_visible(c.oid) and relname=%s
[2022-08-02T20:35:20:1659452720 IST+0530] INFO [sqlalchemy.engine.Engine._execute_context:1777] [cached since 0.183s ago] ('tbl_userlog',)
[2022-08-02T20:35:20:1659452720 IST+0530] INFO [sqlalchemy.engine.Engine._execute_context:1772] select relname from pg_class c join pg_namespace n on n.oid=c.relnamespace where pg_catalog.pg_table_is_visible(c.oid) and relname=%s
[2022-08-02T20:35:20:1659452720 IST+0530] INFO [sqlalchemy.engine.Engine._execute_context:1777] [cached since 0.2376s ago] ('tbl_invalid_tokens',)
[2022-08-02T20:35:20:1659452720 IST+0530] INFO [sqlalchemy.engine.Engine._commit_impl:1013] COMMIT
[2022-08-02T20:35:20:1659452720 IST+0530] INFO [uvicorn.error.startup:61] Application startup complete.
[2022-08-02T20:35:24:1659452724 IST+0530] INFO [sqlalchemy.engine.Engine._begin_impl:953] BEGIN (implicit)
[2022-08-02T20:35:24:1659452724 IST+0530] INFO [sqlalchemy.engine.Engine._execute_context:1772] SELECT tbl_invalid_tokens.token, tbl_invalid_tokens.token_logout_datetime, tbl_invalid_tokens.token_logout_source 
FROM tbl_invalid_tokens 
WHERE tbl_invalid_tokens.token = %s
[2022-08-02T20:35:24:1659452724 IST+0530] INFO [sqlalchemy.engine.Engine._execute_context:1777] [generated in 0.00040s] ('eyJhbGciOiJSUzI1NiIsInR5cCI6IkpXVCJ9.eyJzdWIiOiJkcml2ZXIxIiwiZXhwIjoxNjU5NDU0NDc5LCJpYXQiOjE2NTk0NTI2NzksInNjb3BlcyI6eyJtZSI6IkdldCBpbmZvcm1hdGlvbiBh ... (605 characters truncated) ... Tn0Q8Owav6UZHVDXq6ti5qTbouNbbNJHEPNPffXYeH2eXtAub5UO-ij68T4Q4XyKaerPI1z_C8Gew7HLsH2o5Y_VWpQgM6UjfwH-sDsnoPNSXyFixq_3nQBIkdkebLKTnTITcMW48XEV0_uEInxi4',)
[2022-08-02T20:35:24:1659452724 IST+0530] INFO [sqlalchemy.engine.Engine._execute_context:1772] SELECT tbl_users.login_name, tbl_users.hashed_password, tbl_users.roles, tbl_users.is_active 
FROM tbl_users 
WHERE tbl_users.login_name = %s
[2022-08-02T20:35:24:1659452724 IST+0530] INFO [sqlalchemy.engine.Engine._execute_context:1777] [generated in 0.00045s] ('driver1',)
[2022-08-02T20:35:25:1659452725 IST+0530] INFO [sqlalchemy.engine.Engine._rollback_impl:981] ROLLBACK
[2022-08-02T20:36:06:1659452766 IST+0530] INFO [sqlalchemy.engine.Engine._begin_impl:953] BEGIN (implicit)
[2022-08-02T20:36:06:1659452766 IST+0530] INFO [sqlalchemy.engine.Engine._execute_context:1772] SELECT tbl_invalid_tokens.token, tbl_invalid_tokens.token_logout_datetime, tbl_invalid_tokens.token_logout_source 
FROM tbl_invalid_tokens 
WHERE tbl_invalid_tokens.token = %s
[2022-08-02T20:36:06:1659452766 IST+0530] INFO [sqlalchemy.engine.Engine._execute_context:1777] [cached since 42.1s ago] ('eyJhbGciOiJSUzI1NiIsInR5cCI6IkpXVCJ9.eyJzdWIiOiJkcml2ZXIxIiwiZXhwIjoxNjU5NDU0NDc5LCJpYXQiOjE2NTk0NTI2NzksInNjb3BlcyI6eyJtZSI6IkdldCBpbmZvcm1hdGlvbiBh ... (605 characters truncated) ... Tn0Q8Owav6UZHVDXq6ti5qTbouNbbNJHEPNPffXYeH2eXtAub5UO-ij68T4Q4XyKaerPI1z_C8Gew7HLsH2o5Y_VWpQgM6UjfwH-sDsnoPNSXyFixq_3nQBIkdkebLKTnTITcMW48XEV0_uEInxi4',)
[2022-08-02T20:36:06:1659452766 IST+0530] INFO [sqlalchemy.engine.Engine._execute_context:1772] SELECT tbl_users.login_name, tbl_users.hashed_password, tbl_users.roles, tbl_users.is_active 
FROM tbl_users 
WHERE tbl_users.login_name = %s
[2022-08-02T20:36:06:1659452766 IST+0530] INFO [sqlalchemy.engine.Engine._execute_context:1777] [cached since 42.01s ago] ('driver1',)
[2022-08-02T20:36:06:1659452766 IST+0530] ERROR [root.put_invalid_token:34] EXCEPTION: token.py->put_invalid_token(): 'logout_datetime' is an invalid keyword argument for InvalidTokensTable
Traceback (most recent call last):
  File "/home/p_116749/projects/python/americana/idp/src/repository/token.py", line 21, in put_invalid_token
    new_invalid_token = InvalidTokensTable(
  File "<string>", line 4, in __init__
  File "/home/p_116749/projects/python/americana/idp/.venv/lib/python3.9/site-packages/sqlalchemy/orm/state.py", line 482, in _initialize_instance
    manager.dispatch.init_failure(self, args, kwargs)
  File "/home/p_116749/projects/python/americana/idp/.venv/lib/python3.9/site-packages/sqlalchemy/util/langhelpers.py", line 70, in __exit__
    compat.raise_(
  File "/home/p_116749/projects/python/americana/idp/.venv/lib/python3.9/site-packages/sqlalchemy/util/compat.py", line 208, in raise_
    raise exception
  File "/home/p_116749/projects/python/americana/idp/.venv/lib/python3.9/site-packages/sqlalchemy/orm/state.py", line 479, in _initialize_instance
    return manager.original_init(*mixed[1:], **kwargs)
  File "/home/p_116749/projects/python/americana/idp/.venv/lib/python3.9/site-packages/sqlalchemy/orm/decl_base.py", line 1163, in _declarative_constructor
    raise TypeError(
TypeError: 'logout_datetime' is an invalid keyword argument for InvalidTokensTable
[2022-08-02T20:36:07:1659452767 IST+0530] INFO [sqlalchemy.engine.Engine._rollback_impl:981] ROLLBACK
[2022-08-02T20:37:11:1659452831 IST+0530] INFO [uvicorn.error.shutdown:253] Shutting down
[2022-08-02T20:37:11:1659452831 IST+0530] INFO [uvicorn.error.shutdown:66] Waiting for application shutdown.
[2022-08-02T20:37:11:1659452831 IST+0530] INFO [uvicorn.error.shutdown:77] Application shutdown complete.
[2022-08-02T20:37:11:1659452831 IST+0530] INFO [uvicorn.error.serve:85] Finished server process [4191]
[2022-08-02T20:37:11:1659452831 IST+0530] INFO [uvicorn.error.shutdown:103] Stopping reloader process [4180]
[2022-08-02T20:37:24:1659452844 IST+0530] INFO [root.__init_application:29] creating API service and Web Site
[2022-08-02T20:37:24:1659452844 IST+0530] INFO [root.__init_routes:19] initializing all routes
[2022-08-02T20:37:26:1659452846 IST+0530] INFO [uvicorn.error.serve:75] Started server process [4209]
[2022-08-02T20:37:26:1659452846 IST+0530] INFO [uvicorn.error.startup:47] Waiting for application startup.
[2022-08-02T20:37:27:1659452847 IST+0530] INFO [sqlalchemy.engine.Engine._execute_context:1772] select pg_catalog.version()
[2022-08-02T20:37:27:1659452847 IST+0530] INFO [sqlalchemy.engine.Engine._execute_context:1777] [raw sql] ()
[2022-08-02T20:37:27:1659452847 IST+0530] INFO [sqlalchemy.engine.Engine._execute_context:1772] select current_schema()
[2022-08-02T20:37:27:1659452847 IST+0530] INFO [sqlalchemy.engine.Engine._execute_context:1777] [raw sql] ()
[2022-08-02T20:37:28:1659452848 IST+0530] INFO [sqlalchemy.engine.Engine._execute_context:1772] show standard_conforming_strings
[2022-08-02T20:37:28:1659452848 IST+0530] INFO [sqlalchemy.engine.Engine._execute_context:1777] [raw sql] ()
[2022-08-02T20:37:28:1659452848 IST+0530] INFO [sqlalchemy.engine.Engine._begin_impl:953] BEGIN (implicit)
[2022-08-02T20:37:28:1659452848 IST+0530] INFO [sqlalchemy.engine.Engine._execute_context:1772] select relname from pg_class c join pg_namespace n on n.oid=c.relnamespace where pg_catalog.pg_table_is_visible(c.oid) and relname=%s
[2022-08-02T20:37:28:1659452848 IST+0530] INFO [sqlalchemy.engine.Engine._execute_context:1777] [generated in 0.00058s] ('tbl_users',)
[2022-08-02T20:37:28:1659452848 IST+0530] INFO [sqlalchemy.engine.Engine._execute_context:1772] select relname from pg_class c join pg_namespace n on n.oid=c.relnamespace where pg_catalog.pg_table_is_visible(c.oid) and relname=%s
[2022-08-02T20:37:28:1659452848 IST+0530] INFO [sqlalchemy.engine.Engine._execute_context:1777] [cached since 0.3337s ago] ('tbl_userlog',)
[2022-08-02T20:37:28:1659452848 IST+0530] INFO [sqlalchemy.engine.Engine._execute_context:1772] select relname from pg_class c join pg_namespace n on n.oid=c.relnamespace where pg_catalog.pg_table_is_visible(c.oid) and relname=%s
[2022-08-02T20:37:28:1659452848 IST+0530] INFO [sqlalchemy.engine.Engine._execute_context:1777] [cached since 0.5336s ago] ('tbl_invalid_tokens',)
[2022-08-02T20:37:28:1659452848 IST+0530] INFO [sqlalchemy.engine.Engine._commit_impl:1013] COMMIT
[2022-08-02T20:37:29:1659452849 IST+0530] INFO [uvicorn.error.startup:61] Application startup complete.
[2022-08-02T20:37:29:1659452849 IST+0530] INFO [uvicorn.error._log_started_message:207] Uvicorn running on http://127.0.0.1:9091 (Press CTRL+C to quit)
[2022-08-02T20:37:52:1659452872 IST+0530] INFO [sqlalchemy.engine.Engine._begin_impl:953] BEGIN (implicit)
[2022-08-02T20:37:52:1659452872 IST+0530] INFO [sqlalchemy.engine.Engine._execute_context:1772] SELECT tbl_invalid_tokens.token, tbl_invalid_tokens.token_logout_datetime, tbl_invalid_tokens.token_logout_source 
FROM tbl_invalid_tokens 
WHERE tbl_invalid_tokens.token = %s
[2022-08-02T20:37:52:1659452872 IST+0530] INFO [sqlalchemy.engine.Engine._execute_context:1777] [generated in 0.00106s] ('eyJhbGciOiJSUzI1NiIsInR5cCI6IkpXVCJ9.eyJzdWIiOiJkcml2ZXIxIiwiZXhwIjoxNjU5NDU0NDc5LCJpYXQiOjE2NTk0NTI2NzksInNjb3BlcyI6eyJtZSI6IkdldCBpbmZvcm1hdGlvbiBh ... (605 characters truncated) ... Tn0Q8Owav6UZHVDXq6ti5qTbouNbbNJHEPNPffXYeH2eXtAub5UO-ij68T4Q4XyKaerPI1z_C8Gew7HLsH2o5Y_VWpQgM6UjfwH-sDsnoPNSXyFixq_3nQBIkdkebLKTnTITcMW48XEV0_uEInxi4',)
[2022-08-02T20:38:16:1659452896 IST+0530] INFO [sqlalchemy.engine.Engine._execute_context:1772] SELECT tbl_users.login_name, tbl_users.hashed_password, tbl_users.roles, tbl_users.is_active 
FROM tbl_users 
WHERE tbl_users.login_name = %s
[2022-08-02T20:38:16:1659452896 IST+0530] INFO [sqlalchemy.engine.Engine._execute_context:1777] [generated in 0.00127s] ('driver1',)
[2022-08-02T20:40:44:1659453044 IST+0530] ERROR [root.put_invalid_token:34] EXCEPTION: token.py->put_invalid_token(): 'logout_datetime' is an invalid keyword argument for InvalidTokensTable
Traceback (most recent call last):
  File "/home/p_116749/projects/python/americana/idp/./src/repository/token.py", line 21, in put_invalid_token
    new_invalid_token = InvalidTokensTable(
  File "<string>", line 4, in __init__
  File "/home/p_116749/projects/python/americana/idp/.venv/lib/python3.9/site-packages/sqlalchemy/orm/state.py", line 482, in _initialize_instance
    manager.dispatch.init_failure(self, args, kwargs)
  File "/home/p_116749/projects/python/americana/idp/.venv/lib/python3.9/site-packages/sqlalchemy/util/langhelpers.py", line 70, in __exit__
    compat.raise_(
  File "/home/p_116749/projects/python/americana/idp/.venv/lib/python3.9/site-packages/sqlalchemy/util/compat.py", line 208, in raise_
    raise exception
  File "/home/p_116749/projects/python/americana/idp/.venv/lib/python3.9/site-packages/sqlalchemy/orm/state.py", line 479, in _initialize_instance
    return manager.original_init(*mixed[1:], **kwargs)
  File "/home/p_116749/projects/python/americana/idp/.venv/lib/python3.9/site-packages/sqlalchemy/orm/decl_base.py", line 1163, in _declarative_constructor
    raise TypeError(
TypeError: 'logout_datetime' is an invalid keyword argument for InvalidTokensTable
[2022-08-02T20:40:58:1659453058 IST+0530] INFO [sqlalchemy.engine.Engine._rollback_impl:981] ROLLBACK
[2022-08-02T20:41:11:1659453071 IST+0530] INFO [root.__init_application:29] creating API service and Web Site
[2022-08-02T20:41:12:1659453072 IST+0530] INFO [root.__init_routes:19] initializing all routes
[2022-08-02T20:41:13:1659453073 IST+0530] INFO [uvicorn.error.serve:75] Started server process [4486]
[2022-08-02T20:41:13:1659453073 IST+0530] INFO [uvicorn.error.startup:47] Waiting for application startup.
[2022-08-02T20:41:15:1659453075 IST+0530] INFO [sqlalchemy.engine.Engine._execute_context:1772] select pg_catalog.version()
[2022-08-02T20:41:15:1659453075 IST+0530] INFO [sqlalchemy.engine.Engine._execute_context:1777] [raw sql] ()
[2022-08-02T20:41:15:1659453075 IST+0530] INFO [sqlalchemy.engine.Engine._execute_context:1772] select current_schema()
[2022-08-02T20:41:15:1659453075 IST+0530] INFO [sqlalchemy.engine.Engine._execute_context:1777] [raw sql] ()
[2022-08-02T20:41:15:1659453075 IST+0530] INFO [sqlalchemy.engine.Engine._execute_context:1772] show standard_conforming_strings
[2022-08-02T20:41:15:1659453075 IST+0530] INFO [sqlalchemy.engine.Engine._execute_context:1777] [raw sql] ()
[2022-08-02T20:41:15:1659453075 IST+0530] INFO [sqlalchemy.engine.Engine._begin_impl:953] BEGIN (implicit)
[2022-08-02T20:41:15:1659453075 IST+0530] INFO [sqlalchemy.engine.Engine._execute_context:1772] select relname from pg_class c join pg_namespace n on n.oid=c.relnamespace where pg_catalog.pg_table_is_visible(c.oid) and relname=%s
[2022-08-02T20:41:15:1659453075 IST+0530] INFO [sqlalchemy.engine.Engine._execute_context:1777] [generated in 0.00176s] ('tbl_users',)
[2022-08-02T20:41:22:1659453082 IST+0530] INFO [sqlalchemy.engine.Engine._execute_context:1772] select relname from pg_class c join pg_namespace n on n.oid=c.relnamespace where pg_catalog.pg_table_is_visible(c.oid) and relname=%s
[2022-08-02T20:41:22:1659453082 IST+0530] INFO [sqlalchemy.engine.Engine._execute_context:1777] [cached since 7.086s ago] ('tbl_userlog',)
[2022-08-02T20:41:23:1659453083 IST+0530] INFO [sqlalchemy.engine.Engine._execute_context:1772] select relname from pg_class c join pg_namespace n on n.oid=c.relnamespace where pg_catalog.pg_table_is_visible(c.oid) and relname=%s
[2022-08-02T20:41:23:1659453083 IST+0530] INFO [sqlalchemy.engine.Engine._execute_context:1777] [cached since 7.29s ago] ('tbl_invalid_tokens',)
[2022-08-02T20:41:23:1659453083 IST+0530] INFO [sqlalchemy.engine.Engine._commit_impl:1013] COMMIT
[2022-08-02T20:41:23:1659453083 IST+0530] INFO [uvicorn.error.startup:61] Application startup complete.
[2022-08-02T20:41:23:1659453083 IST+0530] INFO [uvicorn.error._log_started_message:207] Uvicorn running on http://127.0.0.1:9091 (Press CTRL+C to quit)
[2022-08-02T20:41:37:1659453097 IST+0530] INFO [sqlalchemy.engine.Engine._begin_impl:953] BEGIN (implicit)
[2022-08-02T20:41:37:1659453097 IST+0530] INFO [sqlalchemy.engine.Engine._execute_context:1772] SELECT tbl_invalid_tokens.token, tbl_invalid_tokens.token_logout_datetime, tbl_invalid_tokens.token_logout_source 
FROM tbl_invalid_tokens 
WHERE tbl_invalid_tokens.token = %s
[2022-08-02T20:41:37:1659453097 IST+0530] INFO [sqlalchemy.engine.Engine._execute_context:1777] [generated in 0.00085s] ('eyJhbGciOiJSUzI1NiIsInR5cCI6IkpXVCJ9.eyJzdWIiOiJkcml2ZXIxIiwiZXhwIjoxNjU5NDU0NDc5LCJpYXQiOjE2NTk0NTI2NzksInNjb3BlcyI6eyJtZSI6IkdldCBpbmZvcm1hdGlvbiBh ... (605 characters truncated) ... Tn0Q8Owav6UZHVDXq6ti5qTbouNbbNJHEPNPffXYeH2eXtAub5UO-ij68T4Q4XyKaerPI1z_C8Gew7HLsH2o5Y_VWpQgM6UjfwH-sDsnoPNSXyFixq_3nQBIkdkebLKTnTITcMW48XEV0_uEInxi4',)
[2022-08-02T20:41:50:1659453110 IST+0530] INFO [sqlalchemy.engine.Engine._execute_context:1772] SELECT tbl_users.login_name, tbl_users.hashed_password, tbl_users.roles, tbl_users.is_active 
FROM tbl_users 
WHERE tbl_users.login_name = %s
[2022-08-02T20:41:50:1659453110 IST+0530] INFO [sqlalchemy.engine.Engine._execute_context:1777] [generated in 0.00079s] ('driver1',)
[2022-08-02T20:42:09:1659453129 IST+0530] INFO [sqlalchemy.engine.Engine._execute_context:1772] INSERT INTO tbl_invalid_tokens (token, token_logout_datetime, token_logout_source) VALUES (%s, %s, %s)
[2022-08-02T20:42:09:1659453129 IST+0530] INFO [sqlalchemy.engine.Engine._execute_context:1777] [generated in 0.00064s] ('eyJhbGciOiJSUzI1NiIsInR5cCI6IkpXVCJ9.eyJzdWIiOiJkcml2ZXIxIiwiZXhwIjoxNjU5NDU0NDc5LCJpYXQiOjE2NTk0NTI2NzksInNjb3BlcyI6eyJtZSI6IkdldCBpbmZvcm1hdGlvbiBh ... (605 characters truncated) ... Tn0Q8Owav6UZHVDXq6ti5qTbouNbbNJHEPNPffXYeH2eXtAub5UO-ij68T4Q4XyKaerPI1z_C8Gew7HLsH2o5Y_VWpQgM6UjfwH-sDsnoPNSXyFixq_3nQBIkdkebLKTnTITcMW48XEV0_uEInxi4', datetime.datetime(2022, 8, 2, 20, 42, 0, 373123), '127.0.0.1')
[2022-08-02T20:42:13:1659453133 IST+0530] INFO [sqlalchemy.engine.Engine._commit_impl:1013] COMMIT
[2022-08-02T20:42:55:1659453175 IST+0530] INFO [sqlalchemy.engine.Engine._begin_impl:953] BEGIN (implicit)
[2022-08-02T20:42:55:1659453175 IST+0530] INFO [sqlalchemy.engine.Engine._execute_context:1772] SELECT tbl_invalid_tokens.token, tbl_invalid_tokens.token_logout_datetime, tbl_invalid_tokens.token_logout_source 
FROM tbl_invalid_tokens 
WHERE tbl_invalid_tokens.token = %s
[2022-08-02T20:42:55:1659453175 IST+0530] INFO [sqlalchemy.engine.Engine._execute_context:1777] [cached since 77.35s ago] ('eyJhbGciOiJSUzI1NiIsInR5cCI6IkpXVCJ9.eyJzdWIiOiJkcml2ZXIxIiwiZXhwIjoxNjU5NDU0NDc5LCJpYXQiOjE2NTk0NTI2NzksInNjb3BlcyI6eyJtZSI6IkdldCBpbmZvcm1hdGlvbiBh ... (605 characters truncated) ... Tn0Q8Owav6UZHVDXq6ti5qTbouNbbNJHEPNPffXYeH2eXtAub5UO-ij68T4Q4XyKaerPI1z_C8Gew7HLsH2o5Y_VWpQgM6UjfwH-sDsnoPNSXyFixq_3nQBIkdkebLKTnTITcMW48XEV0_uEInxi4',)
[2022-08-02T20:43:04:1659453184 IST+0530] INFO [sqlalchemy.engine.Engine._rollback_impl:981] ROLLBACK
[2022-08-03T06:36:26:1659488786 IST+0530] INFO [uvicorn.error.shutdown:253] Shutting down
[2022-08-03T06:36:26:1659488786 IST+0530] INFO [uvicorn.error.shutdown:66] Waiting for application shutdown.
[2022-08-03T06:36:26:1659488786 IST+0530] INFO [uvicorn.error.shutdown:77] Application shutdown complete.
[2022-08-03T06:36:26:1659488786 IST+0530] INFO [uvicorn.error.serve:85] Finished server process [4486]
[2022-08-03T06:49:19:1659489559 IST+0530] INFO [root.__init_application:29] creating API service and Web Site
[2022-08-03T06:49:19:1659489559 IST+0530] INFO [root.__init_routes:19] initializing all routes
[2022-08-03T06:49:19:1659489559 IST+0530] INFO [uvicorn.error.__init__:359] Will watch for changes in these directories: ['/home/p_116749/projects/python/americana/idp']
[2022-08-03T06:49:19:1659489559 IST+0530] INFO [uvicorn.error.bind_socket:585] Uvicorn running on http://0.0.0.0:9091 (Press CTRL+C to quit)
[2022-08-03T06:49:19:1659489559 IST+0530] INFO [uvicorn.error.startup:72] Started reloader process [4861] using StatReload
[2022-08-03T06:49:19:1659489559 IST+0530] INFO [root.__init_application:29] creating API service and Web Site
[2022-08-03T06:49:19:1659489559 IST+0530] INFO [root.__init_routes:19] initializing all routes
[2022-08-03T06:49:19:1659489559 IST+0530] DEBUG [asyncio.__init__:59] Using selector: EpollSelector
[2022-08-03T06:49:19:1659489559 IST+0530] INFO [root.__init_application:29] creating API service and Web Site
[2022-08-03T06:49:19:1659489559 IST+0530] INFO [root.__init_routes:19] initializing all routes
[2022-08-03T06:49:19:1659489559 IST+0530] INFO [uvicorn.error.serve:75] Started server process [4863]
[2022-08-03T06:49:19:1659489559 IST+0530] INFO [uvicorn.error.startup:47] Waiting for application startup.
[2022-08-03T06:49:21:1659489561 IST+0530] INFO [sqlalchemy.engine.Engine._execute_context:1772] select pg_catalog.version()
[2022-08-03T06:49:21:1659489561 IST+0530] INFO [sqlalchemy.engine.Engine._execute_context:1777] [raw sql] ()
[2022-08-03T06:49:21:1659489561 IST+0530] INFO [sqlalchemy.engine.Engine._execute_context:1772] select current_schema()
[2022-08-03T06:49:21:1659489561 IST+0530] INFO [sqlalchemy.engine.Engine._execute_context:1777] [raw sql] ()
[2022-08-03T06:49:21:1659489561 IST+0530] INFO [sqlalchemy.engine.Engine._execute_context:1772] show standard_conforming_strings
[2022-08-03T06:49:21:1659489561 IST+0530] INFO [sqlalchemy.engine.Engine._execute_context:1777] [raw sql] ()
[2022-08-03T06:49:21:1659489561 IST+0530] INFO [sqlalchemy.engine.Engine._begin_impl:953] BEGIN (implicit)
[2022-08-03T06:49:21:1659489561 IST+0530] INFO [sqlalchemy.engine.Engine._execute_context:1772] select relname from pg_class c join pg_namespace n on n.oid=c.relnamespace where pg_catalog.pg_table_is_visible(c.oid) and relname=%s
[2022-08-03T06:49:21:1659489561 IST+0530] INFO [sqlalchemy.engine.Engine._execute_context:1777] [generated in 0.00077s] ('tbl_users',)
[2022-08-03T06:49:21:1659489561 IST+0530] INFO [sqlalchemy.engine.Engine._execute_context:1772] select relname from pg_class c join pg_namespace n on n.oid=c.relnamespace where pg_catalog.pg_table_is_visible(c.oid) and relname=%s
[2022-08-03T06:49:21:1659489561 IST+0530] INFO [sqlalchemy.engine.Engine._execute_context:1777] [cached since 0.2806s ago] ('tbl_userlog',)
[2022-08-03T06:49:22:1659489562 IST+0530] INFO [sqlalchemy.engine.Engine._execute_context:1772] select relname from pg_class c join pg_namespace n on n.oid=c.relnamespace where pg_catalog.pg_table_is_visible(c.oid) and relname=%s
[2022-08-03T06:49:22:1659489562 IST+0530] INFO [sqlalchemy.engine.Engine._execute_context:1777] [cached since 0.3344s ago] ('tbl_invalid_tokens',)
[2022-08-03T06:49:22:1659489562 IST+0530] INFO [sqlalchemy.engine.Engine._commit_impl:1013] COMMIT
[2022-08-03T06:49:22:1659489562 IST+0530] INFO [uvicorn.error.startup:61] Application startup complete.
[2022-08-03T06:53:16:1659489796 IST+0530] WARNING [uvicorn.error.run:47] StatReload detected changes in 'src/model/models.py'. Reloading...
[2022-08-03T06:53:16:1659489796 IST+0530] INFO [uvicorn.error.shutdown:253] Shutting down
[2022-08-03T06:53:16:1659489796 IST+0530] INFO [uvicorn.error.shutdown:66] Waiting for application shutdown.
[2022-08-03T06:53:16:1659489796 IST+0530] INFO [uvicorn.error.shutdown:77] Application shutdown complete.
[2022-08-03T06:53:16:1659489796 IST+0530] INFO [uvicorn.error.serve:85] Finished server process [4863]
[2022-08-03T06:53:17:1659489797 IST+0530] INFO [root.__init_application:29] creating API service and Web Site
[2022-08-03T06:53:17:1659489797 IST+0530] INFO [root.__init_routes:19] initializing all routes
[2022-08-03T06:53:17:1659489797 IST+0530] DEBUG [asyncio.__init__:59] Using selector: EpollSelector
[2022-08-03T06:53:17:1659489797 IST+0530] INFO [root.__init_application:29] creating API service and Web Site
[2022-08-03T06:53:17:1659489797 IST+0530] INFO [root.__init_routes:19] initializing all routes
[2022-08-03T06:53:17:1659489797 IST+0530] INFO [uvicorn.error.serve:75] Started server process [4880]
[2022-08-03T06:53:17:1659489797 IST+0530] INFO [uvicorn.error.startup:47] Waiting for application startup.
[2022-08-03T06:53:18:1659489798 IST+0530] INFO [sqlalchemy.engine.Engine._execute_context:1772] select pg_catalog.version()
[2022-08-03T06:53:18:1659489798 IST+0530] INFO [sqlalchemy.engine.Engine._execute_context:1777] [raw sql] ()
[2022-08-03T06:53:18:1659489798 IST+0530] INFO [sqlalchemy.engine.Engine._execute_context:1772] select current_schema()
[2022-08-03T06:53:18:1659489798 IST+0530] INFO [sqlalchemy.engine.Engine._execute_context:1777] [raw sql] ()
[2022-08-03T06:53:18:1659489798 IST+0530] INFO [sqlalchemy.engine.Engine._execute_context:1772] show standard_conforming_strings
[2022-08-03T06:53:18:1659489798 IST+0530] INFO [sqlalchemy.engine.Engine._execute_context:1777] [raw sql] ()
[2022-08-03T06:53:18:1659489798 IST+0530] INFO [sqlalchemy.engine.Engine._begin_impl:953] BEGIN (implicit)
[2022-08-03T06:53:18:1659489798 IST+0530] INFO [sqlalchemy.engine.Engine._execute_context:1772] select relname from pg_class c join pg_namespace n on n.oid=c.relnamespace where pg_catalog.pg_table_is_visible(c.oid) and relname=%s
[2022-08-03T06:53:18:1659489798 IST+0530] INFO [sqlalchemy.engine.Engine._execute_context:1777] [generated in 0.00040s] ('tbl_users',)
[2022-08-03T06:53:19:1659489799 IST+0530] INFO [sqlalchemy.engine.Engine._execute_context:1772] select relname from pg_class c join pg_namespace n on n.oid=c.relnamespace where pg_catalog.pg_table_is_visible(c.oid) and relname=%s
[2022-08-03T06:53:19:1659489799 IST+0530] INFO [sqlalchemy.engine.Engine._execute_context:1777] [cached since 0.2793s ago] ('tbl_userlog',)
[2022-08-03T06:53:19:1659489799 IST+0530] INFO [sqlalchemy.engine.Engine._execute_context:1772] select relname from pg_class c join pg_namespace n on n.oid=c.relnamespace where pg_catalog.pg_table_is_visible(c.oid) and relname=%s
[2022-08-03T06:53:19:1659489799 IST+0530] INFO [sqlalchemy.engine.Engine._execute_context:1777] [cached since 0.3361s ago] ('tbl_invalid_tokens',)
[2022-08-03T06:53:19:1659489799 IST+0530] INFO [sqlalchemy.engine.Engine._commit_impl:1013] COMMIT
[2022-08-03T06:53:19:1659489799 IST+0530] INFO [uvicorn.error.startup:61] Application startup complete.
[2022-08-03T06:54:43:1659489883 IST+0530] WARNING [uvicorn.error.run:47] StatReload detected changes in 'src/controller/version1/auth_controller.py'. Reloading...
[2022-08-03T06:54:43:1659489883 IST+0530] INFO [uvicorn.error.shutdown:253] Shutting down
[2022-08-03T06:54:43:1659489883 IST+0530] INFO [uvicorn.error.shutdown:66] Waiting for application shutdown.
[2022-08-03T06:54:43:1659489883 IST+0530] INFO [uvicorn.error.shutdown:77] Application shutdown complete.
[2022-08-03T06:54:43:1659489883 IST+0530] INFO [uvicorn.error.serve:85] Finished server process [4880]
[2022-08-03T06:54:44:1659489884 IST+0530] INFO [root.__init_application:29] creating API service and Web Site
[2022-08-03T06:54:44:1659489884 IST+0530] INFO [root.__init_routes:19] initializing all routes
[2022-08-03T06:54:44:1659489884 IST+0530] DEBUG [asyncio.__init__:59] Using selector: EpollSelector
[2022-08-03T06:54:44:1659489884 IST+0530] INFO [root.__init_application:29] creating API service and Web Site
[2022-08-03T06:54:44:1659489884 IST+0530] INFO [root.__init_routes:19] initializing all routes
[2022-08-03T06:54:44:1659489884 IST+0530] INFO [uvicorn.error.serve:75] Started server process [4885]
[2022-08-03T06:54:44:1659489884 IST+0530] INFO [uvicorn.error.startup:47] Waiting for application startup.
[2022-08-03T06:54:45:1659489885 IST+0530] INFO [sqlalchemy.engine.Engine._execute_context:1772] select pg_catalog.version()
[2022-08-03T06:54:45:1659489885 IST+0530] INFO [sqlalchemy.engine.Engine._execute_context:1777] [raw sql] ()
[2022-08-03T06:54:45:1659489885 IST+0530] INFO [sqlalchemy.engine.Engine._execute_context:1772] select current_schema()
[2022-08-03T06:54:45:1659489885 IST+0530] INFO [sqlalchemy.engine.Engine._execute_context:1777] [raw sql] ()
[2022-08-03T06:54:46:1659489886 IST+0530] INFO [sqlalchemy.engine.Engine._execute_context:1772] show standard_conforming_strings
[2022-08-03T06:54:46:1659489886 IST+0530] INFO [sqlalchemy.engine.Engine._execute_context:1777] [raw sql] ()
[2022-08-03T06:54:46:1659489886 IST+0530] INFO [sqlalchemy.engine.Engine._begin_impl:953] BEGIN (implicit)
[2022-08-03T06:54:46:1659489886 IST+0530] INFO [sqlalchemy.engine.Engine._execute_context:1772] select relname from pg_class c join pg_namespace n on n.oid=c.relnamespace where pg_catalog.pg_table_is_visible(c.oid) and relname=%s
[2022-08-03T06:54:46:1659489886 IST+0530] INFO [sqlalchemy.engine.Engine._execute_context:1777] [generated in 0.00059s] ('tbl_users',)
[2022-08-03T06:54:46:1659489886 IST+0530] INFO [sqlalchemy.engine.Engine._execute_context:1772] select relname from pg_class c join pg_namespace n on n.oid=c.relnamespace where pg_catalog.pg_table_is_visible(c.oid) and relname=%s
[2022-08-03T06:54:46:1659489886 IST+0530] INFO [sqlalchemy.engine.Engine._execute_context:1777] [cached since 0.2778s ago] ('tbl_userlog',)
[2022-08-03T06:54:46:1659489886 IST+0530] INFO [sqlalchemy.engine.Engine._execute_context:1772] select relname from pg_class c join pg_namespace n on n.oid=c.relnamespace where pg_catalog.pg_table_is_visible(c.oid) and relname=%s
[2022-08-03T06:54:46:1659489886 IST+0530] INFO [sqlalchemy.engine.Engine._execute_context:1777] [cached since 0.3314s ago] ('tbl_invalid_tokens',)
[2022-08-03T06:54:46:1659489886 IST+0530] INFO [sqlalchemy.engine.Engine._commit_impl:1013] COMMIT
[2022-08-03T06:54:46:1659489886 IST+0530] INFO [uvicorn.error.startup:61] Application startup complete.
[2022-08-03T06:57:06:1659490026 IST+0530] WARNING [uvicorn.error.run:47] StatReload detected changes in 'src/controller/version1/auth_controller.py'. Reloading...
[2022-08-03T06:57:06:1659490026 IST+0530] INFO [uvicorn.error.shutdown:253] Shutting down
[2022-08-03T06:57:06:1659490026 IST+0530] INFO [uvicorn.error.shutdown:66] Waiting for application shutdown.
[2022-08-03T06:57:06:1659490026 IST+0530] INFO [uvicorn.error.shutdown:77] Application shutdown complete.
[2022-08-03T06:57:06:1659490026 IST+0530] INFO [uvicorn.error.serve:85] Finished server process [4885]
[2022-08-03T06:57:07:1659490027 IST+0530] INFO [root.__init_application:29] creating API service and Web Site
[2022-08-03T06:57:07:1659490027 IST+0530] INFO [root.__init_routes:19] initializing all routes
[2022-08-03T06:57:07:1659490027 IST+0530] DEBUG [asyncio.__init__:59] Using selector: EpollSelector
[2022-08-03T06:57:07:1659490027 IST+0530] INFO [root.__init_application:29] creating API service and Web Site
[2022-08-03T06:57:07:1659490027 IST+0530] INFO [root.__init_routes:19] initializing all routes
[2022-08-03T06:57:07:1659490027 IST+0530] INFO [uvicorn.error.serve:75] Started server process [4888]
[2022-08-03T06:57:07:1659490027 IST+0530] INFO [uvicorn.error.startup:47] Waiting for application startup.
[2022-08-03T06:57:08:1659490028 IST+0530] INFO [sqlalchemy.engine.Engine._execute_context:1772] select pg_catalog.version()
[2022-08-03T06:57:08:1659490028 IST+0530] INFO [sqlalchemy.engine.Engine._execute_context:1777] [raw sql] ()
[2022-08-03T06:57:08:1659490028 IST+0530] INFO [sqlalchemy.engine.Engine._execute_context:1772] select current_schema()
[2022-08-03T06:57:08:1659490028 IST+0530] INFO [sqlalchemy.engine.Engine._execute_context:1777] [raw sql] ()
[2022-08-03T06:57:08:1659490028 IST+0530] INFO [sqlalchemy.engine.Engine._execute_context:1772] show standard_conforming_strings
[2022-08-03T06:57:08:1659490028 IST+0530] INFO [sqlalchemy.engine.Engine._execute_context:1777] [raw sql] ()
[2022-08-03T06:57:09:1659490029 IST+0530] INFO [sqlalchemy.engine.Engine._begin_impl:953] BEGIN (implicit)
[2022-08-03T06:57:09:1659490029 IST+0530] INFO [sqlalchemy.engine.Engine._execute_context:1772] select relname from pg_class c join pg_namespace n on n.oid=c.relnamespace where pg_catalog.pg_table_is_visible(c.oid) and relname=%s
[2022-08-03T06:57:09:1659490029 IST+0530] INFO [sqlalchemy.engine.Engine._execute_context:1777] [generated in 0.00115s] ('tbl_users',)
[2022-08-03T06:57:09:1659490029 IST+0530] INFO [sqlalchemy.engine.Engine._execute_context:1772] select relname from pg_class c join pg_namespace n on n.oid=c.relnamespace where pg_catalog.pg_table_is_visible(c.oid) and relname=%s
[2022-08-03T06:57:09:1659490029 IST+0530] INFO [sqlalchemy.engine.Engine._execute_context:1777] [cached since 0.2711s ago] ('tbl_userlog',)
[2022-08-03T06:57:09:1659490029 IST+0530] INFO [sqlalchemy.engine.Engine._execute_context:1772] select relname from pg_class c join pg_namespace n on n.oid=c.relnamespace where pg_catalog.pg_table_is_visible(c.oid) and relname=%s
[2022-08-03T06:57:09:1659490029 IST+0530] INFO [sqlalchemy.engine.Engine._execute_context:1777] [cached since 0.3283s ago] ('tbl_invalid_tokens',)
[2022-08-03T06:57:09:1659490029 IST+0530] INFO [sqlalchemy.engine.Engine._commit_impl:1013] COMMIT
[2022-08-03T06:57:09:1659490029 IST+0530] INFO [uvicorn.error.startup:61] Application startup complete.
[2022-08-03T07:05:42:1659490542 IST+0530] WARNING [uvicorn.error.run:47] StatReload detected changes in 'main.py'. Reloading...
[2022-08-03T07:05:42:1659490542 IST+0530] INFO [uvicorn.error.shutdown:253] Shutting down
[2022-08-03T07:05:42:1659490542 IST+0530] INFO [uvicorn.error.shutdown:66] Waiting for application shutdown.
[2022-08-03T07:05:42:1659490542 IST+0530] INFO [uvicorn.error.shutdown:77] Application shutdown complete.
[2022-08-03T07:05:42:1659490542 IST+0530] INFO [uvicorn.error.serve:85] Finished server process [4888]
[2022-08-03T07:05:43:1659490543 IST+0530] INFO [root.__init_application:29] creating API service and Web Site
[2022-08-03T07:05:43:1659490543 IST+0530] INFO [root.__init_routes:19] initializing all routes
[2022-08-03T07:05:43:1659490543 IST+0530] DEBUG [asyncio.__init__:59] Using selector: EpollSelector
[2022-08-03T07:05:43:1659490543 IST+0530] INFO [root.__init_application:29] creating API service and Web Site
[2022-08-03T07:05:43:1659490543 IST+0530] INFO [root.__init_routes:19] initializing all routes
[2022-08-03T07:05:43:1659490543 IST+0530] INFO [uvicorn.error.serve:75] Started server process [4893]
[2022-08-03T07:05:43:1659490543 IST+0530] INFO [uvicorn.error.startup:47] Waiting for application startup.
[2022-08-03T07:05:44:1659490544 IST+0530] INFO [sqlalchemy.engine.Engine._execute_context:1772] select pg_catalog.version()
[2022-08-03T07:05:44:1659490544 IST+0530] INFO [sqlalchemy.engine.Engine._execute_context:1777] [raw sql] ()
[2022-08-03T07:05:44:1659490544 IST+0530] INFO [sqlalchemy.engine.Engine._execute_context:1772] select current_schema()
[2022-08-03T07:05:44:1659490544 IST+0530] INFO [sqlalchemy.engine.Engine._execute_context:1777] [raw sql] ()
[2022-08-03T07:05:45:1659490545 IST+0530] INFO [sqlalchemy.engine.Engine._execute_context:1772] show standard_conforming_strings
[2022-08-03T07:05:45:1659490545 IST+0530] INFO [sqlalchemy.engine.Engine._execute_context:1777] [raw sql] ()
[2022-08-03T07:05:45:1659490545 IST+0530] INFO [sqlalchemy.engine.Engine._begin_impl:953] BEGIN (implicit)
[2022-08-03T07:05:45:1659490545 IST+0530] INFO [sqlalchemy.engine.Engine._execute_context:1772] select relname from pg_class c join pg_namespace n on n.oid=c.relnamespace where pg_catalog.pg_table_is_visible(c.oid) and relname=%s
[2022-08-03T07:05:45:1659490545 IST+0530] INFO [sqlalchemy.engine.Engine._execute_context:1777] [generated in 0.00028s] ('tbl_users',)
[2022-08-03T07:05:45:1659490545 IST+0530] INFO [sqlalchemy.engine.Engine._execute_context:1772] select relname from pg_class c join pg_namespace n on n.oid=c.relnamespace where pg_catalog.pg_table_is_visible(c.oid) and relname=%s
[2022-08-03T07:05:45:1659490545 IST+0530] INFO [sqlalchemy.engine.Engine._execute_context:1777] [cached since 0.2151s ago] ('tbl_userlog',)
[2022-08-03T07:05:45:1659490545 IST+0530] INFO [sqlalchemy.engine.Engine._execute_context:1772] select relname from pg_class c join pg_namespace n on n.oid=c.relnamespace where pg_catalog.pg_table_is_visible(c.oid) and relname=%s
[2022-08-03T07:05:45:1659490545 IST+0530] INFO [sqlalchemy.engine.Engine._execute_context:1777] [cached since 0.2716s ago] ('tbl_invalid_tokens',)
[2022-08-03T07:05:45:1659490545 IST+0530] INFO [sqlalchemy.engine.Engine._commit_impl:1013] COMMIT
[2022-08-03T07:05:45:1659490545 IST+0530] INFO [uvicorn.error.startup:61] Application startup complete.
[2022-08-03T07:05:45:1659490545 IST+0530] WARNING [uvicorn.error.run:47] StatReload detected changes in 'main.py'. Reloading...
[2022-08-03T07:05:45:1659490545 IST+0530] INFO [uvicorn.error.shutdown:253] Shutting down
[2022-08-03T07:05:46:1659490546 IST+0530] INFO [uvicorn.error.shutdown:66] Waiting for application shutdown.
[2022-08-03T07:05:46:1659490546 IST+0530] INFO [uvicorn.error.shutdown:77] Application shutdown complete.
[2022-08-03T07:05:46:1659490546 IST+0530] INFO [uvicorn.error.serve:85] Finished server process [4893]
[2022-08-03T07:05:46:1659490546 IST+0530] INFO [root.__init_application:29] creating API service and Web Site
[2022-08-03T07:05:46:1659490546 IST+0530] INFO [root.__init_routes:19] initializing all routes
[2022-08-03T07:05:46:1659490546 IST+0530] DEBUG [asyncio.__init__:59] Using selector: EpollSelector
[2022-08-03T07:05:46:1659490546 IST+0530] INFO [root.__init_application:29] creating API service and Web Site
[2022-08-03T07:05:46:1659490546 IST+0530] INFO [root.__init_routes:19] initializing all routes
[2022-08-03T07:05:46:1659490546 IST+0530] INFO [uvicorn.error.serve:75] Started server process [4896]
[2022-08-03T07:05:46:1659490546 IST+0530] INFO [uvicorn.error.startup:47] Waiting for application startup.
[2022-08-03T07:05:47:1659490547 IST+0530] INFO [sqlalchemy.engine.Engine._execute_context:1772] select pg_catalog.version()
[2022-08-03T07:05:47:1659490547 IST+0530] INFO [sqlalchemy.engine.Engine._execute_context:1777] [raw sql] ()
[2022-08-03T07:05:47:1659490547 IST+0530] INFO [sqlalchemy.engine.Engine._execute_context:1772] select current_schema()
[2022-08-03T07:05:47:1659490547 IST+0530] INFO [sqlalchemy.engine.Engine._execute_context:1777] [raw sql] ()
[2022-08-03T07:05:48:1659490548 IST+0530] INFO [sqlalchemy.engine.Engine._execute_context:1772] show standard_conforming_strings
[2022-08-03T07:05:48:1659490548 IST+0530] INFO [sqlalchemy.engine.Engine._execute_context:1777] [raw sql] ()
[2022-08-03T07:05:48:1659490548 IST+0530] INFO [sqlalchemy.engine.Engine._begin_impl:953] BEGIN (implicit)
[2022-08-03T07:05:48:1659490548 IST+0530] INFO [sqlalchemy.engine.Engine._execute_context:1772] select relname from pg_class c join pg_namespace n on n.oid=c.relnamespace where pg_catalog.pg_table_is_visible(c.oid) and relname=%s
[2022-08-03T07:05:48:1659490548 IST+0530] INFO [sqlalchemy.engine.Engine._execute_context:1777] [generated in 0.00071s] ('tbl_users',)
[2022-08-03T07:05:48:1659490548 IST+0530] INFO [sqlalchemy.engine.Engine._execute_context:1772] select relname from pg_class c join pg_namespace n on n.oid=c.relnamespace where pg_catalog.pg_table_is_visible(c.oid) and relname=%s
[2022-08-03T07:05:48:1659490548 IST+0530] INFO [sqlalchemy.engine.Engine._execute_context:1777] [cached since 0.2133s ago] ('tbl_userlog',)
[2022-08-03T07:05:48:1659490548 IST+0530] INFO [sqlalchemy.engine.Engine._execute_context:1772] select relname from pg_class c join pg_namespace n on n.oid=c.relnamespace where pg_catalog.pg_table_is_visible(c.oid) and relname=%s
[2022-08-03T07:05:48:1659490548 IST+0530] INFO [sqlalchemy.engine.Engine._execute_context:1777] [cached since 0.2696s ago] ('tbl_invalid_tokens',)
[2022-08-03T07:05:48:1659490548 IST+0530] INFO [sqlalchemy.engine.Engine._commit_impl:1013] COMMIT
[2022-08-03T07:05:48:1659490548 IST+0530] INFO [uvicorn.error.startup:61] Application startup complete.
[2022-08-03T07:11:58:1659490918 IST+0530] WARNING [uvicorn.error.run:47] StatReload detected changes in 'main.py'. Reloading...
[2022-08-03T07:11:58:1659490918 IST+0530] INFO [uvicorn.error.shutdown:253] Shutting down
[2022-08-03T07:11:59:1659490919 IST+0530] INFO [uvicorn.error.shutdown:66] Waiting for application shutdown.
[2022-08-03T07:11:59:1659490919 IST+0530] INFO [uvicorn.error.shutdown:77] Application shutdown complete.
[2022-08-03T07:11:59:1659490919 IST+0530] INFO [uvicorn.error.serve:85] Finished server process [4896]
[2022-08-03T07:11:59:1659490919 IST+0530] INFO [root.__init_application:35] creating API service and Web Site
[2022-08-03T07:11:59:1659490919 IST+0530] INFO [root.__init_routes:25] initializing all routes
[2022-08-03T07:11:59:1659490919 IST+0530] DEBUG [asyncio.__init__:59] Using selector: EpollSelector
[2022-08-03T07:11:59:1659490919 IST+0530] INFO [root.__init_application:35] creating API service and Web Site
[2022-08-03T07:11:59:1659490919 IST+0530] INFO [root.__init_routes:25] initializing all routes
[2022-08-03T07:11:59:1659490919 IST+0530] INFO [uvicorn.error.serve:75] Started server process [4963]
[2022-08-03T07:11:59:1659490919 IST+0530] INFO [uvicorn.error.startup:47] Waiting for application startup.
[2022-08-03T07:12:00:1659490920 IST+0530] INFO [sqlalchemy.engine.Engine._execute_context:1772] select pg_catalog.version()
[2022-08-03T07:12:00:1659490920 IST+0530] INFO [sqlalchemy.engine.Engine._execute_context:1777] [raw sql] ()
[2022-08-03T07:12:01:1659490921 IST+0530] INFO [sqlalchemy.engine.Engine._execute_context:1772] select current_schema()
[2022-08-03T07:12:01:1659490921 IST+0530] INFO [sqlalchemy.engine.Engine._execute_context:1777] [raw sql] ()
[2022-08-03T07:12:01:1659490921 IST+0530] INFO [sqlalchemy.engine.Engine._execute_context:1772] show standard_conforming_strings
[2022-08-03T07:12:01:1659490921 IST+0530] INFO [sqlalchemy.engine.Engine._execute_context:1777] [raw sql] ()
[2022-08-03T07:12:01:1659490921 IST+0530] INFO [sqlalchemy.engine.Engine._begin_impl:953] BEGIN (implicit)
[2022-08-03T07:12:01:1659490921 IST+0530] INFO [sqlalchemy.engine.Engine._execute_context:1772] select relname from pg_class c join pg_namespace n on n.oid=c.relnamespace where pg_catalog.pg_table_is_visible(c.oid) and relname=%s
[2022-08-03T07:12:01:1659490921 IST+0530] INFO [sqlalchemy.engine.Engine._execute_context:1777] [generated in 0.00076s] ('tbl_users',)
[2022-08-03T07:12:01:1659490921 IST+0530] INFO [sqlalchemy.engine.Engine._execute_context:1772] select relname from pg_class c join pg_namespace n on n.oid=c.relnamespace where pg_catalog.pg_table_is_visible(c.oid) and relname=%s
[2022-08-03T07:12:01:1659490921 IST+0530] INFO [sqlalchemy.engine.Engine._execute_context:1777] [cached since 0.2841s ago] ('tbl_userlog',)
[2022-08-03T07:12:01:1659490921 IST+0530] INFO [sqlalchemy.engine.Engine._execute_context:1772] select relname from pg_class c join pg_namespace n on n.oid=c.relnamespace where pg_catalog.pg_table_is_visible(c.oid) and relname=%s
[2022-08-03T07:12:01:1659490921 IST+0530] INFO [sqlalchemy.engine.Engine._execute_context:1777] [cached since 0.3408s ago] ('tbl_invalid_tokens',)
[2022-08-03T07:12:01:1659490921 IST+0530] INFO [sqlalchemy.engine.Engine._commit_impl:1013] COMMIT
[2022-08-03T07:12:02:1659490922 IST+0530] INFO [uvicorn.error.startup:61] Application startup complete.
[2022-08-03T07:12:03:1659490923 IST+0530] WARNING [uvicorn.error.run:47] StatReload detected changes in 'main.py'. Reloading...
[2022-08-03T07:12:03:1659490923 IST+0530] INFO [uvicorn.error.shutdown:253] Shutting down
[2022-08-03T07:12:03:1659490923 IST+0530] INFO [uvicorn.error.shutdown:66] Waiting for application shutdown.
[2022-08-03T07:12:03:1659490923 IST+0530] INFO [uvicorn.error.shutdown:77] Application shutdown complete.
[2022-08-03T07:12:03:1659490923 IST+0530] INFO [uvicorn.error.serve:85] Finished server process [4963]
[2022-08-03T07:12:03:1659490923 IST+0530] INFO [root.__init_application:36] creating API service and Web Site
[2022-08-03T07:12:03:1659490923 IST+0530] INFO [root.__init_routes:26] initializing all routes
[2022-08-03T07:12:03:1659490923 IST+0530] DEBUG [asyncio.__init__:59] Using selector: EpollSelector
[2022-08-03T07:12:03:1659490923 IST+0530] INFO [root.__init_application:36] creating API service and Web Site
[2022-08-03T07:12:03:1659490923 IST+0530] INFO [root.__init_routes:26] initializing all routes
[2022-08-03T07:12:03:1659490923 IST+0530] INFO [uvicorn.error.serve:75] Started server process [4966]
[2022-08-03T07:12:03:1659490923 IST+0530] INFO [uvicorn.error.startup:47] Waiting for application startup.
[2022-08-03T07:12:04:1659490924 IST+0530] WARNING [uvicorn.error.run:47] StatReload detected changes in 'main.py'. Reloading...
[2022-08-03T07:12:05:1659490925 IST+0530] INFO [sqlalchemy.engine.Engine._execute_context:1772] select pg_catalog.version()
[2022-08-03T07:12:05:1659490925 IST+0530] INFO [sqlalchemy.engine.Engine._execute_context:1777] [raw sql] ()
[2022-08-03T07:12:05:1659490925 IST+0530] INFO [sqlalchemy.engine.Engine._execute_context:1772] select current_schema()
[2022-08-03T07:12:05:1659490925 IST+0530] INFO [sqlalchemy.engine.Engine._execute_context:1777] [raw sql] ()
[2022-08-03T07:12:05:1659490925 IST+0530] INFO [sqlalchemy.engine.Engine._execute_context:1772] show standard_conforming_strings
[2022-08-03T07:12:05:1659490925 IST+0530] INFO [sqlalchemy.engine.Engine._execute_context:1777] [raw sql] ()
[2022-08-03T07:12:05:1659490925 IST+0530] INFO [sqlalchemy.engine.Engine._begin_impl:953] BEGIN (implicit)
[2022-08-03T07:12:05:1659490925 IST+0530] INFO [sqlalchemy.engine.Engine._execute_context:1772] select relname from pg_class c join pg_namespace n on n.oid=c.relnamespace where pg_catalog.pg_table_is_visible(c.oid) and relname=%s
[2022-08-03T07:12:05:1659490925 IST+0530] INFO [sqlalchemy.engine.Engine._execute_context:1777] [generated in 0.00106s] ('tbl_users',)
[2022-08-03T07:12:06:1659490926 IST+0530] INFO [sqlalchemy.engine.Engine._execute_context:1772] select relname from pg_class c join pg_namespace n on n.oid=c.relnamespace where pg_catalog.pg_table_is_visible(c.oid) and relname=%s
[2022-08-03T07:12:06:1659490926 IST+0530] INFO [sqlalchemy.engine.Engine._execute_context:1777] [cached since 0.2382s ago] ('tbl_userlog',)
[2022-08-03T07:12:06:1659490926 IST+0530] INFO [sqlalchemy.engine.Engine._execute_context:1772] select relname from pg_class c join pg_namespace n on n.oid=c.relnamespace where pg_catalog.pg_table_is_visible(c.oid) and relname=%s
[2022-08-03T07:12:06:1659490926 IST+0530] INFO [sqlalchemy.engine.Engine._execute_context:1777] [cached since 0.3028s ago] ('tbl_invalid_tokens',)
[2022-08-03T07:12:06:1659490926 IST+0530] INFO [sqlalchemy.engine.Engine._commit_impl:1013] COMMIT
[2022-08-03T07:12:06:1659490926 IST+0530] INFO [uvicorn.error.startup:61] Application startup complete.
[2022-08-03T07:12:06:1659490926 IST+0530] ERROR [uvicorn.error.send:134] Traceback (most recent call last):
  File "/home/p_116749/projects/python/americana/idp/.venv/lib/python3.9/site-packages/starlette/routing.py", line 638, in lifespan
    await receive()
  File "/home/p_116749/projects/python/americana/idp/.venv/lib/python3.9/site-packages/uvicorn/lifespan/on.py", line 137, in receive
    return await self.receive_queue.get()
  File "/usr/lib/python3.9/asyncio/queues.py", line 166, in get
    await getter
asyncio.exceptions.CancelledError

[2022-08-03T07:12:06:1659490926 IST+0530] INFO [root.__init_application:35] creating API service and Web Site
[2022-08-03T07:12:06:1659490926 IST+0530] INFO [root.__init_routes:25] initializing all routes
[2022-08-03T07:12:06:1659490926 IST+0530] DEBUG [asyncio.__init__:59] Using selector: EpollSelector
[2022-08-03T07:12:06:1659490926 IST+0530] INFO [root.__init_application:35] creating API service and Web Site
[2022-08-03T07:12:06:1659490926 IST+0530] INFO [root.__init_routes:25] initializing all routes
[2022-08-03T07:12:06:1659490926 IST+0530] INFO [uvicorn.error.serve:75] Started server process [4969]
[2022-08-03T07:12:06:1659490926 IST+0530] INFO [uvicorn.error.startup:47] Waiting for application startup.
[2022-08-03T07:12:08:1659490928 IST+0530] INFO [sqlalchemy.engine.Engine._execute_context:1772] select pg_catalog.version()
[2022-08-03T07:12:08:1659490928 IST+0530] INFO [sqlalchemy.engine.Engine._execute_context:1777] [raw sql] ()
[2022-08-03T07:12:08:1659490928 IST+0530] INFO [sqlalchemy.engine.Engine._execute_context:1772] select current_schema()
[2022-08-03T07:12:08:1659490928 IST+0530] INFO [sqlalchemy.engine.Engine._execute_context:1777] [raw sql] ()
[2022-08-03T07:12:08:1659490928 IST+0530] INFO [sqlalchemy.engine.Engine._execute_context:1772] show standard_conforming_strings
[2022-08-03T07:12:08:1659490928 IST+0530] INFO [sqlalchemy.engine.Engine._execute_context:1777] [raw sql] ()
[2022-08-03T07:12:08:1659490928 IST+0530] INFO [sqlalchemy.engine.Engine._begin_impl:953] BEGIN (implicit)
[2022-08-03T07:12:08:1659490928 IST+0530] INFO [sqlalchemy.engine.Engine._execute_context:1772] select relname from pg_class c join pg_namespace n on n.oid=c.relnamespace where pg_catalog.pg_table_is_visible(c.oid) and relname=%s
[2022-08-03T07:12:08:1659490928 IST+0530] INFO [sqlalchemy.engine.Engine._execute_context:1777] [generated in 0.00068s] ('tbl_users',)
[2022-08-03T07:12:08:1659490928 IST+0530] INFO [sqlalchemy.engine.Engine._execute_context:1772] select relname from pg_class c join pg_namespace n on n.oid=c.relnamespace where pg_catalog.pg_table_is_visible(c.oid) and relname=%s
[2022-08-03T07:12:08:1659490928 IST+0530] INFO [sqlalchemy.engine.Engine._execute_context:1777] [cached since 0.2155s ago] ('tbl_userlog',)
[2022-08-03T07:12:08:1659490928 IST+0530] INFO [sqlalchemy.engine.Engine._execute_context:1772] select relname from pg_class c join pg_namespace n on n.oid=c.relnamespace where pg_catalog.pg_table_is_visible(c.oid) and relname=%s
[2022-08-03T07:12:08:1659490928 IST+0530] INFO [sqlalchemy.engine.Engine._execute_context:1777] [cached since 0.2736s ago] ('tbl_invalid_tokens',)
[2022-08-03T07:12:08:1659490928 IST+0530] INFO [sqlalchemy.engine.Engine._commit_impl:1013] COMMIT
[2022-08-03T07:12:09:1659490929 IST+0530] INFO [uvicorn.error.startup:61] Application startup complete.
[2022-08-03T07:12:10:1659490930 IST+0530] WARNING [uvicorn.error.run:47] StatReload detected changes in 'main.py'. Reloading...
[2022-08-03T07:12:10:1659490930 IST+0530] INFO [uvicorn.error.shutdown:253] Shutting down
[2022-08-03T07:12:10:1659490930 IST+0530] INFO [uvicorn.error.shutdown:66] Waiting for application shutdown.
[2022-08-03T07:12:10:1659490930 IST+0530] INFO [uvicorn.error.shutdown:77] Application shutdown complete.
[2022-08-03T07:12:10:1659490930 IST+0530] INFO [uvicorn.error.serve:85] Finished server process [4969]
[2022-08-03T07:12:10:1659490930 IST+0530] INFO [root.__init_application:34] creating API service and Web Site
[2022-08-03T07:12:10:1659490930 IST+0530] INFO [root.__init_routes:24] initializing all routes
[2022-08-03T07:12:10:1659490930 IST+0530] DEBUG [asyncio.__init__:59] Using selector: EpollSelector
[2022-08-03T07:12:10:1659490930 IST+0530] INFO [root.__init_application:34] creating API service and Web Site
[2022-08-03T07:12:10:1659490930 IST+0530] INFO [root.__init_routes:24] initializing all routes
[2022-08-03T07:12:10:1659490930 IST+0530] INFO [uvicorn.error.serve:75] Started server process [4972]
[2022-08-03T07:12:10:1659490930 IST+0530] INFO [uvicorn.error.startup:47] Waiting for application startup.
[2022-08-03T07:12:11:1659490931 IST+0530] INFO [sqlalchemy.engine.Engine._execute_context:1772] select pg_catalog.version()
[2022-08-03T07:12:11:1659490931 IST+0530] INFO [sqlalchemy.engine.Engine._execute_context:1777] [raw sql] ()
[2022-08-03T07:12:12:1659490932 IST+0530] INFO [sqlalchemy.engine.Engine._execute_context:1772] select current_schema()
[2022-08-03T07:12:12:1659490932 IST+0530] INFO [sqlalchemy.engine.Engine._execute_context:1777] [raw sql] ()
[2022-08-03T07:12:12:1659490932 IST+0530] INFO [sqlalchemy.engine.Engine._execute_context:1772] show standard_conforming_strings
[2022-08-03T07:12:12:1659490932 IST+0530] INFO [sqlalchemy.engine.Engine._execute_context:1777] [raw sql] ()
[2022-08-03T07:12:12:1659490932 IST+0530] INFO [sqlalchemy.engine.Engine._begin_impl:953] BEGIN (implicit)
[2022-08-03T07:12:12:1659490932 IST+0530] INFO [sqlalchemy.engine.Engine._execute_context:1772] select relname from pg_class c join pg_namespace n on n.oid=c.relnamespace where pg_catalog.pg_table_is_visible(c.oid) and relname=%s
[2022-08-03T07:12:12:1659490932 IST+0530] INFO [sqlalchemy.engine.Engine._execute_context:1777] [generated in 0.00039s] ('tbl_users',)
[2022-08-03T07:12:12:1659490932 IST+0530] INFO [sqlalchemy.engine.Engine._execute_context:1772] select relname from pg_class c join pg_namespace n on n.oid=c.relnamespace where pg_catalog.pg_table_is_visible(c.oid) and relname=%s
[2022-08-03T07:12:12:1659490932 IST+0530] INFO [sqlalchemy.engine.Engine._execute_context:1777] [cached since 0.2309s ago] ('tbl_userlog',)
[2022-08-03T07:12:12:1659490932 IST+0530] INFO [sqlalchemy.engine.Engine._execute_context:1772] select relname from pg_class c join pg_namespace n on n.oid=c.relnamespace where pg_catalog.pg_table_is_visible(c.oid) and relname=%s
[2022-08-03T07:12:12:1659490932 IST+0530] INFO [sqlalchemy.engine.Engine._execute_context:1777] [cached since 0.2914s ago] ('tbl_invalid_tokens',)
[2022-08-03T07:12:13:1659490933 IST+0530] WARNING [uvicorn.error.run:47] StatReload detected changes in 'main.py'. Reloading...
[2022-08-03T07:12:13:1659490933 IST+0530] INFO [sqlalchemy.engine.Engine._commit_impl:1013] COMMIT
[2022-08-03T07:12:13:1659490933 IST+0530] INFO [uvicorn.error.startup:61] Application startup complete.
[2022-08-03T07:12:13:1659490933 IST+0530] ERROR [uvicorn.error.send:134] Traceback (most recent call last):
  File "/home/p_116749/projects/python/americana/idp/.venv/lib/python3.9/site-packages/starlette/routing.py", line 638, in lifespan
    await receive()
  File "/home/p_116749/projects/python/americana/idp/.venv/lib/python3.9/site-packages/uvicorn/lifespan/on.py", line 137, in receive
    return await self.receive_queue.get()
  File "/usr/lib/python3.9/asyncio/queues.py", line 166, in get
    await getter
asyncio.exceptions.CancelledError

[2022-08-03T07:12:13:1659490933 IST+0530] INFO [root.__init_application:35] creating API service and Web Site
[2022-08-03T07:12:13:1659490933 IST+0530] INFO [root.__init_routes:25] initializing all routes
[2022-08-03T07:12:13:1659490933 IST+0530] DEBUG [asyncio.__init__:59] Using selector: EpollSelector
[2022-08-03T07:12:13:1659490933 IST+0530] INFO [root.__init_application:35] creating API service and Web Site
[2022-08-03T07:12:13:1659490933 IST+0530] INFO [root.__init_routes:25] initializing all routes
[2022-08-03T07:12:13:1659490933 IST+0530] INFO [uvicorn.error.serve:75] Started server process [4975]
[2022-08-03T07:12:13:1659490933 IST+0530] INFO [uvicorn.error.startup:47] Waiting for application startup.
[2022-08-03T07:12:14:1659490934 IST+0530] INFO [sqlalchemy.engine.Engine._execute_context:1772] select pg_catalog.version()
[2022-08-03T07:12:14:1659490934 IST+0530] INFO [sqlalchemy.engine.Engine._execute_context:1777] [raw sql] ()
[2022-08-03T07:12:15:1659490935 IST+0530] INFO [sqlalchemy.engine.Engine._execute_context:1772] select current_schema()
[2022-08-03T07:12:15:1659490935 IST+0530] INFO [sqlalchemy.engine.Engine._execute_context:1777] [raw sql] ()
[2022-08-03T07:12:15:1659490935 IST+0530] INFO [sqlalchemy.engine.Engine._execute_context:1772] show standard_conforming_strings
[2022-08-03T07:12:15:1659490935 IST+0530] INFO [sqlalchemy.engine.Engine._execute_context:1777] [raw sql] ()
[2022-08-03T07:12:15:1659490935 IST+0530] INFO [sqlalchemy.engine.Engine._begin_impl:953] BEGIN (implicit)
[2022-08-03T07:12:15:1659490935 IST+0530] INFO [sqlalchemy.engine.Engine._execute_context:1772] select relname from pg_class c join pg_namespace n on n.oid=c.relnamespace where pg_catalog.pg_table_is_visible(c.oid) and relname=%s
[2022-08-03T07:12:15:1659490935 IST+0530] INFO [sqlalchemy.engine.Engine._execute_context:1777] [generated in 0.00069s] ('tbl_users',)
[2022-08-03T07:12:15:1659490935 IST+0530] INFO [sqlalchemy.engine.Engine._execute_context:1772] select relname from pg_class c join pg_namespace n on n.oid=c.relnamespace where pg_catalog.pg_table_is_visible(c.oid) and relname=%s
[2022-08-03T07:12:15:1659490935 IST+0530] INFO [sqlalchemy.engine.Engine._execute_context:1777] [cached since 0.217s ago] ('tbl_userlog',)
[2022-08-03T07:12:15:1659490935 IST+0530] INFO [sqlalchemy.engine.Engine._execute_context:1772] select relname from pg_class c join pg_namespace n on n.oid=c.relnamespace where pg_catalog.pg_table_is_visible(c.oid) and relname=%s
[2022-08-03T07:12:15:1659490935 IST+0530] INFO [sqlalchemy.engine.Engine._execute_context:1777] [cached since 0.2755s ago] ('tbl_invalid_tokens',)
[2022-08-03T07:12:15:1659490935 IST+0530] INFO [sqlalchemy.engine.Engine._commit_impl:1013] COMMIT
[2022-08-03T07:12:15:1659490935 IST+0530] INFO [uvicorn.error.startup:61] Application startup complete.
[2022-08-03T07:12:28:1659490948 IST+0530] WARNING [uvicorn.error.run:47] StatReload detected changes in 'main.py'. Reloading...
[2022-08-03T07:12:28:1659490948 IST+0530] INFO [uvicorn.error.shutdown:253] Shutting down
[2022-08-03T07:12:28:1659490948 IST+0530] INFO [uvicorn.error.shutdown:66] Waiting for application shutdown.
[2022-08-03T07:12:28:1659490948 IST+0530] INFO [uvicorn.error.shutdown:77] Application shutdown complete.
[2022-08-03T07:12:28:1659490948 IST+0530] INFO [uvicorn.error.serve:85] Finished server process [4975]
[2022-08-03T07:12:28:1659490948 IST+0530] INFO [root.__init_application:35] creating API service and Web Site
[2022-08-03T07:13:05:1659490985 IST+0530] WARNING [uvicorn.error.run:47] StatReload detected changes in 'main.py'. Reloading...
[2022-08-03T07:13:05:1659490985 IST+0530] INFO [root.__init_application:35] creating API service and Web Site
[2022-08-03T07:13:12:1659490992 IST+0530] WARNING [uvicorn.error.run:47] StatReload detected changes in 'main.py'. Reloading...
[2022-08-03T07:13:13:1659490993 IST+0530] INFO [root.__init_application:35] creating API service and Web Site
[2022-08-03T07:13:14:1659490994 IST+0530] WARNING [uvicorn.error.run:47] StatReload detected changes in 'main.py'. Reloading...
[2022-08-03T07:13:14:1659490994 IST+0530] INFO [root.__init_application:35] creating API service and Web Site
[2022-08-03T07:13:16:1659490996 IST+0530] WARNING [uvicorn.error.run:47] StatReload detected changes in 'main.py'. Reloading...
[2022-08-03T07:13:17:1659490997 IST+0530] INFO [root.__init_application:35] creating API service and Web Site
[2022-08-03T07:13:21:1659491001 IST+0530] WARNING [uvicorn.error.run:47] StatReload detected changes in 'main.py'. Reloading...
[2022-08-03T07:13:21:1659491001 IST+0530] INFO [root.__init_application:35] creating API service and Web Site
[2022-08-03T07:13:22:1659491002 IST+0530] WARNING [uvicorn.error.run:47] StatReload detected changes in 'main.py'. Reloading...
[2022-08-03T07:13:23:1659491003 IST+0530] INFO [root.__init_application:35] creating API service and Web Site
[2022-08-03T07:13:24:1659491004 IST+0530] WARNING [uvicorn.error.run:47] StatReload detected changes in 'main.py'. Reloading...
[2022-08-03T07:13:25:1659491005 IST+0530] INFO [root.__init_application:35] creating API service and Web Site
[2022-08-03T07:13:27:1659491007 IST+0530] WARNING [uvicorn.error.run:47] StatReload detected changes in 'main.py'. Reloading...
[2022-08-03T07:13:28:1659491008 IST+0530] INFO [root.__init_application:35] creating API service and Web Site
[2022-08-03T07:13:28:1659491008 IST+0530] WARNING [uvicorn.error.run:47] StatReload detected changes in 'main.py'. Reloading...
[2022-08-03T07:13:29:1659491009 IST+0530] INFO [root.__init_application:35] creating API service and Web Site
[2022-08-03T07:13:33:1659491013 IST+0530] WARNING [uvicorn.error.run:47] StatReload detected changes in 'main.py'. Reloading...
[2022-08-03T07:13:34:1659491014 IST+0530] INFO [root.__init_application:35] creating API service and Web Site
[2022-08-03T07:13:59:1659491039 IST+0530] WARNING [uvicorn.error.run:47] StatReload detected changes in 'main.py'. Reloading...
[2022-08-03T07:14:00:1659491040 IST+0530] INFO [root.__init_application:35] creating API service and Web Site
[2022-08-03T07:14:07:1659491047 IST+0530] WARNING [uvicorn.error.run:47] StatReload detected changes in 'main.py'. Reloading...
[2022-08-03T07:14:07:1659491047 IST+0530] INFO [root.__init_application:35] creating API service and Web Site
[2022-08-03T07:14:07:1659491047 IST+0530] INFO [root.__init_routes:25] initializing all routes
[2022-08-03T07:14:07:1659491047 IST+0530] DEBUG [asyncio.__init__:59] Using selector: EpollSelector
[2022-08-03T07:14:07:1659491047 IST+0530] INFO [root.__init_application:35] creating API service and Web Site
[2022-08-03T07:14:07:1659491047 IST+0530] INFO [root.__init_routes:25] initializing all routes
[2022-08-03T07:14:07:1659491047 IST+0530] INFO [uvicorn.error.serve:75] Started server process [4990]
[2022-08-03T07:14:07:1659491047 IST+0530] INFO [uvicorn.error.startup:47] Waiting for application startup.
[2022-08-03T07:14:08:1659491048 IST+0530] INFO [sqlalchemy.engine.Engine._execute_context:1772] select pg_catalog.version()
[2022-08-03T07:14:08:1659491048 IST+0530] INFO [sqlalchemy.engine.Engine._execute_context:1777] [raw sql] ()
[2022-08-03T07:14:09:1659491049 IST+0530] INFO [sqlalchemy.engine.Engine._execute_context:1772] select current_schema()
[2022-08-03T07:14:09:1659491049 IST+0530] INFO [sqlalchemy.engine.Engine._execute_context:1777] [raw sql] ()
[2022-08-03T07:14:09:1659491049 IST+0530] INFO [sqlalchemy.engine.Engine._execute_context:1772] show standard_conforming_strings
[2022-08-03T07:14:09:1659491049 IST+0530] INFO [sqlalchemy.engine.Engine._execute_context:1777] [raw sql] ()
[2022-08-03T07:14:09:1659491049 IST+0530] INFO [sqlalchemy.engine.Engine._begin_impl:953] BEGIN (implicit)
[2022-08-03T07:14:09:1659491049 IST+0530] INFO [sqlalchemy.engine.Engine._execute_context:1772] select relname from pg_class c join pg_namespace n on n.oid=c.relnamespace where pg_catalog.pg_table_is_visible(c.oid) and relname=%s
[2022-08-03T07:14:09:1659491049 IST+0530] INFO [sqlalchemy.engine.Engine._execute_context:1777] [generated in 0.00061s] ('tbl_users',)
[2022-08-03T07:14:09:1659491049 IST+0530] INFO [sqlalchemy.engine.Engine._execute_context:1772] select relname from pg_class c join pg_namespace n on n.oid=c.relnamespace where pg_catalog.pg_table_is_visible(c.oid) and relname=%s
[2022-08-03T07:14:09:1659491049 IST+0530] INFO [sqlalchemy.engine.Engine._execute_context:1777] [cached since 0.2703s ago] ('tbl_userlog',)
[2022-08-03T07:14:09:1659491049 IST+0530] INFO [sqlalchemy.engine.Engine._execute_context:1772] select relname from pg_class c join pg_namespace n on n.oid=c.relnamespace where pg_catalog.pg_table_is_visible(c.oid) and relname=%s
[2022-08-03T07:14:09:1659491049 IST+0530] INFO [sqlalchemy.engine.Engine._execute_context:1777] [cached since 0.3277s ago] ('tbl_invalid_tokens',)
[2022-08-03T07:14:09:1659491049 IST+0530] INFO [sqlalchemy.engine.Engine._commit_impl:1013] COMMIT
[2022-08-03T07:14:09:1659491049 IST+0530] INFO [uvicorn.error.startup:61] Application startup complete.
[2022-08-03T07:15:25:1659491125 IST+0530] WARNING [uvicorn.error.run:47] StatReload detected changes in 'src/controller/version1/auth_controller.py'. Reloading...
[2022-08-03T07:15:25:1659491125 IST+0530] INFO [uvicorn.error.shutdown:253] Shutting down
[2022-08-03T07:15:25:1659491125 IST+0530] INFO [uvicorn.error.shutdown:66] Waiting for application shutdown.
[2022-08-03T07:15:25:1659491125 IST+0530] INFO [uvicorn.error.shutdown:77] Application shutdown complete.
[2022-08-03T07:15:25:1659491125 IST+0530] INFO [uvicorn.error.serve:85] Finished server process [4990]
[2022-08-03T07:15:26:1659491126 IST+0530] INFO [root.__init_application:35] creating API service and Web Site
[2022-08-03T07:15:26:1659491126 IST+0530] INFO [root.__init_routes:25] initializing all routes
[2022-08-03T07:15:26:1659491126 IST+0530] DEBUG [asyncio.__init__:59] Using selector: EpollSelector
[2022-08-03T07:15:26:1659491126 IST+0530] INFO [root.__init_application:35] creating API service and Web Site
[2022-08-03T07:15:26:1659491126 IST+0530] INFO [root.__init_routes:25] initializing all routes
[2022-08-03T07:15:26:1659491126 IST+0530] INFO [uvicorn.error.serve:75] Started server process [4995]
[2022-08-03T07:15:26:1659491126 IST+0530] INFO [uvicorn.error.startup:47] Waiting for application startup.
[2022-08-03T07:15:27:1659491127 IST+0530] INFO [sqlalchemy.engine.Engine._execute_context:1772] select pg_catalog.version()
[2022-08-03T07:15:27:1659491127 IST+0530] INFO [sqlalchemy.engine.Engine._execute_context:1777] [raw sql] ()
[2022-08-03T07:15:27:1659491127 IST+0530] INFO [sqlalchemy.engine.Engine._execute_context:1772] select current_schema()
[2022-08-03T07:15:27:1659491127 IST+0530] INFO [sqlalchemy.engine.Engine._execute_context:1777] [raw sql] ()
[2022-08-03T07:15:27:1659491127 IST+0530] INFO [sqlalchemy.engine.Engine._execute_context:1772] show standard_conforming_strings
[2022-08-03T07:15:27:1659491127 IST+0530] INFO [sqlalchemy.engine.Engine._execute_context:1777] [raw sql] ()
[2022-08-03T07:15:27:1659491127 IST+0530] INFO [sqlalchemy.engine.Engine._begin_impl:953] BEGIN (implicit)
[2022-08-03T07:15:27:1659491127 IST+0530] INFO [sqlalchemy.engine.Engine._execute_context:1772] select relname from pg_class c join pg_namespace n on n.oid=c.relnamespace where pg_catalog.pg_table_is_visible(c.oid) and relname=%s
[2022-08-03T07:15:27:1659491127 IST+0530] INFO [sqlalchemy.engine.Engine._execute_context:1777] [generated in 0.00057s] ('tbl_users',)
[2022-08-03T07:15:28:1659491128 IST+0530] INFO [sqlalchemy.engine.Engine._execute_context:1772] select relname from pg_class c join pg_namespace n on n.oid=c.relnamespace where pg_catalog.pg_table_is_visible(c.oid) and relname=%s
[2022-08-03T07:15:28:1659491128 IST+0530] INFO [sqlalchemy.engine.Engine._execute_context:1777] [cached since 0.2934s ago] ('tbl_userlog',)
[2022-08-03T07:15:28:1659491128 IST+0530] INFO [sqlalchemy.engine.Engine._execute_context:1772] select relname from pg_class c join pg_namespace n on n.oid=c.relnamespace where pg_catalog.pg_table_is_visible(c.oid) and relname=%s
[2022-08-03T07:15:28:1659491128 IST+0530] INFO [sqlalchemy.engine.Engine._execute_context:1777] [cached since 0.3513s ago] ('tbl_invalid_tokens',)
[2022-08-03T07:15:28:1659491128 IST+0530] INFO [sqlalchemy.engine.Engine._commit_impl:1013] COMMIT
[2022-08-03T07:15:28:1659491128 IST+0530] INFO [uvicorn.error.startup:61] Application startup complete.
[2022-08-03T07:15:49:1659491149 IST+0530] ERROR [uvicorn.error.run_asgi:406] Exception in ASGI application
Traceback (most recent call last):
  File "/home/p_116749/projects/python/americana/idp/.venv/lib/python3.9/site-packages/uvicorn/protocols/http/h11_impl.py", line 403, in run_asgi
    result = await app(self.scope, self.receive, self.send)
  File "/home/p_116749/projects/python/americana/idp/.venv/lib/python3.9/site-packages/uvicorn/middleware/proxy_headers.py", line 78, in __call__
    return await self.app(scope, receive, send)
  File "/home/p_116749/projects/python/americana/idp/.venv/lib/python3.9/site-packages/fastapi/applications.py", line 269, in __call__
    await super().__call__(scope, receive, send)
  File "/home/p_116749/projects/python/americana/idp/.venv/lib/python3.9/site-packages/starlette/applications.py", line 124, in __call__
    await self.middleware_stack(scope, receive, send)
  File "/home/p_116749/projects/python/americana/idp/.venv/lib/python3.9/site-packages/starlette/middleware/errors.py", line 184, in __call__
    raise exc
  File "/home/p_116749/projects/python/americana/idp/.venv/lib/python3.9/site-packages/starlette/middleware/errors.py", line 162, in __call__
    await self.app(scope, receive, _send)
  File "/home/p_116749/projects/python/americana/idp/.venv/lib/python3.9/site-packages/starlette/middleware/cors.py", line 84, in __call__
    await self.app(scope, receive, send)
  File "/home/p_116749/projects/python/americana/idp/.venv/lib/python3.9/site-packages/starlette/exceptions.py", line 93, in __call__
    raise exc
  File "/home/p_116749/projects/python/americana/idp/.venv/lib/python3.9/site-packages/starlette/exceptions.py", line 82, in __call__
    await self.app(scope, receive, sender)
  File "/home/p_116749/projects/python/americana/idp/.venv/lib/python3.9/site-packages/fastapi/middleware/asyncexitstack.py", line 21, in __call__
    raise e
  File "/home/p_116749/projects/python/americana/idp/.venv/lib/python3.9/site-packages/fastapi/middleware/asyncexitstack.py", line 18, in __call__
    await self.app(scope, receive, send)
  File "/home/p_116749/projects/python/americana/idp/.venv/lib/python3.9/site-packages/starlette/routing.py", line 670, in __call__
    await route.handle(scope, receive, send)
  File "/home/p_116749/projects/python/americana/idp/.venv/lib/python3.9/site-packages/starlette/routing.py", line 266, in handle
    await self.app(scope, receive, send)
  File "/home/p_116749/projects/python/americana/idp/.venv/lib/python3.9/site-packages/starlette/routing.py", line 65, in app
    response = await func(request)
  File "/home/p_116749/projects/python/americana/idp/.venv/lib/python3.9/site-packages/fastapi/routing.py", line 245, in app
    content = await serialize_response(
  File "/home/p_116749/projects/python/americana/idp/.venv/lib/python3.9/site-packages/fastapi/routing.py", line 138, in serialize_response
    raise ValidationError(errors, field.type_)
pydantic.error_wrappers.ValidationError: 1 validation error for PublicKey
response
  value is not a valid dict (type=type_error.dict)
[2022-08-03T07:16:58:1659491218 IST+0530] INFO [uvicorn.error.shutdown:253] Shutting down
[2022-08-03T07:16:58:1659491218 IST+0530] INFO [uvicorn.error.shutdown:66] Waiting for application shutdown.
[2022-08-03T07:16:58:1659491218 IST+0530] INFO [uvicorn.error.shutdown:77] Application shutdown complete.
[2022-08-03T07:16:58:1659491218 IST+0530] INFO [uvicorn.error.serve:85] Finished server process [4995]
[2022-08-03T07:16:58:1659491218 IST+0530] INFO [uvicorn.error.shutdown:103] Stopping reloader process [4861]
[2022-08-03T07:17:25:1659491245 IST+0530] INFO [root.__init_application:35] creating API service and Web Site
[2022-08-03T07:17:26:1659491246 IST+0530] INFO [root.__init_routes:25] initializing all routes
[2022-08-03T07:18:06:1659491286 IST+0530] INFO [uvicorn.error.serve:75] Started server process [5024]
[2022-08-03T07:18:06:1659491286 IST+0530] INFO [uvicorn.error.startup:47] Waiting for application startup.
[2022-08-03T07:18:09:1659491289 IST+0530] INFO [sqlalchemy.engine.Engine._execute_context:1772] select pg_catalog.version()
[2022-08-03T07:18:09:1659491289 IST+0530] INFO [sqlalchemy.engine.Engine._execute_context:1777] [raw sql] ()
[2022-08-03T07:18:09:1659491289 IST+0530] INFO [sqlalchemy.engine.Engine._execute_context:1772] select current_schema()
[2022-08-03T07:18:09:1659491289 IST+0530] INFO [sqlalchemy.engine.Engine._execute_context:1777] [raw sql] ()
[2022-08-03T07:18:09:1659491289 IST+0530] INFO [sqlalchemy.engine.Engine._execute_context:1772] show standard_conforming_strings
[2022-08-03T07:18:09:1659491289 IST+0530] INFO [sqlalchemy.engine.Engine._execute_context:1777] [raw sql] ()
[2022-08-03T07:18:09:1659491289 IST+0530] INFO [sqlalchemy.engine.Engine._begin_impl:953] BEGIN (implicit)
[2022-08-03T07:18:09:1659491289 IST+0530] INFO [sqlalchemy.engine.Engine._execute_context:1772] select relname from pg_class c join pg_namespace n on n.oid=c.relnamespace where pg_catalog.pg_table_is_visible(c.oid) and relname=%s
[2022-08-03T07:18:09:1659491289 IST+0530] INFO [sqlalchemy.engine.Engine._execute_context:1777] [generated in 0.00190s] ('tbl_users',)
[2022-08-03T07:18:11:1659491291 IST+0530] INFO [sqlalchemy.engine.Engine._execute_context:1772] select relname from pg_class c join pg_namespace n on n.oid=c.relnamespace where pg_catalog.pg_table_is_visible(c.oid) and relname=%s
[2022-08-03T07:18:11:1659491291 IST+0530] INFO [sqlalchemy.engine.Engine._execute_context:1777] [cached since 1.979s ago] ('tbl_userlog',)
[2022-08-03T07:18:12:1659491292 IST+0530] INFO [sqlalchemy.engine.Engine._execute_context:1772] select relname from pg_class c join pg_namespace n on n.oid=c.relnamespace where pg_catalog.pg_table_is_visible(c.oid) and relname=%s
[2022-08-03T07:18:12:1659491292 IST+0530] INFO [sqlalchemy.engine.Engine._execute_context:1777] [cached since 2.2s ago] ('tbl_invalid_tokens',)
[2022-08-03T07:18:12:1659491292 IST+0530] INFO [sqlalchemy.engine.Engine._commit_impl:1013] COMMIT
[2022-08-03T07:18:12:1659491292 IST+0530] INFO [uvicorn.error.startup:61] Application startup complete.
[2022-08-03T07:18:12:1659491292 IST+0530] INFO [uvicorn.error._log_started_message:207] Uvicorn running on http://127.0.0.1:9091 (Press CTRL+C to quit)
[2022-08-03T07:18:44:1659491324 IST+0530] INFO [root.__init_application:35] creating API service and Web Site
[2022-08-03T07:18:44:1659491324 IST+0530] INFO [root.__init_routes:25] initializing all routes
[2022-08-03T07:18:44:1659491324 IST+0530] INFO [uvicorn.error.serve:75] Started server process [5217]
[2022-08-03T07:18:44:1659491324 IST+0530] INFO [uvicorn.error.startup:47] Waiting for application startup.
[2022-08-03T07:18:46:1659491326 IST+0530] INFO [sqlalchemy.engine.Engine._execute_context:1772] select pg_catalog.version()
[2022-08-03T07:18:46:1659491326 IST+0530] INFO [sqlalchemy.engine.Engine._execute_context:1777] [raw sql] ()
[2022-08-03T07:18:46:1659491326 IST+0530] INFO [sqlalchemy.engine.Engine._execute_context:1772] select current_schema()
[2022-08-03T07:18:46:1659491326 IST+0530] INFO [sqlalchemy.engine.Engine._execute_context:1777] [raw sql] ()
[2022-08-03T07:18:46:1659491326 IST+0530] INFO [sqlalchemy.engine.Engine._execute_context:1772] show standard_conforming_strings
[2022-08-03T07:18:46:1659491326 IST+0530] INFO [sqlalchemy.engine.Engine._execute_context:1777] [raw sql] ()
[2022-08-03T07:18:46:1659491326 IST+0530] INFO [sqlalchemy.engine.Engine._begin_impl:953] BEGIN (implicit)
[2022-08-03T07:18:46:1659491326 IST+0530] INFO [sqlalchemy.engine.Engine._execute_context:1772] select relname from pg_class c join pg_namespace n on n.oid=c.relnamespace where pg_catalog.pg_table_is_visible(c.oid) and relname=%s
[2022-08-03T07:18:46:1659491326 IST+0530] INFO [sqlalchemy.engine.Engine._execute_context:1777] [generated in 0.00068s] ('tbl_users',)
[2022-08-03T07:18:46:1659491326 IST+0530] INFO [sqlalchemy.engine.Engine._execute_context:1772] select relname from pg_class c join pg_namespace n on n.oid=c.relnamespace where pg_catalog.pg_table_is_visible(c.oid) and relname=%s
[2022-08-03T07:18:46:1659491326 IST+0530] INFO [sqlalchemy.engine.Engine._execute_context:1777] [cached since 0.2186s ago] ('tbl_userlog',)
[2022-08-03T07:18:46:1659491326 IST+0530] INFO [sqlalchemy.engine.Engine._execute_context:1772] select relname from pg_class c join pg_namespace n on n.oid=c.relnamespace where pg_catalog.pg_table_is_visible(c.oid) and relname=%s
[2022-08-03T07:18:46:1659491326 IST+0530] INFO [sqlalchemy.engine.Engine._execute_context:1777] [cached since 0.2783s ago] ('tbl_invalid_tokens',)
[2022-08-03T07:18:47:1659491327 IST+0530] INFO [sqlalchemy.engine.Engine._commit_impl:1013] COMMIT
[2022-08-03T07:18:47:1659491327 IST+0530] INFO [uvicorn.error.startup:61] Application startup complete.
[2022-08-03T07:18:47:1659491327 IST+0530] INFO [uvicorn.error._log_started_message:207] Uvicorn running on http://127.0.0.1:9091 (Press CTRL+C to quit)
[2022-08-03T07:26:55:1659491815 IST+0530] INFO [uvicorn.error.shutdown:253] Shutting down
[2022-08-03T07:26:55:1659491815 IST+0530] INFO [uvicorn.error.shutdown:66] Waiting for application shutdown.
[2022-08-03T07:26:58:1659491818 IST+0530] INFO [uvicorn.error.shutdown:77] Application shutdown complete.
[2022-08-03T07:26:58:1659491818 IST+0530] INFO [uvicorn.error.serve:85] Finished server process [5217]
[2022-08-03T07:27:04:1659491824 IST+0530] INFO [root.__init_application:35] creating API service and Web Site
[2022-08-03T07:27:04:1659491824 IST+0530] INFO [root.__init_routes:25] initializing all routes
[2022-08-03T07:27:04:1659491824 IST+0530] INFO [uvicorn.error.__init__:359] Will watch for changes in these directories: ['/home/p_116749/projects/python/americana/idp']
[2022-08-03T07:27:04:1659491824 IST+0530] INFO [uvicorn.error.bind_socket:585] Uvicorn running on http://0.0.0.0:9091 (Press CTRL+C to quit)
[2022-08-03T07:27:04:1659491824 IST+0530] INFO [uvicorn.error.startup:72] Started reloader process [5278] using StatReload
[2022-08-03T07:27:04:1659491824 IST+0530] INFO [root.__init_application:35] creating API service and Web Site
[2022-08-03T07:27:04:1659491824 IST+0530] INFO [root.__init_routes:25] initializing all routes
[2022-08-03T07:27:04:1659491824 IST+0530] DEBUG [asyncio.__init__:59] Using selector: EpollSelector
[2022-08-03T07:27:04:1659491824 IST+0530] INFO [root.__init_application:35] creating API service and Web Site
[2022-08-03T07:27:04:1659491824 IST+0530] INFO [root.__init_routes:25] initializing all routes
[2022-08-03T07:27:04:1659491824 IST+0530] INFO [uvicorn.error.serve:75] Started server process [5280]
[2022-08-03T07:27:04:1659491824 IST+0530] INFO [uvicorn.error.startup:47] Waiting for application startup.
[2022-08-03T07:27:05:1659491825 IST+0530] INFO [sqlalchemy.engine.Engine._execute_context:1772] select pg_catalog.version()
[2022-08-03T07:27:05:1659491825 IST+0530] INFO [sqlalchemy.engine.Engine._execute_context:1777] [raw sql] ()
[2022-08-03T07:27:05:1659491825 IST+0530] INFO [sqlalchemy.engine.Engine._execute_context:1772] select current_schema()
[2022-08-03T07:27:05:1659491825 IST+0530] INFO [sqlalchemy.engine.Engine._execute_context:1777] [raw sql] ()
[2022-08-03T07:27:06:1659491826 IST+0530] INFO [sqlalchemy.engine.Engine._execute_context:1772] show standard_conforming_strings
[2022-08-03T07:27:06:1659491826 IST+0530] INFO [sqlalchemy.engine.Engine._execute_context:1777] [raw sql] ()
[2022-08-03T07:27:06:1659491826 IST+0530] INFO [sqlalchemy.engine.Engine._begin_impl:953] BEGIN (implicit)
[2022-08-03T07:27:06:1659491826 IST+0530] INFO [sqlalchemy.engine.Engine._execute_context:1772] select relname from pg_class c join pg_namespace n on n.oid=c.relnamespace where pg_catalog.pg_table_is_visible(c.oid) and relname=%s
[2022-08-03T07:27:06:1659491826 IST+0530] INFO [sqlalchemy.engine.Engine._execute_context:1777] [generated in 0.00025s] ('tbl_users',)
[2022-08-03T07:27:06:1659491826 IST+0530] INFO [sqlalchemy.engine.Engine._execute_context:1772] select relname from pg_class c join pg_namespace n on n.oid=c.relnamespace where pg_catalog.pg_table_is_visible(c.oid) and relname=%s
[2022-08-03T07:27:06:1659491826 IST+0530] INFO [sqlalchemy.engine.Engine._execute_context:1777] [cached since 0.2944s ago] ('tbl_userlog',)
[2022-08-03T07:27:06:1659491826 IST+0530] INFO [sqlalchemy.engine.Engine._execute_context:1772] select relname from pg_class c join pg_namespace n on n.oid=c.relnamespace where pg_catalog.pg_table_is_visible(c.oid) and relname=%s
[2022-08-03T07:27:06:1659491826 IST+0530] INFO [sqlalchemy.engine.Engine._execute_context:1777] [cached since 0.3533s ago] ('tbl_invalid_tokens',)
[2022-08-03T07:27:06:1659491826 IST+0530] INFO [sqlalchemy.engine.Engine._commit_impl:1013] COMMIT
[2022-08-03T07:27:06:1659491826 IST+0530] INFO [uvicorn.error.startup:61] Application startup complete.
[2022-08-03T07:32:00:1659492120 IST+0530] WARNING [uvicorn.error.run:47] StatReload detected changes in 'main.py'. Reloading...
[2022-08-03T07:32:00:1659492120 IST+0530] INFO [uvicorn.error.shutdown:253] Shutting down
[2022-08-03T07:32:00:1659492120 IST+0530] INFO [uvicorn.error.shutdown:66] Waiting for application shutdown.
[2022-08-03T07:32:00:1659492120 IST+0530] INFO [uvicorn.error.shutdown:77] Application shutdown complete.
[2022-08-03T07:32:00:1659492120 IST+0530] INFO [uvicorn.error.serve:85] Finished server process [5280]
[2022-08-03T07:32:01:1659492121 IST+0530] INFO [root.__init_application:35] creating API service and Web Site
[2022-08-03T07:32:01:1659492121 IST+0530] INFO [root.__init_routes:25] initializing all routes
[2022-08-03T07:32:01:1659492121 IST+0530] DEBUG [asyncio.__init__:59] Using selector: EpollSelector
[2022-08-03T07:32:01:1659492121 IST+0530] INFO [root.__init_application:35] creating API service and Web Site
[2022-08-03T07:32:01:1659492121 IST+0530] INFO [root.__init_routes:25] initializing all routes
[2022-08-03T07:32:01:1659492121 IST+0530] INFO [uvicorn.error.serve:75] Started server process [5287]
[2022-08-03T07:32:01:1659492121 IST+0530] INFO [uvicorn.error.startup:47] Waiting for application startup.
[2022-08-03T07:32:02:1659492122 IST+0530] WARNING [uvicorn.error.run:47] StatReload detected changes in 'main.py'. Reloading...
[2022-08-03T07:32:02:1659492122 IST+0530] INFO [sqlalchemy.engine.Engine._execute_context:1772] select pg_catalog.version()
[2022-08-03T07:32:02:1659492122 IST+0530] INFO [sqlalchemy.engine.Engine._execute_context:1777] [raw sql] ()
[2022-08-03T07:32:02:1659492122 IST+0530] INFO [sqlalchemy.engine.Engine._execute_context:1772] select current_schema()
[2022-08-03T07:32:02:1659492122 IST+0530] INFO [sqlalchemy.engine.Engine._execute_context:1777] [raw sql] ()
[2022-08-03T07:32:03:1659492123 IST+0530] INFO [sqlalchemy.engine.Engine._execute_context:1772] show standard_conforming_strings
[2022-08-03T07:32:03:1659492123 IST+0530] INFO [sqlalchemy.engine.Engine._execute_context:1777] [raw sql] ()
[2022-08-03T07:32:03:1659492123 IST+0530] INFO [sqlalchemy.engine.Engine._begin_impl:953] BEGIN (implicit)
[2022-08-03T07:32:03:1659492123 IST+0530] INFO [sqlalchemy.engine.Engine._execute_context:1772] select relname from pg_class c join pg_namespace n on n.oid=c.relnamespace where pg_catalog.pg_table_is_visible(c.oid) and relname=%s
[2022-08-03T07:32:03:1659492123 IST+0530] INFO [sqlalchemy.engine.Engine._execute_context:1777] [generated in 0.00024s] ('tbl_users',)
[2022-08-03T07:32:03:1659492123 IST+0530] INFO [sqlalchemy.engine.Engine._execute_context:1772] select relname from pg_class c join pg_namespace n on n.oid=c.relnamespace where pg_catalog.pg_table_is_visible(c.oid) and relname=%s
[2022-08-03T07:32:03:1659492123 IST+0530] INFO [sqlalchemy.engine.Engine._execute_context:1777] [cached since 0.2861s ago] ('tbl_userlog',)
[2022-08-03T07:32:03:1659492123 IST+0530] INFO [sqlalchemy.engine.Engine._execute_context:1772] select relname from pg_class c join pg_namespace n on n.oid=c.relnamespace where pg_catalog.pg_table_is_visible(c.oid) and relname=%s
[2022-08-03T07:32:03:1659492123 IST+0530] INFO [sqlalchemy.engine.Engine._execute_context:1777] [cached since 0.3424s ago] ('tbl_invalid_tokens',)
[2022-08-03T07:32:03:1659492123 IST+0530] INFO [sqlalchemy.engine.Engine._commit_impl:1013] COMMIT
[2022-08-03T07:32:03:1659492123 IST+0530] INFO [uvicorn.error.startup:61] Application startup complete.
[2022-08-03T07:32:03:1659492123 IST+0530] ERROR [uvicorn.error.send:134] Traceback (most recent call last):
  File "/home/p_116749/projects/python/americana/idp/.venv/lib/python3.9/site-packages/starlette/routing.py", line 638, in lifespan
    await receive()
  File "/home/p_116749/projects/python/americana/idp/.venv/lib/python3.9/site-packages/uvicorn/lifespan/on.py", line 137, in receive
    return await self.receive_queue.get()
  File "/usr/lib/python3.9/asyncio/queues.py", line 166, in get
    await getter
asyncio.exceptions.CancelledError

[2022-08-03T07:32:04:1659492124 IST+0530] INFO [root.__init_application:35] creating API service and Web Site
[2022-08-03T07:32:04:1659492124 IST+0530] INFO [root.__init_routes:25] initializing all routes
[2022-08-03T07:32:04:1659492124 IST+0530] DEBUG [asyncio.__init__:59] Using selector: EpollSelector
[2022-08-03T07:32:04:1659492124 IST+0530] INFO [root.__init_application:35] creating API service and Web Site
[2022-08-03T07:32:04:1659492124 IST+0530] INFO [root.__init_routes:25] initializing all routes
[2022-08-03T07:32:04:1659492124 IST+0530] INFO [uvicorn.error.serve:75] Started server process [5290]
[2022-08-03T07:32:04:1659492124 IST+0530] INFO [uvicorn.error.startup:47] Waiting for application startup.
[2022-08-03T07:32:05:1659492125 IST+0530] INFO [sqlalchemy.engine.Engine._execute_context:1772] select pg_catalog.version()
[2022-08-03T07:32:05:1659492125 IST+0530] INFO [sqlalchemy.engine.Engine._execute_context:1777] [raw sql] ()
[2022-08-03T07:32:05:1659492125 IST+0530] WARNING [uvicorn.error.run:47] StatReload detected changes in 'main.py'. Reloading...
[2022-08-03T07:32:05:1659492125 IST+0530] INFO [sqlalchemy.engine.Engine._execute_context:1772] select current_schema()
[2022-08-03T07:32:05:1659492125 IST+0530] INFO [sqlalchemy.engine.Engine._execute_context:1777] [raw sql] ()
[2022-08-03T07:32:05:1659492125 IST+0530] INFO [sqlalchemy.engine.Engine._execute_context:1772] show standard_conforming_strings
[2022-08-03T07:32:05:1659492125 IST+0530] INFO [sqlalchemy.engine.Engine._execute_context:1777] [raw sql] ()
[2022-08-03T07:32:05:1659492125 IST+0530] INFO [sqlalchemy.engine.Engine._begin_impl:953] BEGIN (implicit)
[2022-08-03T07:32:05:1659492125 IST+0530] INFO [sqlalchemy.engine.Engine._execute_context:1772] select relname from pg_class c join pg_namespace n on n.oid=c.relnamespace where pg_catalog.pg_table_is_visible(c.oid) and relname=%s
[2022-08-03T07:32:05:1659492125 IST+0530] INFO [sqlalchemy.engine.Engine._execute_context:1777] [generated in 0.00119s] ('tbl_users',)
[2022-08-03T07:32:06:1659492126 IST+0530] INFO [sqlalchemy.engine.Engine._execute_context:1772] select relname from pg_class c join pg_namespace n on n.oid=c.relnamespace where pg_catalog.pg_table_is_visible(c.oid) and relname=%s
[2022-08-03T07:32:06:1659492126 IST+0530] INFO [sqlalchemy.engine.Engine._execute_context:1777] [cached since 0.2186s ago] ('tbl_userlog',)
[2022-08-03T07:32:06:1659492126 IST+0530] INFO [sqlalchemy.engine.Engine._execute_context:1772] select relname from pg_class c join pg_namespace n on n.oid=c.relnamespace where pg_catalog.pg_table_is_visible(c.oid) and relname=%s
[2022-08-03T07:32:06:1659492126 IST+0530] INFO [sqlalchemy.engine.Engine._execute_context:1777] [cached since 0.2775s ago] ('tbl_invalid_tokens',)
[2022-08-03T07:32:06:1659492126 IST+0530] INFO [sqlalchemy.engine.Engine._commit_impl:1013] COMMIT
[2022-08-03T07:32:06:1659492126 IST+0530] INFO [uvicorn.error.startup:61] Application startup complete.
[2022-08-03T07:32:06:1659492126 IST+0530] ERROR [uvicorn.error.send:134] Traceback (most recent call last):
  File "/home/p_116749/projects/python/americana/idp/.venv/lib/python3.9/site-packages/starlette/routing.py", line 638, in lifespan
    await receive()
  File "/home/p_116749/projects/python/americana/idp/.venv/lib/python3.9/site-packages/uvicorn/lifespan/on.py", line 137, in receive
    return await self.receive_queue.get()
  File "/usr/lib/python3.9/asyncio/queues.py", line 166, in get
    await getter
asyncio.exceptions.CancelledError

[2022-08-03T07:32:06:1659492126 IST+0530] INFO [root.__init_application:35] creating API service and Web Site
[2022-08-03T07:32:06:1659492126 IST+0530] INFO [root.__init_routes:25] initializing all routes
[2022-08-03T07:32:06:1659492126 IST+0530] DEBUG [asyncio.__init__:59] Using selector: EpollSelector
[2022-08-03T07:32:06:1659492126 IST+0530] INFO [root.__init_application:35] creating API service and Web Site
[2022-08-03T07:32:06:1659492126 IST+0530] INFO [root.__init_routes:25] initializing all routes
[2022-08-03T07:32:06:1659492126 IST+0530] INFO [uvicorn.error.serve:75] Started server process [5293]
[2022-08-03T07:32:06:1659492126 IST+0530] INFO [uvicorn.error.startup:47] Waiting for application startup.
[2022-08-03T07:32:07:1659492127 IST+0530] INFO [sqlalchemy.engine.Engine._execute_context:1772] select pg_catalog.version()
[2022-08-03T07:32:07:1659492127 IST+0530] INFO [sqlalchemy.engine.Engine._execute_context:1777] [raw sql] ()
[2022-08-03T07:32:08:1659492128 IST+0530] INFO [sqlalchemy.engine.Engine._execute_context:1772] select current_schema()
[2022-08-03T07:32:08:1659492128 IST+0530] INFO [sqlalchemy.engine.Engine._execute_context:1777] [raw sql] ()
[2022-08-03T07:32:08:1659492128 IST+0530] INFO [sqlalchemy.engine.Engine._execute_context:1772] show standard_conforming_strings
[2022-08-03T07:32:08:1659492128 IST+0530] INFO [sqlalchemy.engine.Engine._execute_context:1777] [raw sql] ()
[2022-08-03T07:32:08:1659492128 IST+0530] INFO [sqlalchemy.engine.Engine._begin_impl:953] BEGIN (implicit)
[2022-08-03T07:32:08:1659492128 IST+0530] INFO [sqlalchemy.engine.Engine._execute_context:1772] select relname from pg_class c join pg_namespace n on n.oid=c.relnamespace where pg_catalog.pg_table_is_visible(c.oid) and relname=%s
[2022-08-03T07:32:08:1659492128 IST+0530] INFO [sqlalchemy.engine.Engine._execute_context:1777] [generated in 0.00121s] ('tbl_users',)
[2022-08-03T07:32:08:1659492128 IST+0530] INFO [sqlalchemy.engine.Engine._execute_context:1772] select relname from pg_class c join pg_namespace n on n.oid=c.relnamespace where pg_catalog.pg_table_is_visible(c.oid) and relname=%s
[2022-08-03T07:32:08:1659492128 IST+0530] INFO [sqlalchemy.engine.Engine._execute_context:1777] [cached since 0.219s ago] ('tbl_userlog',)
[2022-08-03T07:32:08:1659492128 IST+0530] INFO [sqlalchemy.engine.Engine._execute_context:1772] select relname from pg_class c join pg_namespace n on n.oid=c.relnamespace where pg_catalog.pg_table_is_visible(c.oid) and relname=%s
[2022-08-03T07:32:08:1659492128 IST+0530] INFO [sqlalchemy.engine.Engine._execute_context:1777] [cached since 0.2777s ago] ('tbl_invalid_tokens',)
[2022-08-03T07:32:08:1659492128 IST+0530] INFO [sqlalchemy.engine.Engine._commit_impl:1013] COMMIT
[2022-08-03T07:32:08:1659492128 IST+0530] INFO [uvicorn.error.startup:61] Application startup complete.
[2022-08-03T07:36:56:1659492416 IST+0530] WARNING [uvicorn.error.run:47] StatReload detected changes in 'main.py'. Reloading...
[2022-08-03T07:36:56:1659492416 IST+0530] INFO [uvicorn.error.shutdown:253] Shutting down
[2022-08-03T07:36:57:1659492417 IST+0530] INFO [uvicorn.error.shutdown:66] Waiting for application shutdown.
[2022-08-03T07:36:57:1659492417 IST+0530] INFO [uvicorn.error.shutdown:77] Application shutdown complete.
[2022-08-03T07:36:57:1659492417 IST+0530] INFO [uvicorn.error.serve:85] Finished server process [5293]
[2022-08-03T07:36:57:1659492417 IST+0530] INFO [root.__init_application:35] creating API service and Web Site
[2022-08-03T07:36:57:1659492417 IST+0530] INFO [root.__init_routes:25] initializing all routes
[2022-08-03T07:36:57:1659492417 IST+0530] DEBUG [asyncio.__init__:59] Using selector: EpollSelector
[2022-08-03T07:36:57:1659492417 IST+0530] INFO [root.__init_application:35] creating API service and Web Site
[2022-08-03T07:36:57:1659492417 IST+0530] INFO [root.__init_routes:25] initializing all routes
[2022-08-03T07:36:57:1659492417 IST+0530] INFO [uvicorn.error.serve:75] Started server process [5298]
[2022-08-03T07:36:57:1659492417 IST+0530] INFO [uvicorn.error.startup:47] Waiting for application startup.
[2022-08-03T07:36:58:1659492418 IST+0530] WARNING [uvicorn.error.run:47] StatReload detected changes in 'main.py'. Reloading...
[2022-08-03T07:36:59:1659492419 IST+0530] INFO [sqlalchemy.engine.Engine._execute_context:1772] select pg_catalog.version()
[2022-08-03T07:36:59:1659492419 IST+0530] INFO [sqlalchemy.engine.Engine._execute_context:1777] [raw sql] ()
[2022-08-03T07:36:59:1659492419 IST+0530] INFO [sqlalchemy.engine.Engine._execute_context:1772] select current_schema()
[2022-08-03T07:36:59:1659492419 IST+0530] INFO [sqlalchemy.engine.Engine._execute_context:1777] [raw sql] ()
[2022-08-03T07:36:59:1659492419 IST+0530] INFO [sqlalchemy.engine.Engine._execute_context:1772] show standard_conforming_strings
[2022-08-03T07:36:59:1659492419 IST+0530] INFO [sqlalchemy.engine.Engine._execute_context:1777] [raw sql] ()
[2022-08-03T07:36:59:1659492419 IST+0530] INFO [sqlalchemy.engine.Engine._begin_impl:953] BEGIN (implicit)
[2022-08-03T07:36:59:1659492419 IST+0530] INFO [sqlalchemy.engine.Engine._execute_context:1772] select relname from pg_class c join pg_namespace n on n.oid=c.relnamespace where pg_catalog.pg_table_is_visible(c.oid) and relname=%s
[2022-08-03T07:36:59:1659492419 IST+0530] INFO [sqlalchemy.engine.Engine._execute_context:1777] [generated in 0.00030s] ('tbl_users',)
[2022-08-03T07:37:00:1659492420 IST+0530] INFO [sqlalchemy.engine.Engine._execute_context:1772] select relname from pg_class c join pg_namespace n on n.oid=c.relnamespace where pg_catalog.pg_table_is_visible(c.oid) and relname=%s
[2022-08-03T07:37:00:1659492420 IST+0530] INFO [sqlalchemy.engine.Engine._execute_context:1777] [cached since 0.2742s ago] ('tbl_userlog',)
[2022-08-03T07:37:00:1659492420 IST+0530] INFO [sqlalchemy.engine.Engine._execute_context:1772] select relname from pg_class c join pg_namespace n on n.oid=c.relnamespace where pg_catalog.pg_table_is_visible(c.oid) and relname=%s
[2022-08-03T07:37:00:1659492420 IST+0530] INFO [sqlalchemy.engine.Engine._execute_context:1777] [cached since 0.3291s ago] ('tbl_invalid_tokens',)
[2022-08-03T07:37:00:1659492420 IST+0530] INFO [sqlalchemy.engine.Engine._commit_impl:1013] COMMIT
[2022-08-03T07:37:00:1659492420 IST+0530] INFO [uvicorn.error.startup:61] Application startup complete.
[2022-08-03T07:37:00:1659492420 IST+0530] ERROR [uvicorn.error.send:134] Traceback (most recent call last):
  File "/home/p_116749/projects/python/americana/idp/.venv/lib/python3.9/site-packages/starlette/routing.py", line 638, in lifespan
    await receive()
  File "/home/p_116749/projects/python/americana/idp/.venv/lib/python3.9/site-packages/uvicorn/lifespan/on.py", line 137, in receive
    return await self.receive_queue.get()
  File "/usr/lib/python3.9/asyncio/queues.py", line 166, in get
    await getter
asyncio.exceptions.CancelledError

[2022-08-03T07:37:00:1659492420 IST+0530] INFO [root.__init_application:35] creating API service and Web Site
[2022-08-03T07:37:00:1659492420 IST+0530] INFO [root.__init_routes:25] initializing all routes
[2022-08-03T07:37:00:1659492420 IST+0530] DEBUG [asyncio.__init__:59] Using selector: EpollSelector
[2022-08-03T07:37:00:1659492420 IST+0530] INFO [root.__init_application:35] creating API service and Web Site
[2022-08-03T07:37:00:1659492420 IST+0530] INFO [root.__init_routes:25] initializing all routes
[2022-08-03T07:37:00:1659492420 IST+0530] INFO [uvicorn.error.serve:75] Started server process [5301]
[2022-08-03T07:37:00:1659492420 IST+0530] INFO [uvicorn.error.startup:47] Waiting for application startup.
[2022-08-03T07:37:01:1659492421 IST+0530] WARNING [uvicorn.error.run:47] StatReload detected changes in 'main.py'. Reloading...
[2022-08-03T07:37:01:1659492421 IST+0530] INFO [sqlalchemy.engine.Engine._execute_context:1772] select pg_catalog.version()
[2022-08-03T07:37:01:1659492421 IST+0530] INFO [sqlalchemy.engine.Engine._execute_context:1777] [raw sql] ()
[2022-08-03T07:37:02:1659492422 IST+0530] INFO [sqlalchemy.engine.Engine._execute_context:1772] select current_schema()
[2022-08-03T07:37:02:1659492422 IST+0530] INFO [sqlalchemy.engine.Engine._execute_context:1777] [raw sql] ()
[2022-08-03T07:37:02:1659492422 IST+0530] INFO [sqlalchemy.engine.Engine._execute_context:1772] show standard_conforming_strings
[2022-08-03T07:37:02:1659492422 IST+0530] INFO [sqlalchemy.engine.Engine._execute_context:1777] [raw sql] ()
[2022-08-03T07:37:02:1659492422 IST+0530] INFO [sqlalchemy.engine.Engine._begin_impl:953] BEGIN (implicit)
[2022-08-03T07:37:02:1659492422 IST+0530] INFO [sqlalchemy.engine.Engine._execute_context:1772] select relname from pg_class c join pg_namespace n on n.oid=c.relnamespace where pg_catalog.pg_table_is_visible(c.oid) and relname=%s
[2022-08-03T07:37:02:1659492422 IST+0530] INFO [sqlalchemy.engine.Engine._execute_context:1777] [generated in 0.00035s] ('tbl_users',)
[2022-08-03T07:37:02:1659492422 IST+0530] INFO [sqlalchemy.engine.Engine._execute_context:1772] select relname from pg_class c join pg_namespace n on n.oid=c.relnamespace where pg_catalog.pg_table_is_visible(c.oid) and relname=%s
[2022-08-03T07:37:02:1659492422 IST+0530] INFO [sqlalchemy.engine.Engine._execute_context:1777] [cached since 0.2155s ago] ('tbl_userlog',)
[2022-08-03T07:37:02:1659492422 IST+0530] INFO [sqlalchemy.engine.Engine._execute_context:1772] select relname from pg_class c join pg_namespace n on n.oid=c.relnamespace where pg_catalog.pg_table_is_visible(c.oid) and relname=%s
[2022-08-03T07:37:02:1659492422 IST+0530] INFO [sqlalchemy.engine.Engine._execute_context:1777] [cached since 0.2705s ago] ('tbl_invalid_tokens',)
[2022-08-03T07:37:02:1659492422 IST+0530] INFO [sqlalchemy.engine.Engine._commit_impl:1013] COMMIT
[2022-08-03T07:37:02:1659492422 IST+0530] INFO [uvicorn.error.startup:61] Application startup complete.
