[2022-08-02T09:41:35:1659413495 IST+0530] WARNING [uvicorn.error.run:47] StatReload detected changes in 'src/repository/db.py'. Reloading...
[2022-08-02T09:41:35:1659413495 IST+0530] INFO [root.__init_application:29] creating API service and Web Site
[2022-08-02T09:41:35:1659413495 IST+0530] INFO [root.__init_routes:19] initializing all routes
[2022-08-02T09:41:35:1659413495 IST+0530] DEBUG [asyncio.__init__:59] Using selector: EpollSelector
[2022-08-02T09:41:35:1659413495 IST+0530] INFO [root.__init_application:29] creating API service and Web Site
[2022-08-02T09:41:35:1659413495 IST+0530] INFO [root.__init_routes:19] initializing all routes
[2022-08-02T09:41:35:1659413495 IST+0530] INFO [uvicorn.error.serve:75] Started server process [1304]
[2022-08-02T09:41:35:1659413495 IST+0530] INFO [uvicorn.error.startup:47] Waiting for application startup.
[2022-08-02T09:41:35:1659413495 IST+0530] ERROR [uvicorn.error.send:121] Traceback (most recent call last):
  File "/home/p_116749/projects/python/americana/idp/.venv/lib/python3.9/site-packages/starlette/routing.py", line 635, in lifespan
    async with self.lifespan_context(app):
  File "/home/p_116749/projects/python/americana/idp/.venv/lib/python3.9/site-packages/starlette/routing.py", line 530, in __aenter__
    await self._router.startup()
  File "/home/p_116749/projects/python/americana/idp/.venv/lib/python3.9/site-packages/starlette/routing.py", line 612, in startup
    await handler()
  File "/home/p_116749/projects/python/americana/idp/main.py", line 52, in startup
    await database.connect()
  File "/home/p_116749/projects/python/americana/idp/.venv/lib/python3.9/site-packages/databases/core.py", line 82, in connect
    await self._backend.connect()
  File "/home/p_116749/projects/python/americana/idp/.venv/lib/python3.9/site-packages/databases/backends/postgres.py", line 74, in connect
    self._pool = await asyncpg.create_pool(**kwargs)
  File "/home/p_116749/projects/python/americana/idp/.venv/lib/python3.9/site-packages/asyncpg/pool.py", line 413, in _async__init__
    await self._initialize()
  File "/home/p_116749/projects/python/americana/idp/.venv/lib/python3.9/site-packages/asyncpg/pool.py", line 441, in _initialize
    await first_ch.connect()
  File "/home/p_116749/projects/python/americana/idp/.venv/lib/python3.9/site-packages/asyncpg/pool.py", line 133, in connect
    self._con = await self._pool._get_new_connection()
  File "/home/p_116749/projects/python/americana/idp/.venv/lib/python3.9/site-packages/asyncpg/pool.py", line 511, in _get_new_connection
    con = await connection.connect(
  File "/home/p_116749/projects/python/americana/idp/.venv/lib/python3.9/site-packages/asyncpg/connection.py", line 2093, in connect
    return await connect_utils._connect(
  File "/home/p_116749/projects/python/americana/idp/.venv/lib/python3.9/site-packages/asyncpg/connect_utils.py", line 903, in _connect
    raise last_error
  File "/home/p_116749/projects/python/americana/idp/.venv/lib/python3.9/site-packages/asyncpg/connect_utils.py", line 889, in _connect
    return await _connect_addr(
  File "/home/p_116749/projects/python/americana/idp/.venv/lib/python3.9/site-packages/asyncpg/connect_utils.py", line 781, in _connect_addr
    return await __connect_addr(params, timeout, True, *args)
  File "/home/p_116749/projects/python/americana/idp/.venv/lib/python3.9/site-packages/asyncpg/connect_utils.py", line 833, in __connect_addr
    tr, pr = await compat.wait_for(connector, timeout=timeout)
  File "/home/p_116749/projects/python/americana/idp/.venv/lib/python3.9/site-packages/asyncpg/compat.py", line 66, in wait_for
    return await asyncio.wait_for(fut, timeout)
  File "/usr/lib/python3.9/asyncio/tasks.py", line 481, in wait_for
    return fut.result()
  File "/home/p_116749/projects/python/americana/idp/.venv/lib/python3.9/site-packages/asyncpg/connect_utils.py", line 692, in _create_ssl_connection
    tr, pr = await loop.create_connection(
  File "/usr/lib/python3.9/asyncio/base_events.py", line 1056, in create_connection
    raise exceptions[0]
  File "/usr/lib/python3.9/asyncio/base_events.py", line 1041, in create_connection
    sock = await self._connect_sock(
  File "/usr/lib/python3.9/asyncio/base_events.py", line 955, in _connect_sock
    await self.sock_connect(sock, address)
  File "/usr/lib/python3.9/asyncio/selector_events.py", line 502, in sock_connect
    return await fut
  File "/usr/lib/python3.9/asyncio/selector_events.py", line 507, in _sock_connect
    sock.connect(address)
OSError: [Errno 22] Invalid argument

[2022-08-02T09:41:35:1659413495 IST+0530] ERROR [uvicorn.error.startup:58] Application startup failed. Exiting.
[2022-08-02T09:41:38:1659413498 IST+0530] WARNING [uvicorn.error.run:47] StatReload detected changes in 'src/repository/db.py'. Reloading...
[2022-08-02T09:41:38:1659413498 IST+0530] INFO [root.__init_application:29] creating API service and Web Site
[2022-08-02T09:41:38:1659413498 IST+0530] INFO [root.__init_routes:19] initializing all routes
[2022-08-02T09:41:38:1659413498 IST+0530] DEBUG [asyncio.__init__:59] Using selector: EpollSelector
[2022-08-02T09:41:38:1659413498 IST+0530] INFO [root.__init_application:29] creating API service and Web Site
[2022-08-02T09:41:38:1659413498 IST+0530] INFO [root.__init_routes:19] initializing all routes
[2022-08-02T09:41:38:1659413498 IST+0530] INFO [uvicorn.error.serve:75] Started server process [1307]
[2022-08-02T09:41:38:1659413498 IST+0530] INFO [uvicorn.error.startup:47] Waiting for application startup.
[2022-08-02T09:41:38:1659413498 IST+0530] ERROR [uvicorn.error.send:121] Traceback (most recent call last):
  File "/home/p_116749/projects/python/americana/idp/.venv/lib/python3.9/site-packages/starlette/routing.py", line 635, in lifespan
    async with self.lifespan_context(app):
  File "/home/p_116749/projects/python/americana/idp/.venv/lib/python3.9/site-packages/starlette/routing.py", line 530, in __aenter__
    await self._router.startup()
  File "/home/p_116749/projects/python/americana/idp/.venv/lib/python3.9/site-packages/starlette/routing.py", line 612, in startup
    await handler()
  File "/home/p_116749/projects/python/americana/idp/main.py", line 52, in startup
    await database.connect()
  File "/home/p_116749/projects/python/americana/idp/.venv/lib/python3.9/site-packages/databases/core.py", line 82, in connect
    await self._backend.connect()
  File "/home/p_116749/projects/python/americana/idp/.venv/lib/python3.9/site-packages/databases/backends/postgres.py", line 74, in connect
    self._pool = await asyncpg.create_pool(**kwargs)
  File "/home/p_116749/projects/python/americana/idp/.venv/lib/python3.9/site-packages/asyncpg/pool.py", line 413, in _async__init__
    await self._initialize()
  File "/home/p_116749/projects/python/americana/idp/.venv/lib/python3.9/site-packages/asyncpg/pool.py", line 441, in _initialize
    await first_ch.connect()
  File "/home/p_116749/projects/python/americana/idp/.venv/lib/python3.9/site-packages/asyncpg/pool.py", line 133, in connect
    self._con = await self._pool._get_new_connection()
  File "/home/p_116749/projects/python/americana/idp/.venv/lib/python3.9/site-packages/asyncpg/pool.py", line 511, in _get_new_connection
    con = await connection.connect(
  File "/home/p_116749/projects/python/americana/idp/.venv/lib/python3.9/site-packages/asyncpg/connection.py", line 2093, in connect
    return await connect_utils._connect(
  File "/home/p_116749/projects/python/americana/idp/.venv/lib/python3.9/site-packages/asyncpg/connect_utils.py", line 903, in _connect
    raise last_error
  File "/home/p_116749/projects/python/americana/idp/.venv/lib/python3.9/site-packages/asyncpg/connect_utils.py", line 889, in _connect
    return await _connect_addr(
  File "/home/p_116749/projects/python/americana/idp/.venv/lib/python3.9/site-packages/asyncpg/connect_utils.py", line 781, in _connect_addr
    return await __connect_addr(params, timeout, True, *args)
  File "/home/p_116749/projects/python/americana/idp/.venv/lib/python3.9/site-packages/asyncpg/connect_utils.py", line 833, in __connect_addr
    tr, pr = await compat.wait_for(connector, timeout=timeout)
  File "/home/p_116749/projects/python/americana/idp/.venv/lib/python3.9/site-packages/asyncpg/compat.py", line 66, in wait_for
    return await asyncio.wait_for(fut, timeout)
  File "/usr/lib/python3.9/asyncio/tasks.py", line 481, in wait_for
    return fut.result()
  File "/home/p_116749/projects/python/americana/idp/.venv/lib/python3.9/site-packages/asyncpg/connect_utils.py", line 692, in _create_ssl_connection
    tr, pr = await loop.create_connection(
  File "/usr/lib/python3.9/asyncio/base_events.py", line 1056, in create_connection
    raise exceptions[0]
  File "/usr/lib/python3.9/asyncio/base_events.py", line 1041, in create_connection
    sock = await self._connect_sock(
  File "/usr/lib/python3.9/asyncio/base_events.py", line 955, in _connect_sock
    await self.sock_connect(sock, address)
  File "/usr/lib/python3.9/asyncio/selector_events.py", line 502, in sock_connect
    return await fut
  File "/usr/lib/python3.9/asyncio/selector_events.py", line 507, in _sock_connect
    sock.connect(address)
OSError: [Errno 22] Invalid argument

[2022-08-02T09:41:38:1659413498 IST+0530] ERROR [uvicorn.error.startup:58] Application startup failed. Exiting.
[2022-08-02T09:41:40:1659413500 IST+0530] WARNING [uvicorn.error.run:47] StatReload detected changes in 'src/repository/db.py'. Reloading...
[2022-08-02T09:41:41:1659413501 IST+0530] INFO [root.__init_application:29] creating API service and Web Site
[2022-08-02T09:41:41:1659413501 IST+0530] INFO [root.__init_routes:19] initializing all routes
[2022-08-02T09:41:41:1659413501 IST+0530] DEBUG [asyncio.__init__:59] Using selector: EpollSelector
[2022-08-02T09:41:41:1659413501 IST+0530] INFO [root.__init_application:29] creating API service and Web Site
[2022-08-02T09:41:41:1659413501 IST+0530] INFO [root.__init_routes:19] initializing all routes
[2022-08-02T09:41:41:1659413501 IST+0530] INFO [uvicorn.error.serve:75] Started server process [1310]
[2022-08-02T09:41:41:1659413501 IST+0530] INFO [uvicorn.error.startup:47] Waiting for application startup.
[2022-08-02T09:41:41:1659413501 IST+0530] ERROR [uvicorn.error.send:121] Traceback (most recent call last):
  File "/home/p_116749/projects/python/americana/idp/.venv/lib/python3.9/site-packages/starlette/routing.py", line 635, in lifespan
    async with self.lifespan_context(app):
  File "/home/p_116749/projects/python/americana/idp/.venv/lib/python3.9/site-packages/starlette/routing.py", line 530, in __aenter__
    await self._router.startup()
  File "/home/p_116749/projects/python/americana/idp/.venv/lib/python3.9/site-packages/starlette/routing.py", line 612, in startup
    await handler()
  File "/home/p_116749/projects/python/americana/idp/main.py", line 52, in startup
    await database.connect()
  File "/home/p_116749/projects/python/americana/idp/.venv/lib/python3.9/site-packages/databases/core.py", line 82, in connect
    await self._backend.connect()
  File "/home/p_116749/projects/python/americana/idp/.venv/lib/python3.9/site-packages/databases/backends/postgres.py", line 74, in connect
    self._pool = await asyncpg.create_pool(**kwargs)
  File "/home/p_116749/projects/python/americana/idp/.venv/lib/python3.9/site-packages/asyncpg/pool.py", line 413, in _async__init__
    await self._initialize()
  File "/home/p_116749/projects/python/americana/idp/.venv/lib/python3.9/site-packages/asyncpg/pool.py", line 441, in _initialize
    await first_ch.connect()
  File "/home/p_116749/projects/python/americana/idp/.venv/lib/python3.9/site-packages/asyncpg/pool.py", line 133, in connect
    self._con = await self._pool._get_new_connection()
  File "/home/p_116749/projects/python/americana/idp/.venv/lib/python3.9/site-packages/asyncpg/pool.py", line 511, in _get_new_connection
    con = await connection.connect(
  File "/home/p_116749/projects/python/americana/idp/.venv/lib/python3.9/site-packages/asyncpg/connection.py", line 2093, in connect
    return await connect_utils._connect(
  File "/home/p_116749/projects/python/americana/idp/.venv/lib/python3.9/site-packages/asyncpg/connect_utils.py", line 903, in _connect
    raise last_error
  File "/home/p_116749/projects/python/americana/idp/.venv/lib/python3.9/site-packages/asyncpg/connect_utils.py", line 889, in _connect
    return await _connect_addr(
  File "/home/p_116749/projects/python/americana/idp/.venv/lib/python3.9/site-packages/asyncpg/connect_utils.py", line 781, in _connect_addr
    return await __connect_addr(params, timeout, True, *args)
  File "/home/p_116749/projects/python/americana/idp/.venv/lib/python3.9/site-packages/asyncpg/connect_utils.py", line 833, in __connect_addr
    tr, pr = await compat.wait_for(connector, timeout=timeout)
  File "/home/p_116749/projects/python/americana/idp/.venv/lib/python3.9/site-packages/asyncpg/compat.py", line 66, in wait_for
    return await asyncio.wait_for(fut, timeout)
  File "/usr/lib/python3.9/asyncio/tasks.py", line 481, in wait_for
    return fut.result()
  File "/home/p_116749/projects/python/americana/idp/.venv/lib/python3.9/site-packages/asyncpg/connect_utils.py", line 692, in _create_ssl_connection
    tr, pr = await loop.create_connection(
  File "/usr/lib/python3.9/asyncio/base_events.py", line 1056, in create_connection
    raise exceptions[0]
  File "/usr/lib/python3.9/asyncio/base_events.py", line 1041, in create_connection
    sock = await self._connect_sock(
  File "/usr/lib/python3.9/asyncio/base_events.py", line 955, in _connect_sock
    await self.sock_connect(sock, address)
  File "/usr/lib/python3.9/asyncio/selector_events.py", line 502, in sock_connect
    return await fut
  File "/usr/lib/python3.9/asyncio/selector_events.py", line 507, in _sock_connect
    sock.connect(address)
OSError: [Errno 22] Invalid argument

[2022-08-02T09:41:41:1659413501 IST+0530] ERROR [uvicorn.error.startup:58] Application startup failed. Exiting.
[2022-08-02T09:41:45:1659413505 IST+0530] WARNING [uvicorn.error.run:47] StatReload detected changes in 'src/repository/db.py'. Reloading...
[2022-08-02T09:41:45:1659413505 IST+0530] INFO [root.__init_application:29] creating API service and Web Site
[2022-08-02T09:41:45:1659413505 IST+0530] INFO [root.__init_routes:19] initializing all routes
[2022-08-02T09:41:45:1659413505 IST+0530] DEBUG [asyncio.__init__:59] Using selector: EpollSelector
[2022-08-02T09:41:45:1659413505 IST+0530] INFO [root.__init_application:29] creating API service and Web Site
[2022-08-02T09:41:45:1659413505 IST+0530] INFO [root.__init_routes:19] initializing all routes
[2022-08-02T09:41:45:1659413505 IST+0530] INFO [uvicorn.error.serve:75] Started server process [1313]
[2022-08-02T09:41:45:1659413505 IST+0530] INFO [uvicorn.error.startup:47] Waiting for application startup.
[2022-08-02T09:41:45:1659413505 IST+0530] ERROR [uvicorn.error.send:121] Traceback (most recent call last):
  File "/home/p_116749/projects/python/americana/idp/.venv/lib/python3.9/site-packages/starlette/routing.py", line 635, in lifespan
    async with self.lifespan_context(app):
  File "/home/p_116749/projects/python/americana/idp/.venv/lib/python3.9/site-packages/starlette/routing.py", line 530, in __aenter__
    await self._router.startup()
  File "/home/p_116749/projects/python/americana/idp/.venv/lib/python3.9/site-packages/starlette/routing.py", line 612, in startup
    await handler()
  File "/home/p_116749/projects/python/americana/idp/main.py", line 52, in startup
    await database.connect()
  File "/home/p_116749/projects/python/americana/idp/.venv/lib/python3.9/site-packages/databases/core.py", line 82, in connect
    await self._backend.connect()
  File "/home/p_116749/projects/python/americana/idp/.venv/lib/python3.9/site-packages/databases/backends/postgres.py", line 74, in connect
    self._pool = await asyncpg.create_pool(**kwargs)
  File "/home/p_116749/projects/python/americana/idp/.venv/lib/python3.9/site-packages/asyncpg/pool.py", line 413, in _async__init__
    await self._initialize()
  File "/home/p_116749/projects/python/americana/idp/.venv/lib/python3.9/site-packages/asyncpg/pool.py", line 441, in _initialize
    await first_ch.connect()
  File "/home/p_116749/projects/python/americana/idp/.venv/lib/python3.9/site-packages/asyncpg/pool.py", line 133, in connect
    self._con = await self._pool._get_new_connection()
  File "/home/p_116749/projects/python/americana/idp/.venv/lib/python3.9/site-packages/asyncpg/pool.py", line 511, in _get_new_connection
    con = await connection.connect(
  File "/home/p_116749/projects/python/americana/idp/.venv/lib/python3.9/site-packages/asyncpg/connection.py", line 2093, in connect
    return await connect_utils._connect(
  File "/home/p_116749/projects/python/americana/idp/.venv/lib/python3.9/site-packages/asyncpg/connect_utils.py", line 903, in _connect
    raise last_error
  File "/home/p_116749/projects/python/americana/idp/.venv/lib/python3.9/site-packages/asyncpg/connect_utils.py", line 889, in _connect
    return await _connect_addr(
  File "/home/p_116749/projects/python/americana/idp/.venv/lib/python3.9/site-packages/asyncpg/connect_utils.py", line 781, in _connect_addr
    return await __connect_addr(params, timeout, True, *args)
  File "/home/p_116749/projects/python/americana/idp/.venv/lib/python3.9/site-packages/asyncpg/connect_utils.py", line 833, in __connect_addr
    tr, pr = await compat.wait_for(connector, timeout=timeout)
  File "/home/p_116749/projects/python/americana/idp/.venv/lib/python3.9/site-packages/asyncpg/compat.py", line 66, in wait_for
    return await asyncio.wait_for(fut, timeout)
  File "/usr/lib/python3.9/asyncio/tasks.py", line 481, in wait_for
    return fut.result()
  File "/home/p_116749/projects/python/americana/idp/.venv/lib/python3.9/site-packages/asyncpg/connect_utils.py", line 692, in _create_ssl_connection
    tr, pr = await loop.create_connection(
  File "/usr/lib/python3.9/asyncio/base_events.py", line 1056, in create_connection
    raise exceptions[0]
  File "/usr/lib/python3.9/asyncio/base_events.py", line 1041, in create_connection
    sock = await self._connect_sock(
  File "/usr/lib/python3.9/asyncio/base_events.py", line 955, in _connect_sock
    await self.sock_connect(sock, address)
  File "/usr/lib/python3.9/asyncio/selector_events.py", line 502, in sock_connect
    return await fut
  File "/usr/lib/python3.9/asyncio/selector_events.py", line 507, in _sock_connect
    sock.connect(address)
OSError: [Errno 22] Invalid argument

[2022-08-02T09:41:45:1659413505 IST+0530] ERROR [uvicorn.error.startup:58] Application startup failed. Exiting.
[2022-08-02T09:42:58:1659413578 IST+0530] WARNING [uvicorn.error.run:47] StatReload detected changes in 'src/repository/db.py'. Reloading...
[2022-08-02T09:43:00:1659413580 IST+0530] WARNING [uvicorn.error.run:47] StatReload detected changes in 'src/repository/db.py'. Reloading...
[2022-08-02T09:43:38:1659413618 IST+0530] WARNING [uvicorn.error.run:47] StatReload detected changes in 'src/repository/db.py'. Reloading...
[2022-08-02T09:43:41:1659413621 IST+0530] INFO [uvicorn.error.shutdown:103] Stopping reloader process [1282]
[2022-08-02T18:01:02:1659443462 IST+0530] INFO [root.__init_application:29] creating API service and Web Site
[2022-08-02T18:01:02:1659443462 IST+0530] INFO [root.__init_routes:19] initializing all routes
[2022-08-02T18:01:10:1659443470 IST+0530] INFO [uvicorn.error.serve:75] Started server process [1922]
[2022-08-02T18:01:10:1659443470 IST+0530] INFO [uvicorn.error.startup:47] Waiting for application startup.
[2022-08-02T18:01:14:1659443474 IST+0530] ERROR [uvicorn.error.send:121] Traceback (most recent call last):
  File "/home/p_116749/projects/python/americana/idp/.venv/lib/python3.9/site-packages/starlette/routing.py", line 635, in lifespan
    async with self.lifespan_context(app):
  File "/home/p_116749/projects/python/americana/idp/.venv/lib/python3.9/site-packages/starlette/routing.py", line 530, in __aenter__
    await self._router.startup()
  File "/home/p_116749/projects/python/americana/idp/.venv/lib/python3.9/site-packages/starlette/routing.py", line 612, in startup
    await handler()
  File "/home/p_116749/projects/python/americana/idp/./main.py", line 53, in startup
    await db.init_db()
  File "/home/p_116749/projects/python/americana/idp/./src/repository/db.py", line 71, in init_db
    async with engine.begin() as conn:
  File "/home/p_116749/projects/python/americana/idp/.venv/lib/python3.9/site-packages/sqlalchemy/ext/asyncio/base.py", line 60, in __aenter__
    return await self.start(is_ctxmanager=True)
  File "/home/p_116749/projects/python/americana/idp/.venv/lib/python3.9/site-packages/sqlalchemy/ext/asyncio/engine.py", line 596, in start
    await self.conn.start(is_ctxmanager=is_ctxmanager)
  File "/home/p_116749/projects/python/americana/idp/.venv/lib/python3.9/site-packages/sqlalchemy/ext/asyncio/engine.py", line 155, in start
    await (greenlet_spawn(self.sync_engine.connect))
  File "/home/p_116749/projects/python/americana/idp/.venv/lib/python3.9/site-packages/sqlalchemy/util/_concurrency_py3k.py", line 126, in greenlet_spawn
    result = context.throw(*sys.exc_info())
  File "/home/p_116749/projects/python/americana/idp/.venv/lib/python3.9/site-packages/sqlalchemy/future/engine.py", line 406, in connect
    return super(Engine, self).connect()
  File "/home/p_116749/projects/python/americana/idp/.venv/lib/python3.9/site-packages/sqlalchemy/engine/base.py", line 3234, in connect
    return self._connection_cls(self, close_with_result=close_with_result)
  File "/home/p_116749/projects/python/americana/idp/.venv/lib/python3.9/site-packages/sqlalchemy/engine/base.py", line 96, in __init__
    else engine.raw_connection()
  File "/home/p_116749/projects/python/americana/idp/.venv/lib/python3.9/site-packages/sqlalchemy/engine/base.py", line 3313, in raw_connection
    return self._wrap_pool_connect(self.pool.connect, _connection)
  File "/home/p_116749/projects/python/americana/idp/.venv/lib/python3.9/site-packages/sqlalchemy/engine/base.py", line 3280, in _wrap_pool_connect
    return fn()
  File "/home/p_116749/projects/python/americana/idp/.venv/lib/python3.9/site-packages/sqlalchemy/pool/base.py", line 310, in connect
    return _ConnectionFairy._checkout(self)
  File "/home/p_116749/projects/python/americana/idp/.venv/lib/python3.9/site-packages/sqlalchemy/pool/base.py", line 868, in _checkout
    fairy = _ConnectionRecord.checkout(pool)
  File "/home/p_116749/projects/python/americana/idp/.venv/lib/python3.9/site-packages/sqlalchemy/pool/base.py", line 476, in checkout
    rec = pool._do_get()
  File "/home/p_116749/projects/python/americana/idp/.venv/lib/python3.9/site-packages/sqlalchemy/pool/impl.py", line 146, in _do_get
    self._dec_overflow()
  File "/home/p_116749/projects/python/americana/idp/.venv/lib/python3.9/site-packages/sqlalchemy/util/langhelpers.py", line 70, in __exit__
    compat.raise_(
  File "/home/p_116749/projects/python/americana/idp/.venv/lib/python3.9/site-packages/sqlalchemy/util/compat.py", line 208, in raise_
    raise exception
  File "/home/p_116749/projects/python/americana/idp/.venv/lib/python3.9/site-packages/sqlalchemy/pool/impl.py", line 143, in _do_get
    return self._create_connection()
  File "/home/p_116749/projects/python/americana/idp/.venv/lib/python3.9/site-packages/sqlalchemy/pool/base.py", line 256, in _create_connection
    return _ConnectionRecord(self)
  File "/home/p_116749/projects/python/americana/idp/.venv/lib/python3.9/site-packages/sqlalchemy/pool/base.py", line 371, in __init__
    self.__connect()
  File "/home/p_116749/projects/python/americana/idp/.venv/lib/python3.9/site-packages/sqlalchemy/pool/base.py", line 666, in __connect
    pool.logger.debug("Error on connect(): %s", e)
  File "/home/p_116749/projects/python/americana/idp/.venv/lib/python3.9/site-packages/sqlalchemy/util/langhelpers.py", line 70, in __exit__
    compat.raise_(
  File "/home/p_116749/projects/python/americana/idp/.venv/lib/python3.9/site-packages/sqlalchemy/util/compat.py", line 208, in raise_
    raise exception
  File "/home/p_116749/projects/python/americana/idp/.venv/lib/python3.9/site-packages/sqlalchemy/pool/base.py", line 661, in __connect
    self.dbapi_connection = connection = pool._invoke_creator(self)
  File "/home/p_116749/projects/python/americana/idp/.venv/lib/python3.9/site-packages/sqlalchemy/engine/create.py", line 590, in connect
    return dialect.connect(*cargs, **cparams)
  File "/home/p_116749/projects/python/americana/idp/.venv/lib/python3.9/site-packages/sqlalchemy/engine/default.py", line 597, in connect
    return self.dbapi.connect(*cargs, **cparams)
  File "/home/p_116749/projects/python/americana/idp/.venv/lib/python3.9/site-packages/sqlalchemy/dialects/postgresql/asyncpg.py", line 777, in connect
    await_only(self.asyncpg.connect(*arg, **kw)),
  File "/home/p_116749/projects/python/americana/idp/.venv/lib/python3.9/site-packages/sqlalchemy/util/_concurrency_py3k.py", line 68, in await_only
    return current.driver.switch(awaitable)
  File "/home/p_116749/projects/python/americana/idp/.venv/lib/python3.9/site-packages/sqlalchemy/util/_concurrency_py3k.py", line 121, in greenlet_spawn
    value = await result
  File "/home/p_116749/projects/python/americana/idp/.venv/lib/python3.9/site-packages/asyncpg/connection.py", line 2093, in connect
    return await connect_utils._connect(
  File "/home/p_116749/projects/python/americana/idp/.venv/lib/python3.9/site-packages/asyncpg/connect_utils.py", line 889, in _connect
    return await _connect_addr(
  File "/home/p_116749/projects/python/americana/idp/.venv/lib/python3.9/site-packages/asyncpg/connect_utils.py", line 781, in _connect_addr
    return await __connect_addr(params, timeout, True, *args)
  File "/home/p_116749/projects/python/americana/idp/.venv/lib/python3.9/site-packages/asyncpg/connect_utils.py", line 839, in __connect_addr
    await compat.wait_for(connected, timeout=timeout)
  File "/home/p_116749/projects/python/americana/idp/.venv/lib/python3.9/site-packages/asyncpg/compat.py", line 66, in wait_for
    return await asyncio.wait_for(fut, timeout)
  File "/usr/lib/python3.9/asyncio/tasks.py", line 481, in wait_for
    return fut.result()
asyncpg.exceptions.InvalidCatalogNameError: database "idpdb" does not exist

[2022-08-02T18:01:14:1659443474 IST+0530] ERROR [uvicorn.error.startup:58] Application startup failed. Exiting.
[2022-08-02T18:03:35:1659443615 IST+0530] INFO [root.__init_application:29] creating API service and Web Site
[2022-08-02T18:03:35:1659443615 IST+0530] INFO [root.__init_routes:19] initializing all routes
[2022-08-02T18:03:35:1659443615 IST+0530] INFO [uvicorn.error.__init__:359] Will watch for changes in these directories: ['/home/p_116749/projects/python/americana/idp']
[2022-08-02T18:03:35:1659443615 IST+0530] INFO [uvicorn.error.bind_socket:585] Uvicorn running on http://0.0.0.0:9091 (Press CTRL+C to quit)
[2022-08-02T18:03:35:1659443615 IST+0530] INFO [uvicorn.error.startup:72] Started reloader process [2037] using StatReload
[2022-08-02T18:03:36:1659443616 IST+0530] INFO [root.__init_application:29] creating API service and Web Site
[2022-08-02T18:03:36:1659443616 IST+0530] INFO [root.__init_routes:19] initializing all routes
[2022-08-02T18:03:36:1659443616 IST+0530] DEBUG [asyncio.__init__:59] Using selector: EpollSelector
[2022-08-02T18:03:36:1659443616 IST+0530] INFO [root.__init_application:29] creating API service and Web Site
[2022-08-02T18:03:36:1659443616 IST+0530] INFO [root.__init_routes:19] initializing all routes
[2022-08-02T18:03:36:1659443616 IST+0530] INFO [uvicorn.error.serve:75] Started server process [2039]
[2022-08-02T18:03:36:1659443616 IST+0530] INFO [uvicorn.error.startup:47] Waiting for application startup.
[2022-08-02T18:03:37:1659443617 IST+0530] ERROR [uvicorn.error.send:121] Traceback (most recent call last):
  File "/home/p_116749/projects/python/americana/idp/.venv/lib/python3.9/site-packages/starlette/routing.py", line 635, in lifespan
    async with self.lifespan_context(app):
  File "/home/p_116749/projects/python/americana/idp/.venv/lib/python3.9/site-packages/starlette/routing.py", line 530, in __aenter__
    await self._router.startup()
  File "/home/p_116749/projects/python/americana/idp/.venv/lib/python3.9/site-packages/starlette/routing.py", line 612, in startup
    await handler()
  File "/home/p_116749/projects/python/americana/idp/main.py", line 53, in startup
    await db.init_db()
  File "/home/p_116749/projects/python/americana/idp/src/repository/db.py", line 71, in init_db
    async with engine.begin() as conn:
  File "/home/p_116749/projects/python/americana/idp/.venv/lib/python3.9/site-packages/sqlalchemy/ext/asyncio/base.py", line 60, in __aenter__
    return await self.start(is_ctxmanager=True)
  File "/home/p_116749/projects/python/americana/idp/.venv/lib/python3.9/site-packages/sqlalchemy/ext/asyncio/engine.py", line 596, in start
    await self.conn.start(is_ctxmanager=is_ctxmanager)
  File "/home/p_116749/projects/python/americana/idp/.venv/lib/python3.9/site-packages/sqlalchemy/ext/asyncio/engine.py", line 155, in start
    await (greenlet_spawn(self.sync_engine.connect))
  File "/home/p_116749/projects/python/americana/idp/.venv/lib/python3.9/site-packages/sqlalchemy/util/_concurrency_py3k.py", line 126, in greenlet_spawn
    result = context.throw(*sys.exc_info())
  File "/home/p_116749/projects/python/americana/idp/.venv/lib/python3.9/site-packages/sqlalchemy/future/engine.py", line 406, in connect
    return super(Engine, self).connect()
  File "/home/p_116749/projects/python/americana/idp/.venv/lib/python3.9/site-packages/sqlalchemy/engine/base.py", line 3234, in connect
    return self._connection_cls(self, close_with_result=close_with_result)
  File "/home/p_116749/projects/python/americana/idp/.venv/lib/python3.9/site-packages/sqlalchemy/engine/base.py", line 96, in __init__
    else engine.raw_connection()
  File "/home/p_116749/projects/python/americana/idp/.venv/lib/python3.9/site-packages/sqlalchemy/engine/base.py", line 3313, in raw_connection
    return self._wrap_pool_connect(self.pool.connect, _connection)
  File "/home/p_116749/projects/python/americana/idp/.venv/lib/python3.9/site-packages/sqlalchemy/engine/base.py", line 3280, in _wrap_pool_connect
    return fn()
  File "/home/p_116749/projects/python/americana/idp/.venv/lib/python3.9/site-packages/sqlalchemy/pool/base.py", line 310, in connect
    return _ConnectionFairy._checkout(self)
  File "/home/p_116749/projects/python/americana/idp/.venv/lib/python3.9/site-packages/sqlalchemy/pool/base.py", line 868, in _checkout
    fairy = _ConnectionRecord.checkout(pool)
  File "/home/p_116749/projects/python/americana/idp/.venv/lib/python3.9/site-packages/sqlalchemy/pool/base.py", line 476, in checkout
    rec = pool._do_get()
  File "/home/p_116749/projects/python/americana/idp/.venv/lib/python3.9/site-packages/sqlalchemy/pool/impl.py", line 146, in _do_get
    self._dec_overflow()
  File "/home/p_116749/projects/python/americana/idp/.venv/lib/python3.9/site-packages/sqlalchemy/util/langhelpers.py", line 70, in __exit__
    compat.raise_(
  File "/home/p_116749/projects/python/americana/idp/.venv/lib/python3.9/site-packages/sqlalchemy/util/compat.py", line 208, in raise_
    raise exception
  File "/home/p_116749/projects/python/americana/idp/.venv/lib/python3.9/site-packages/sqlalchemy/pool/impl.py", line 143, in _do_get
    return self._create_connection()
  File "/home/p_116749/projects/python/americana/idp/.venv/lib/python3.9/site-packages/sqlalchemy/pool/base.py", line 256, in _create_connection
    return _ConnectionRecord(self)
  File "/home/p_116749/projects/python/americana/idp/.venv/lib/python3.9/site-packages/sqlalchemy/pool/base.py", line 371, in __init__
    self.__connect()
  File "/home/p_116749/projects/python/americana/idp/.venv/lib/python3.9/site-packages/sqlalchemy/pool/base.py", line 666, in __connect
    pool.logger.debug("Error on connect(): %s", e)
  File "/home/p_116749/projects/python/americana/idp/.venv/lib/python3.9/site-packages/sqlalchemy/util/langhelpers.py", line 70, in __exit__
    compat.raise_(
  File "/home/p_116749/projects/python/americana/idp/.venv/lib/python3.9/site-packages/sqlalchemy/util/compat.py", line 208, in raise_
    raise exception
  File "/home/p_116749/projects/python/americana/idp/.venv/lib/python3.9/site-packages/sqlalchemy/pool/base.py", line 661, in __connect
    self.dbapi_connection = connection = pool._invoke_creator(self)
  File "/home/p_116749/projects/python/americana/idp/.venv/lib/python3.9/site-packages/sqlalchemy/engine/create.py", line 590, in connect
    return dialect.connect(*cargs, **cparams)
  File "/home/p_116749/projects/python/americana/idp/.venv/lib/python3.9/site-packages/sqlalchemy/engine/default.py", line 597, in connect
    return self.dbapi.connect(*cargs, **cparams)
  File "/home/p_116749/projects/python/americana/idp/.venv/lib/python3.9/site-packages/sqlalchemy/dialects/postgresql/asyncpg.py", line 777, in connect
    await_only(self.asyncpg.connect(*arg, **kw)),
  File "/home/p_116749/projects/python/americana/idp/.venv/lib/python3.9/site-packages/sqlalchemy/util/_concurrency_py3k.py", line 68, in await_only
    return current.driver.switch(awaitable)
  File "/home/p_116749/projects/python/americana/idp/.venv/lib/python3.9/site-packages/sqlalchemy/util/_concurrency_py3k.py", line 121, in greenlet_spawn
    value = await result
  File "/home/p_116749/projects/python/americana/idp/.venv/lib/python3.9/site-packages/asyncpg/connection.py", line 2093, in connect
    return await connect_utils._connect(
  File "/home/p_116749/projects/python/americana/idp/.venv/lib/python3.9/site-packages/asyncpg/connect_utils.py", line 889, in _connect
    return await _connect_addr(
  File "/home/p_116749/projects/python/americana/idp/.venv/lib/python3.9/site-packages/asyncpg/connect_utils.py", line 781, in _connect_addr
    return await __connect_addr(params, timeout, True, *args)
  File "/home/p_116749/projects/python/americana/idp/.venv/lib/python3.9/site-packages/asyncpg/connect_utils.py", line 839, in __connect_addr
    await compat.wait_for(connected, timeout=timeout)
  File "/home/p_116749/projects/python/americana/idp/.venv/lib/python3.9/site-packages/asyncpg/compat.py", line 66, in wait_for
    return await asyncio.wait_for(fut, timeout)
  File "/usr/lib/python3.9/asyncio/tasks.py", line 481, in wait_for
    return fut.result()
asyncpg.exceptions.InvalidCatalogNameError: database "idpdb" does not exist

[2022-08-02T18:03:37:1659443617 IST+0530] ERROR [uvicorn.error.startup:58] Application startup failed. Exiting.
[2022-08-02T18:25:48:1659444948 IST+0530] INFO [uvicorn.error.shutdown:103] Stopping reloader process [2037]
[2022-08-02T18:25:52:1659444952 IST+0530] INFO [root.__init_application:29] creating API service and Web Site
[2022-08-02T18:25:52:1659444952 IST+0530] INFO [root.__init_routes:19] initializing all routes
[2022-08-02T18:25:52:1659444952 IST+0530] INFO [uvicorn.error.__init__:359] Will watch for changes in these directories: ['/home/p_116749/projects/python/americana/idp']
[2022-08-02T18:25:52:1659444952 IST+0530] INFO [uvicorn.error.bind_socket:585] Uvicorn running on http://0.0.0.0:9091 (Press CTRL+C to quit)
[2022-08-02T18:25:52:1659444952 IST+0530] INFO [uvicorn.error.startup:72] Started reloader process [2047] using StatReload
[2022-08-02T18:25:52:1659444952 IST+0530] INFO [root.__init_application:29] creating API service and Web Site
[2022-08-02T18:25:52:1659444952 IST+0530] INFO [root.__init_routes:19] initializing all routes
[2022-08-02T18:25:52:1659444952 IST+0530] DEBUG [asyncio.__init__:59] Using selector: EpollSelector
[2022-08-02T18:25:52:1659444952 IST+0530] INFO [root.__init_application:29] creating API service and Web Site
[2022-08-02T18:25:52:1659444952 IST+0530] INFO [root.__init_routes:19] initializing all routes
[2022-08-02T18:25:52:1659444952 IST+0530] INFO [uvicorn.error.serve:75] Started server process [2049]
[2022-08-02T18:25:52:1659444952 IST+0530] INFO [uvicorn.error.startup:47] Waiting for application startup.
[2022-08-02T18:25:53:1659444953 IST+0530] ERROR [uvicorn.error.send:121] Traceback (most recent call last):
  File "/home/p_116749/projects/python/americana/idp/.venv/lib/python3.9/site-packages/starlette/routing.py", line 635, in lifespan
    async with self.lifespan_context(app):
  File "/home/p_116749/projects/python/americana/idp/.venv/lib/python3.9/site-packages/starlette/routing.py", line 530, in __aenter__
    await self._router.startup()
  File "/home/p_116749/projects/python/americana/idp/.venv/lib/python3.9/site-packages/starlette/routing.py", line 612, in startup
    await handler()
  File "/home/p_116749/projects/python/americana/idp/main.py", line 53, in startup
    await db.init_db()
  File "/home/p_116749/projects/python/americana/idp/src/repository/db.py", line 71, in init_db
    async with engine.begin() as conn:
  File "/home/p_116749/projects/python/americana/idp/.venv/lib/python3.9/site-packages/sqlalchemy/ext/asyncio/base.py", line 60, in __aenter__
    return await self.start(is_ctxmanager=True)
  File "/home/p_116749/projects/python/americana/idp/.venv/lib/python3.9/site-packages/sqlalchemy/ext/asyncio/engine.py", line 596, in start
    await self.conn.start(is_ctxmanager=is_ctxmanager)
  File "/home/p_116749/projects/python/americana/idp/.venv/lib/python3.9/site-packages/sqlalchemy/ext/asyncio/engine.py", line 155, in start
    await (greenlet_spawn(self.sync_engine.connect))
  File "/home/p_116749/projects/python/americana/idp/.venv/lib/python3.9/site-packages/sqlalchemy/util/_concurrency_py3k.py", line 126, in greenlet_spawn
    result = context.throw(*sys.exc_info())
  File "/home/p_116749/projects/python/americana/idp/.venv/lib/python3.9/site-packages/sqlalchemy/future/engine.py", line 406, in connect
    return super(Engine, self).connect()
  File "/home/p_116749/projects/python/americana/idp/.venv/lib/python3.9/site-packages/sqlalchemy/engine/base.py", line 3234, in connect
    return self._connection_cls(self, close_with_result=close_with_result)
  File "/home/p_116749/projects/python/americana/idp/.venv/lib/python3.9/site-packages/sqlalchemy/engine/base.py", line 96, in __init__
    else engine.raw_connection()
  File "/home/p_116749/projects/python/americana/idp/.venv/lib/python3.9/site-packages/sqlalchemy/engine/base.py", line 3313, in raw_connection
    return self._wrap_pool_connect(self.pool.connect, _connection)
  File "/home/p_116749/projects/python/americana/idp/.venv/lib/python3.9/site-packages/sqlalchemy/engine/base.py", line 3280, in _wrap_pool_connect
    return fn()
  File "/home/p_116749/projects/python/americana/idp/.venv/lib/python3.9/site-packages/sqlalchemy/pool/base.py", line 310, in connect
    return _ConnectionFairy._checkout(self)
  File "/home/p_116749/projects/python/americana/idp/.venv/lib/python3.9/site-packages/sqlalchemy/pool/base.py", line 868, in _checkout
    fairy = _ConnectionRecord.checkout(pool)
  File "/home/p_116749/projects/python/americana/idp/.venv/lib/python3.9/site-packages/sqlalchemy/pool/base.py", line 476, in checkout
    rec = pool._do_get()
  File "/home/p_116749/projects/python/americana/idp/.venv/lib/python3.9/site-packages/sqlalchemy/pool/impl.py", line 146, in _do_get
    self._dec_overflow()
  File "/home/p_116749/projects/python/americana/idp/.venv/lib/python3.9/site-packages/sqlalchemy/util/langhelpers.py", line 70, in __exit__
    compat.raise_(
  File "/home/p_116749/projects/python/americana/idp/.venv/lib/python3.9/site-packages/sqlalchemy/util/compat.py", line 208, in raise_
    raise exception
  File "/home/p_116749/projects/python/americana/idp/.venv/lib/python3.9/site-packages/sqlalchemy/pool/impl.py", line 143, in _do_get
    return self._create_connection()
  File "/home/p_116749/projects/python/americana/idp/.venv/lib/python3.9/site-packages/sqlalchemy/pool/base.py", line 256, in _create_connection
    return _ConnectionRecord(self)
  File "/home/p_116749/projects/python/americana/idp/.venv/lib/python3.9/site-packages/sqlalchemy/pool/base.py", line 371, in __init__
    self.__connect()
  File "/home/p_116749/projects/python/americana/idp/.venv/lib/python3.9/site-packages/sqlalchemy/pool/base.py", line 666, in __connect
    pool.logger.debug("Error on connect(): %s", e)
  File "/home/p_116749/projects/python/americana/idp/.venv/lib/python3.9/site-packages/sqlalchemy/util/langhelpers.py", line 70, in __exit__
    compat.raise_(
  File "/home/p_116749/projects/python/americana/idp/.venv/lib/python3.9/site-packages/sqlalchemy/util/compat.py", line 208, in raise_
    raise exception
  File "/home/p_116749/projects/python/americana/idp/.venv/lib/python3.9/site-packages/sqlalchemy/pool/base.py", line 661, in __connect
    self.dbapi_connection = connection = pool._invoke_creator(self)
  File "/home/p_116749/projects/python/americana/idp/.venv/lib/python3.9/site-packages/sqlalchemy/engine/create.py", line 590, in connect
    return dialect.connect(*cargs, **cparams)
  File "/home/p_116749/projects/python/americana/idp/.venv/lib/python3.9/site-packages/sqlalchemy/engine/default.py", line 597, in connect
    return self.dbapi.connect(*cargs, **cparams)
  File "/home/p_116749/projects/python/americana/idp/.venv/lib/python3.9/site-packages/sqlalchemy/dialects/postgresql/asyncpg.py", line 777, in connect
    await_only(self.asyncpg.connect(*arg, **kw)),
  File "/home/p_116749/projects/python/americana/idp/.venv/lib/python3.9/site-packages/sqlalchemy/util/_concurrency_py3k.py", line 68, in await_only
    return current.driver.switch(awaitable)
  File "/home/p_116749/projects/python/americana/idp/.venv/lib/python3.9/site-packages/sqlalchemy/util/_concurrency_py3k.py", line 121, in greenlet_spawn
    value = await result
  File "/home/p_116749/projects/python/americana/idp/.venv/lib/python3.9/site-packages/asyncpg/connection.py", line 2093, in connect
    return await connect_utils._connect(
  File "/home/p_116749/projects/python/americana/idp/.venv/lib/python3.9/site-packages/asyncpg/connect_utils.py", line 889, in _connect
    return await _connect_addr(
  File "/home/p_116749/projects/python/americana/idp/.venv/lib/python3.9/site-packages/asyncpg/connect_utils.py", line 781, in _connect_addr
    return await __connect_addr(params, timeout, True, *args)
  File "/home/p_116749/projects/python/americana/idp/.venv/lib/python3.9/site-packages/asyncpg/connect_utils.py", line 839, in __connect_addr
    await compat.wait_for(connected, timeout=timeout)
  File "/home/p_116749/projects/python/americana/idp/.venv/lib/python3.9/site-packages/asyncpg/compat.py", line 66, in wait_for
    return await asyncio.wait_for(fut, timeout)
  File "/usr/lib/python3.9/asyncio/tasks.py", line 481, in wait_for
    return fut.result()
asyncpg.exceptions.InvalidCatalogNameError: database "idpdb" does not exist

[2022-08-02T18:25:53:1659444953 IST+0530] ERROR [uvicorn.error.startup:58] Application startup failed. Exiting.
[2022-08-02T18:29:38:1659445178 IST+0530] INFO [uvicorn.error.shutdown:103] Stopping reloader process [2047]
[2022-08-02T18:30:25:1659445225 IST+0530] INFO [root.__init_application:29] creating API service and Web Site
[2022-08-02T18:30:25:1659445225 IST+0530] INFO [root.__init_routes:19] initializing all routes
[2022-08-02T18:30:25:1659445225 IST+0530] INFO [uvicorn.error.__init__:359] Will watch for changes in these directories: ['/home/p_116749/projects/python/americana/idp']
[2022-08-02T18:30:25:1659445225 IST+0530] INFO [uvicorn.error.bind_socket:585] Uvicorn running on http://0.0.0.0:9091 (Press CTRL+C to quit)
[2022-08-02T18:30:25:1659445225 IST+0530] INFO [uvicorn.error.startup:72] Started reloader process [2055] using StatReload
[2022-08-02T18:30:26:1659445226 IST+0530] INFO [root.__init_application:29] creating API service and Web Site
[2022-08-02T18:30:26:1659445226 IST+0530] INFO [root.__init_routes:19] initializing all routes
[2022-08-02T18:30:26:1659445226 IST+0530] DEBUG [asyncio.__init__:59] Using selector: EpollSelector
[2022-08-02T18:30:26:1659445226 IST+0530] INFO [root.__init_application:29] creating API service and Web Site
[2022-08-02T18:30:26:1659445226 IST+0530] INFO [root.__init_routes:19] initializing all routes
[2022-08-02T18:30:26:1659445226 IST+0530] INFO [uvicorn.error.serve:75] Started server process [2057]
[2022-08-02T18:30:26:1659445226 IST+0530] INFO [uvicorn.error.startup:47] Waiting for application startup.
[2022-08-02T18:30:27:1659445227 IST+0530] INFO [sqlalchemy.engine.Engine._execute_context:1772] select pg_catalog.version()
[2022-08-02T18:30:27:1659445227 IST+0530] INFO [sqlalchemy.engine.Engine._execute_context:1777] [raw sql] ()
[2022-08-02T18:30:27:1659445227 IST+0530] INFO [sqlalchemy.engine.Engine._execute_context:1772] select current_schema()
[2022-08-02T18:30:27:1659445227 IST+0530] INFO [sqlalchemy.engine.Engine._execute_context:1777] [raw sql] ()
[2022-08-02T18:30:28:1659445228 IST+0530] INFO [sqlalchemy.engine.Engine._execute_context:1772] show standard_conforming_strings
[2022-08-02T18:30:28:1659445228 IST+0530] INFO [sqlalchemy.engine.Engine._execute_context:1777] [raw sql] ()
[2022-08-02T18:30:28:1659445228 IST+0530] INFO [sqlalchemy.engine.Engine._begin_impl:953] BEGIN (implicit)
[2022-08-02T18:30:28:1659445228 IST+0530] INFO [sqlalchemy.engine.Engine._execute_context:1772] select relname from pg_class c join pg_namespace n on n.oid=c.relnamespace where pg_catalog.pg_table_is_visible(c.oid) and relname=%s
[2022-08-02T18:30:28:1659445228 IST+0530] INFO [sqlalchemy.engine.Engine._execute_context:1777] [generated in 0.00145s] ('tbl_users',)
[2022-08-02T18:30:28:1659445228 IST+0530] INFO [sqlalchemy.engine.Engine._execute_context:1772] select relname from pg_class c join pg_namespace n on n.oid=c.relnamespace where pg_catalog.pg_table_is_visible(c.oid) and relname=%s
[2022-08-02T18:30:28:1659445228 IST+0530] INFO [sqlalchemy.engine.Engine._execute_context:1777] [cached since 0.2989s ago] ('tbl_userlog',)
[2022-08-02T18:30:28:1659445228 IST+0530] INFO [sqlalchemy.engine.Engine._execute_context:1772] select relname from pg_class c join pg_namespace n on n.oid=c.relnamespace where pg_catalog.pg_table_is_visible(c.oid) and relname=%s
[2022-08-02T18:30:28:1659445228 IST+0530] INFO [sqlalchemy.engine.Engine._execute_context:1777] [cached since 0.3564s ago] ('tbl_invalid_tokens',)
[2022-08-02T18:30:28:1659445228 IST+0530] INFO [sqlalchemy.engine.Engine._execute_context:1772] 
CREATE TABLE tbl_users (
	login_name VARCHAR NOT NULL, 
	hashed_password VARCHAR NOT NULL, 
	roles VARCHAR[] DEFAULT ARRAY['guest'] NOT NULL, 
	is_active BOOLEAN DEFAULT 't' NOT NULL, 
	PRIMARY KEY (login_name)
)


[2022-08-02T18:30:28:1659445228 IST+0530] INFO [sqlalchemy.engine.Engine._execute_context:1777] [no key 0.00026s] ()
[2022-08-02T18:30:30:1659445230 IST+0530] INFO [sqlalchemy.engine.Engine._execute_context:1772] 
CREATE TABLE tbl_userlog (
	login_name VARCHAR NOT NULL, 
	log_datetime TIMESTAMP WITHOUT TIME ZONE NOT NULL, 
	log_payload JSONB NOT NULL, 
	PRIMARY KEY (login_name, log_datetime)
)


[2022-08-02T18:30:30:1659445230 IST+0530] INFO [sqlalchemy.engine.Engine._execute_context:1777] [no key 0.00044s] ()
[2022-08-02T18:30:31:1659445231 IST+0530] INFO [sqlalchemy.engine.Engine._execute_context:1772] 
CREATE TABLE tbl_invalid_tokens (
	token VARCHAR NOT NULL, 
	token_logout_datetime TIMESTAMP WITHOUT TIME ZONE NOT NULL, 
	token_logout_source VARCHAR NOT NULL, 
	PRIMARY KEY (token)
)


[2022-08-02T18:30:31:1659445231 IST+0530] INFO [sqlalchemy.engine.Engine._execute_context:1777] [no key 0.00028s] ()
[2022-08-02T18:30:31:1659445231 IST+0530] INFO [sqlalchemy.engine.Engine._commit_impl:1013] COMMIT
[2022-08-02T18:30:31:1659445231 IST+0530] INFO [uvicorn.error.startup:61] Application startup complete.
[2022-08-02T18:35:24:1659445524 IST+0530] WARNING [uvicorn.error.run:47] StatReload detected changes in 'src/service/auth_service.py'. Reloading...
[2022-08-02T18:35:24:1659445524 IST+0530] INFO [uvicorn.error.shutdown:253] Shutting down
[2022-08-02T18:35:24:1659445524 IST+0530] INFO [uvicorn.error.shutdown:66] Waiting for application shutdown.
[2022-08-02T18:35:24:1659445524 IST+0530] ERROR [uvicorn.error.send:134] Traceback (most recent call last):
  File "/home/p_116749/projects/python/americana/idp/.venv/lib/python3.9/site-packages/starlette/datastructures.py", line 690, in __getattr__
    return self._state[key]
KeyError: 'engine'

During handling of the above exception, another exception occurred:

Traceback (most recent call last):
  File "/home/p_116749/projects/python/americana/idp/.venv/lib/python3.9/site-packages/starlette/routing.py", line 638, in lifespan
    await receive()
  File "/home/p_116749/projects/python/americana/idp/.venv/lib/python3.9/site-packages/starlette/routing.py", line 533, in __aexit__
    await self._router.shutdown()
  File "/home/p_116749/projects/python/americana/idp/.venv/lib/python3.9/site-packages/starlette/routing.py", line 622, in shutdown
    await handler()
  File "/home/p_116749/projects/python/americana/idp/main.py", line 59, in shutdown
    await api_app.state.engine.dispose()
  File "/home/p_116749/projects/python/americana/idp/.venv/lib/python3.9/site-packages/starlette/datastructures.py", line 693, in __getattr__
    raise AttributeError(message.format(self.__class__.__name__, key))
AttributeError: 'State' object has no attribute 'engine'

[2022-08-02T18:35:24:1659445524 IST+0530] ERROR [uvicorn.error.shutdown:74] Application shutdown failed. Exiting.
[2022-08-02T18:35:24:1659445524 IST+0530] INFO [uvicorn.error.serve:85] Finished server process [2057]
[2022-08-02T18:35:26:1659445526 IST+0530] WARNING [uvicorn.error.run:47] StatReload detected changes in 'src/service/auth_service.py'. Reloading...
[2022-08-02T18:35:30:1659445530 IST+0530] WARNING [uvicorn.error.run:47] StatReload detected changes in 'src/service/auth_service.py'. Reloading...
[2022-08-02T18:35:34:1659445534 IST+0530] WARNING [uvicorn.error.run:47] StatReload detected changes in 'src/service/auth_service.py'. Reloading...
[2022-08-02T18:35:36:1659445536 IST+0530] WARNING [uvicorn.error.run:47] StatReload detected changes in 'src/service/auth_service.py'. Reloading...
[2022-08-02T18:35:50:1659445550 IST+0530] WARNING [uvicorn.error.run:47] StatReload detected changes in 'src/service/auth_service.py'. Reloading...
[2022-08-02T18:35:53:1659445553 IST+0530] WARNING [uvicorn.error.run:47] StatReload detected changes in 'src/service/auth_service.py'. Reloading...
[2022-08-02T18:35:54:1659445554 IST+0530] WARNING [uvicorn.error.run:47] StatReload detected changes in 'src/service/auth_service.py'. Reloading...
[2022-08-02T18:35:57:1659445557 IST+0530] WARNING [uvicorn.error.run:47] StatReload detected changes in 'src/service/auth_service.py'. Reloading...
[2022-08-02T18:36:05:1659445565 IST+0530] WARNING [uvicorn.error.run:47] StatReload detected changes in 'src/service/auth_service.py'. Reloading...
[2022-08-02T18:36:05:1659445565 IST+0530] INFO [root.__init_application:29] creating API service and Web Site
[2022-08-02T18:36:05:1659445565 IST+0530] INFO [root.__init_routes:19] initializing all routes
[2022-08-02T18:36:05:1659445565 IST+0530] DEBUG [asyncio.__init__:59] Using selector: EpollSelector
[2022-08-02T18:36:05:1659445565 IST+0530] INFO [root.__init_application:29] creating API service and Web Site
[2022-08-02T18:36:05:1659445565 IST+0530] INFO [root.__init_routes:19] initializing all routes
[2022-08-02T18:36:05:1659445565 IST+0530] INFO [uvicorn.error.serve:75] Started server process [2090]
[2022-08-02T18:36:05:1659445565 IST+0530] INFO [uvicorn.error.startup:47] Waiting for application startup.
[2022-08-02T18:36:06:1659445566 IST+0530] INFO [sqlalchemy.engine.Engine._execute_context:1772] select pg_catalog.version()
[2022-08-02T18:36:06:1659445566 IST+0530] INFO [sqlalchemy.engine.Engine._execute_context:1777] [raw sql] ()
[2022-08-02T18:36:07:1659445567 IST+0530] WARNING [uvicorn.error.run:47] StatReload detected changes in 'src/service/auth_service.py'. Reloading...
[2022-08-02T18:36:07:1659445567 IST+0530] INFO [sqlalchemy.engine.Engine._execute_context:1772] select current_schema()
[2022-08-02T18:36:07:1659445567 IST+0530] INFO [sqlalchemy.engine.Engine._execute_context:1777] [raw sql] ()
[2022-08-02T18:36:07:1659445567 IST+0530] INFO [sqlalchemy.engine.Engine._execute_context:1772] show standard_conforming_strings
[2022-08-02T18:36:07:1659445567 IST+0530] INFO [sqlalchemy.engine.Engine._execute_context:1777] [raw sql] ()
[2022-08-02T18:36:07:1659445567 IST+0530] INFO [sqlalchemy.engine.Engine._begin_impl:953] BEGIN (implicit)
[2022-08-02T18:36:07:1659445567 IST+0530] INFO [sqlalchemy.engine.Engine._execute_context:1772] select relname from pg_class c join pg_namespace n on n.oid=c.relnamespace where pg_catalog.pg_table_is_visible(c.oid) and relname=%s
[2022-08-02T18:36:07:1659445567 IST+0530] INFO [sqlalchemy.engine.Engine._execute_context:1777] [generated in 0.00117s] ('tbl_users',)
[2022-08-02T18:36:07:1659445567 IST+0530] INFO [sqlalchemy.engine.Engine._execute_context:1772] select relname from pg_class c join pg_namespace n on n.oid=c.relnamespace where pg_catalog.pg_table_is_visible(c.oid) and relname=%s
[2022-08-02T18:36:07:1659445567 IST+0530] INFO [sqlalchemy.engine.Engine._execute_context:1777] [cached since 0.2448s ago] ('tbl_userlog',)
[2022-08-02T18:36:07:1659445567 IST+0530] INFO [sqlalchemy.engine.Engine._execute_context:1772] select relname from pg_class c join pg_namespace n on n.oid=c.relnamespace where pg_catalog.pg_table_is_visible(c.oid) and relname=%s
[2022-08-02T18:36:07:1659445567 IST+0530] INFO [sqlalchemy.engine.Engine._execute_context:1777] [cached since 0.2989s ago] ('tbl_invalid_tokens',)
[2022-08-02T18:36:07:1659445567 IST+0530] INFO [sqlalchemy.engine.Engine._commit_impl:1013] COMMIT
[2022-08-02T18:36:08:1659445568 IST+0530] INFO [uvicorn.error.startup:61] Application startup complete.
[2022-08-02T18:36:08:1659445568 IST+0530] ERROR [uvicorn.error.send:134] Traceback (most recent call last):
  File "/home/p_116749/projects/python/americana/idp/.venv/lib/python3.9/site-packages/starlette/routing.py", line 638, in lifespan
    await receive()
  File "/home/p_116749/projects/python/americana/idp/.venv/lib/python3.9/site-packages/uvicorn/lifespan/on.py", line 137, in receive
    return await self.receive_queue.get()
  File "/usr/lib/python3.9/asyncio/queues.py", line 166, in get
    await getter
asyncio.exceptions.CancelledError

During handling of the above exception, another exception occurred:

Traceback (most recent call last):
  File "/home/p_116749/projects/python/americana/idp/.venv/lib/python3.9/site-packages/starlette/datastructures.py", line 690, in __getattr__
    return self._state[key]
KeyError: 'engine'

During handling of the above exception, another exception occurred:

Traceback (most recent call last):
  File "/home/p_116749/projects/python/americana/idp/.venv/lib/python3.9/site-packages/starlette/routing.py", line 638, in lifespan
    await receive()
  File "/home/p_116749/projects/python/americana/idp/.venv/lib/python3.9/site-packages/starlette/routing.py", line 533, in __aexit__
    await self._router.shutdown()
  File "/home/p_116749/projects/python/americana/idp/.venv/lib/python3.9/site-packages/starlette/routing.py", line 622, in shutdown
    await handler()
  File "/home/p_116749/projects/python/americana/idp/main.py", line 59, in shutdown
    await api_app.state.engine.dispose()
  File "/home/p_116749/projects/python/americana/idp/.venv/lib/python3.9/site-packages/starlette/datastructures.py", line 693, in __getattr__
    raise AttributeError(message.format(self.__class__.__name__, key))
AttributeError: 'State' object has no attribute 'engine'

[2022-08-02T18:36:08:1659445568 IST+0530] INFO [root.__init_application:29] creating API service and Web Site
[2022-08-02T18:36:08:1659445568 IST+0530] INFO [root.__init_routes:19] initializing all routes
[2022-08-02T18:36:08:1659445568 IST+0530] DEBUG [asyncio.__init__:59] Using selector: EpollSelector
[2022-08-02T18:36:08:1659445568 IST+0530] INFO [root.__init_application:29] creating API service and Web Site
[2022-08-02T18:36:08:1659445568 IST+0530] INFO [root.__init_routes:19] initializing all routes
[2022-08-02T18:36:08:1659445568 IST+0530] INFO [uvicorn.error.serve:75] Started server process [2093]
[2022-08-02T18:36:08:1659445568 IST+0530] INFO [uvicorn.error.startup:47] Waiting for application startup.
[2022-08-02T18:36:09:1659445569 IST+0530] INFO [sqlalchemy.engine.Engine._execute_context:1772] select pg_catalog.version()
[2022-08-02T18:36:09:1659445569 IST+0530] INFO [sqlalchemy.engine.Engine._execute_context:1777] [raw sql] ()
[2022-08-02T18:36:09:1659445569 IST+0530] INFO [sqlalchemy.engine.Engine._execute_context:1772] select current_schema()
[2022-08-02T18:36:09:1659445569 IST+0530] INFO [sqlalchemy.engine.Engine._execute_context:1777] [raw sql] ()
[2022-08-02T18:36:10:1659445570 IST+0530] INFO [sqlalchemy.engine.Engine._execute_context:1772] show standard_conforming_strings
[2022-08-02T18:36:10:1659445570 IST+0530] INFO [sqlalchemy.engine.Engine._execute_context:1777] [raw sql] ()
[2022-08-02T18:36:10:1659445570 IST+0530] INFO [sqlalchemy.engine.Engine._begin_impl:953] BEGIN (implicit)
[2022-08-02T18:36:10:1659445570 IST+0530] INFO [sqlalchemy.engine.Engine._execute_context:1772] select relname from pg_class c join pg_namespace n on n.oid=c.relnamespace where pg_catalog.pg_table_is_visible(c.oid) and relname=%s
[2022-08-02T18:36:10:1659445570 IST+0530] INFO [sqlalchemy.engine.Engine._execute_context:1777] [generated in 0.00126s] ('tbl_users',)
[2022-08-02T18:36:10:1659445570 IST+0530] INFO [sqlalchemy.engine.Engine._execute_context:1772] select relname from pg_class c join pg_namespace n on n.oid=c.relnamespace where pg_catalog.pg_table_is_visible(c.oid) and relname=%s
[2022-08-02T18:36:10:1659445570 IST+0530] INFO [sqlalchemy.engine.Engine._execute_context:1777] [cached since 0.1711s ago] ('tbl_userlog',)
[2022-08-02T18:36:10:1659445570 IST+0530] INFO [sqlalchemy.engine.Engine._execute_context:1772] select relname from pg_class c join pg_namespace n on n.oid=c.relnamespace where pg_catalog.pg_table_is_visible(c.oid) and relname=%s
[2022-08-02T18:36:10:1659445570 IST+0530] INFO [sqlalchemy.engine.Engine._execute_context:1777] [cached since 0.2281s ago] ('tbl_invalid_tokens',)
[2022-08-02T18:36:10:1659445570 IST+0530] INFO [sqlalchemy.engine.Engine._commit_impl:1013] COMMIT
[2022-08-02T18:36:10:1659445570 IST+0530] INFO [uvicorn.error.startup:61] Application startup complete.
[2022-08-02T18:36:17:1659445577 IST+0530] WARNING [uvicorn.error.run:47] StatReload detected changes in 'src/service/auth_service.py'. Reloading...
[2022-08-02T18:36:17:1659445577 IST+0530] INFO [uvicorn.error.shutdown:253] Shutting down
[2022-08-02T18:36:17:1659445577 IST+0530] INFO [uvicorn.error.shutdown:66] Waiting for application shutdown.
[2022-08-02T18:36:17:1659445577 IST+0530] ERROR [uvicorn.error.send:134] Traceback (most recent call last):
  File "/home/p_116749/projects/python/americana/idp/.venv/lib/python3.9/site-packages/starlette/datastructures.py", line 690, in __getattr__
    return self._state[key]
KeyError: 'engine'

During handling of the above exception, another exception occurred:

Traceback (most recent call last):
  File "/home/p_116749/projects/python/americana/idp/.venv/lib/python3.9/site-packages/starlette/routing.py", line 638, in lifespan
    await receive()
  File "/home/p_116749/projects/python/americana/idp/.venv/lib/python3.9/site-packages/starlette/routing.py", line 533, in __aexit__
    await self._router.shutdown()
  File "/home/p_116749/projects/python/americana/idp/.venv/lib/python3.9/site-packages/starlette/routing.py", line 622, in shutdown
    await handler()
  File "/home/p_116749/projects/python/americana/idp/main.py", line 59, in shutdown
    await api_app.state.engine.dispose()
  File "/home/p_116749/projects/python/americana/idp/.venv/lib/python3.9/site-packages/starlette/datastructures.py", line 693, in __getattr__
    raise AttributeError(message.format(self.__class__.__name__, key))
AttributeError: 'State' object has no attribute 'engine'

[2022-08-02T18:36:17:1659445577 IST+0530] ERROR [uvicorn.error.shutdown:74] Application shutdown failed. Exiting.
[2022-08-02T18:36:17:1659445577 IST+0530] INFO [uvicorn.error.serve:85] Finished server process [2093]
[2022-08-02T18:36:17:1659445577 IST+0530] INFO [root.__init_application:29] creating API service and Web Site
[2022-08-02T18:36:17:1659445577 IST+0530] INFO [root.__init_routes:19] initializing all routes
[2022-08-02T18:36:17:1659445577 IST+0530] DEBUG [asyncio.__init__:59] Using selector: EpollSelector
[2022-08-02T18:36:17:1659445577 IST+0530] INFO [root.__init_application:29] creating API service and Web Site
[2022-08-02T18:36:17:1659445577 IST+0530] INFO [root.__init_routes:19] initializing all routes
[2022-08-02T18:36:17:1659445577 IST+0530] INFO [uvicorn.error.serve:75] Started server process [2096]
[2022-08-02T18:36:17:1659445577 IST+0530] INFO [uvicorn.error.startup:47] Waiting for application startup.
[2022-08-02T18:36:18:1659445578 IST+0530] INFO [sqlalchemy.engine.Engine._execute_context:1772] select pg_catalog.version()
[2022-08-02T18:36:18:1659445578 IST+0530] INFO [sqlalchemy.engine.Engine._execute_context:1777] [raw sql] ()
[2022-08-02T18:36:18:1659445578 IST+0530] INFO [sqlalchemy.engine.Engine._execute_context:1772] select current_schema()
[2022-08-02T18:36:18:1659445578 IST+0530] INFO [sqlalchemy.engine.Engine._execute_context:1777] [raw sql] ()
[2022-08-02T18:36:19:1659445579 IST+0530] INFO [sqlalchemy.engine.Engine._execute_context:1772] show standard_conforming_strings
[2022-08-02T18:36:19:1659445579 IST+0530] INFO [sqlalchemy.engine.Engine._execute_context:1777] [raw sql] ()
[2022-08-02T18:36:19:1659445579 IST+0530] INFO [sqlalchemy.engine.Engine._begin_impl:953] BEGIN (implicit)
[2022-08-02T18:36:19:1659445579 IST+0530] INFO [sqlalchemy.engine.Engine._execute_context:1772] select relname from pg_class c join pg_namespace n on n.oid=c.relnamespace where pg_catalog.pg_table_is_visible(c.oid) and relname=%s
[2022-08-02T18:36:19:1659445579 IST+0530] INFO [sqlalchemy.engine.Engine._execute_context:1777] [generated in 0.00030s] ('tbl_users',)
[2022-08-02T18:36:19:1659445579 IST+0530] INFO [sqlalchemy.engine.Engine._execute_context:1772] select relname from pg_class c join pg_namespace n on n.oid=c.relnamespace where pg_catalog.pg_table_is_visible(c.oid) and relname=%s
[2022-08-02T18:36:19:1659445579 IST+0530] INFO [sqlalchemy.engine.Engine._execute_context:1777] [cached since 0.1755s ago] ('tbl_userlog',)
[2022-08-02T18:36:19:1659445579 IST+0530] INFO [sqlalchemy.engine.Engine._execute_context:1772] select relname from pg_class c join pg_namespace n on n.oid=c.relnamespace where pg_catalog.pg_table_is_visible(c.oid) and relname=%s
[2022-08-02T18:36:19:1659445579 IST+0530] INFO [sqlalchemy.engine.Engine._execute_context:1777] [cached since 0.2328s ago] ('tbl_invalid_tokens',)
[2022-08-02T18:36:19:1659445579 IST+0530] INFO [sqlalchemy.engine.Engine._commit_impl:1013] COMMIT
[2022-08-02T18:36:19:1659445579 IST+0530] INFO [uvicorn.error.startup:61] Application startup complete.
[2022-08-02T18:36:32:1659445592 IST+0530] WARNING [uvicorn.error.run:47] StatReload detected changes in 'src/service/auth_service.py'. Reloading...
[2022-08-02T18:36:32:1659445592 IST+0530] INFO [uvicorn.error.shutdown:253] Shutting down
[2022-08-02T18:36:33:1659445593 IST+0530] INFO [uvicorn.error.shutdown:66] Waiting for application shutdown.
[2022-08-02T18:36:33:1659445593 IST+0530] ERROR [uvicorn.error.send:134] Traceback (most recent call last):
  File "/home/p_116749/projects/python/americana/idp/.venv/lib/python3.9/site-packages/starlette/datastructures.py", line 690, in __getattr__
    return self._state[key]
KeyError: 'engine'

During handling of the above exception, another exception occurred:

Traceback (most recent call last):
  File "/home/p_116749/projects/python/americana/idp/.venv/lib/python3.9/site-packages/starlette/routing.py", line 638, in lifespan
    await receive()
  File "/home/p_116749/projects/python/americana/idp/.venv/lib/python3.9/site-packages/starlette/routing.py", line 533, in __aexit__
    await self._router.shutdown()
  File "/home/p_116749/projects/python/americana/idp/.venv/lib/python3.9/site-packages/starlette/routing.py", line 622, in shutdown
    await handler()
  File "/home/p_116749/projects/python/americana/idp/main.py", line 59, in shutdown
    await api_app.state.engine.dispose()
  File "/home/p_116749/projects/python/americana/idp/.venv/lib/python3.9/site-packages/starlette/datastructures.py", line 693, in __getattr__
    raise AttributeError(message.format(self.__class__.__name__, key))
AttributeError: 'State' object has no attribute 'engine'

[2022-08-02T18:36:33:1659445593 IST+0530] ERROR [uvicorn.error.shutdown:74] Application shutdown failed. Exiting.
[2022-08-02T18:36:33:1659445593 IST+0530] INFO [uvicorn.error.serve:85] Finished server process [2096]
[2022-08-02T18:36:33:1659445593 IST+0530] INFO [root.__init_application:29] creating API service and Web Site
[2022-08-02T18:36:33:1659445593 IST+0530] INFO [root.__init_routes:19] initializing all routes
[2022-08-02T18:36:33:1659445593 IST+0530] DEBUG [asyncio.__init__:59] Using selector: EpollSelector
[2022-08-02T18:36:33:1659445593 IST+0530] INFO [root.__init_application:29] creating API service and Web Site
[2022-08-02T18:36:33:1659445593 IST+0530] INFO [root.__init_routes:19] initializing all routes
[2022-08-02T18:36:33:1659445593 IST+0530] INFO [uvicorn.error.serve:75] Started server process [2099]
[2022-08-02T18:36:33:1659445593 IST+0530] INFO [uvicorn.error.startup:47] Waiting for application startup.
[2022-08-02T18:36:34:1659445594 IST+0530] INFO [sqlalchemy.engine.Engine._execute_context:1772] select pg_catalog.version()
[2022-08-02T18:36:34:1659445594 IST+0530] INFO [sqlalchemy.engine.Engine._execute_context:1777] [raw sql] ()
[2022-08-02T18:36:35:1659445595 IST+0530] INFO [sqlalchemy.engine.Engine._execute_context:1772] select current_schema()
[2022-08-02T18:36:35:1659445595 IST+0530] INFO [sqlalchemy.engine.Engine._execute_context:1777] [raw sql] ()
[2022-08-02T18:36:35:1659445595 IST+0530] INFO [sqlalchemy.engine.Engine._execute_context:1772] show standard_conforming_strings
[2022-08-02T18:36:35:1659445595 IST+0530] INFO [sqlalchemy.engine.Engine._execute_context:1777] [raw sql] ()
[2022-08-02T18:36:35:1659445595 IST+0530] INFO [sqlalchemy.engine.Engine._begin_impl:953] BEGIN (implicit)
[2022-08-02T18:36:35:1659445595 IST+0530] INFO [sqlalchemy.engine.Engine._execute_context:1772] select relname from pg_class c join pg_namespace n on n.oid=c.relnamespace where pg_catalog.pg_table_is_visible(c.oid) and relname=%s
[2022-08-02T18:36:35:1659445595 IST+0530] INFO [sqlalchemy.engine.Engine._execute_context:1777] [generated in 0.00019s] ('tbl_users',)
[2022-08-02T18:36:35:1659445595 IST+0530] INFO [sqlalchemy.engine.Engine._execute_context:1772] select relname from pg_class c join pg_namespace n on n.oid=c.relnamespace where pg_catalog.pg_table_is_visible(c.oid) and relname=%s
[2022-08-02T18:36:35:1659445595 IST+0530] INFO [sqlalchemy.engine.Engine._execute_context:1777] [cached since 0.2281s ago] ('tbl_userlog',)
[2022-08-02T18:36:35:1659445595 IST+0530] INFO [sqlalchemy.engine.Engine._execute_context:1772] select relname from pg_class c join pg_namespace n on n.oid=c.relnamespace where pg_catalog.pg_table_is_visible(c.oid) and relname=%s
[2022-08-02T18:36:35:1659445595 IST+0530] INFO [sqlalchemy.engine.Engine._execute_context:1777] [cached since 0.2828s ago] ('tbl_invalid_tokens',)
[2022-08-02T18:36:35:1659445595 IST+0530] INFO [sqlalchemy.engine.Engine._commit_impl:1013] COMMIT
[2022-08-02T18:36:35:1659445595 IST+0530] INFO [uvicorn.error.startup:61] Application startup complete.
[2022-08-02T18:36:57:1659445617 IST+0530] INFO [uvicorn.error.shutdown:253] Shutting down
[2022-08-02T18:36:57:1659445617 IST+0530] INFO [uvicorn.error.shutdown:66] Waiting for application shutdown.
[2022-08-02T18:36:57:1659445617 IST+0530] ERROR [uvicorn.error.send:134] Traceback (most recent call last):
  File "/home/p_116749/projects/python/americana/idp/.venv/lib/python3.9/site-packages/starlette/datastructures.py", line 690, in __getattr__
    return self._state[key]
KeyError: 'engine'

During handling of the above exception, another exception occurred:

Traceback (most recent call last):
  File "/home/p_116749/projects/python/americana/idp/.venv/lib/python3.9/site-packages/starlette/routing.py", line 638, in lifespan
    await receive()
  File "/home/p_116749/projects/python/americana/idp/.venv/lib/python3.9/site-packages/starlette/routing.py", line 533, in __aexit__
    await self._router.shutdown()
  File "/home/p_116749/projects/python/americana/idp/.venv/lib/python3.9/site-packages/starlette/routing.py", line 622, in shutdown
    await handler()
  File "/home/p_116749/projects/python/americana/idp/main.py", line 59, in shutdown
    await api_app.state.engine.dispose()
  File "/home/p_116749/projects/python/americana/idp/.venv/lib/python3.9/site-packages/starlette/datastructures.py", line 693, in __getattr__
    raise AttributeError(message.format(self.__class__.__name__, key))
AttributeError: 'State' object has no attribute 'engine'

[2022-08-02T18:36:57:1659445617 IST+0530] ERROR [uvicorn.error.shutdown:74] Application shutdown failed. Exiting.
[2022-08-02T18:36:57:1659445617 IST+0530] INFO [uvicorn.error.serve:85] Finished server process [2099]
[2022-08-02T18:36:57:1659445617 IST+0530] INFO [uvicorn.error.shutdown:103] Stopping reloader process [2055]
[2022-08-02T18:37:10:1659445630 IST+0530] INFO [root.__init_application:29] creating API service and Web Site
[2022-08-02T18:37:10:1659445630 IST+0530] INFO [root.__init_routes:19] initializing all routes
[2022-08-02T18:37:10:1659445630 IST+0530] INFO [uvicorn.error.__init__:359] Will watch for changes in these directories: ['/home/p_116749/projects/python/americana/idp']
[2022-08-02T18:37:10:1659445630 IST+0530] INFO [uvicorn.error.bind_socket:585] Uvicorn running on http://0.0.0.0:9091 (Press CTRL+C to quit)
[2022-08-02T18:37:10:1659445630 IST+0530] INFO [uvicorn.error.startup:72] Started reloader process [2104] using StatReload
[2022-08-02T18:37:10:1659445630 IST+0530] INFO [root.__init_application:29] creating API service and Web Site
[2022-08-02T18:37:10:1659445630 IST+0530] INFO [root.__init_routes:19] initializing all routes
[2022-08-02T18:37:10:1659445630 IST+0530] DEBUG [asyncio.__init__:59] Using selector: EpollSelector
[2022-08-02T18:37:10:1659445630 IST+0530] INFO [root.__init_application:29] creating API service and Web Site
[2022-08-02T18:37:10:1659445630 IST+0530] INFO [root.__init_routes:19] initializing all routes
[2022-08-02T18:37:10:1659445630 IST+0530] INFO [uvicorn.error.serve:75] Started server process [2106]
[2022-08-02T18:37:10:1659445630 IST+0530] INFO [uvicorn.error.startup:47] Waiting for application startup.
[2022-08-02T18:37:11:1659445631 IST+0530] INFO [sqlalchemy.engine.Engine._execute_context:1772] select pg_catalog.version()
[2022-08-02T18:37:11:1659445631 IST+0530] INFO [sqlalchemy.engine.Engine._execute_context:1777] [raw sql] ()
[2022-08-02T18:37:12:1659445632 IST+0530] INFO [sqlalchemy.engine.Engine._execute_context:1772] select current_schema()
[2022-08-02T18:37:12:1659445632 IST+0530] INFO [sqlalchemy.engine.Engine._execute_context:1777] [raw sql] ()
[2022-08-02T18:37:12:1659445632 IST+0530] INFO [sqlalchemy.engine.Engine._execute_context:1772] show standard_conforming_strings
[2022-08-02T18:37:12:1659445632 IST+0530] INFO [sqlalchemy.engine.Engine._execute_context:1777] [raw sql] ()
[2022-08-02T18:37:12:1659445632 IST+0530] INFO [sqlalchemy.engine.Engine._begin_impl:953] BEGIN (implicit)
[2022-08-02T18:37:12:1659445632 IST+0530] INFO [sqlalchemy.engine.Engine._execute_context:1772] select relname from pg_class c join pg_namespace n on n.oid=c.relnamespace where pg_catalog.pg_table_is_visible(c.oid) and relname=%s
[2022-08-02T18:37:12:1659445632 IST+0530] INFO [sqlalchemy.engine.Engine._execute_context:1777] [generated in 0.00029s] ('tbl_users',)
[2022-08-02T18:37:12:1659445632 IST+0530] INFO [sqlalchemy.engine.Engine._execute_context:1772] select relname from pg_class c join pg_namespace n on n.oid=c.relnamespace where pg_catalog.pg_table_is_visible(c.oid) and relname=%s
[2022-08-02T18:37:12:1659445632 IST+0530] INFO [sqlalchemy.engine.Engine._execute_context:1777] [cached since 0.2408s ago] ('tbl_userlog',)
[2022-08-02T18:37:12:1659445632 IST+0530] INFO [sqlalchemy.engine.Engine._execute_context:1772] select relname from pg_class c join pg_namespace n on n.oid=c.relnamespace where pg_catalog.pg_table_is_visible(c.oid) and relname=%s
[2022-08-02T18:37:12:1659445632 IST+0530] INFO [sqlalchemy.engine.Engine._execute_context:1777] [cached since 0.3002s ago] ('tbl_invalid_tokens',)
[2022-08-02T18:37:12:1659445632 IST+0530] INFO [sqlalchemy.engine.Engine._commit_impl:1013] COMMIT
[2022-08-02T18:37:13:1659445633 IST+0530] INFO [uvicorn.error.startup:61] Application startup complete.
[2022-08-02T18:37:23:1659445643 IST+0530] DEBUG [passlib.handlers.bcrypt._load_backend_mixin:625] detected 'bcrypt' backend, version '3.2.2'
[2022-08-02T18:37:23:1659445643 IST+0530] DEBUG [passlib.handlers.bcrypt._finalize_backend_mixin:406] 'bcrypt' backend lacks $2$ support, enabling workaround
[2022-08-02T18:37:24:1659445644 IST+0530] ERROR [root.create_new_registration:51] EXCEPTION: user.py->create_new_registration(): 'async_generator' object has no attribute 'add'
Traceback (most recent call last):
  File "/home/p_116749/projects/python/americana/idp/src/repository/user.py", line 31, in create_new_registration
    session.add(new_user)
AttributeError: 'async_generator' object has no attribute 'add'
[2022-08-02T18:37:24:1659445644 IST+0530] CRITICAL [root.register_user:123] EXCEPTION-auth_service:register_user(): 
[2022-08-02T18:38:28:1659445708 IST+0530] INFO [uvicorn.error.shutdown:253] Shutting down
[2022-08-02T18:38:28:1659445708 IST+0530] INFO [uvicorn.error.shutdown:66] Waiting for application shutdown.
[2022-08-02T18:38:28:1659445708 IST+0530] ERROR [uvicorn.error.send:134] Traceback (most recent call last):
  File "/home/p_116749/projects/python/americana/idp/.venv/lib/python3.9/site-packages/starlette/datastructures.py", line 690, in __getattr__
    return self._state[key]
KeyError: 'engine'

During handling of the above exception, another exception occurred:

Traceback (most recent call last):
  File "/home/p_116749/projects/python/americana/idp/.venv/lib/python3.9/site-packages/starlette/routing.py", line 638, in lifespan
    await receive()
  File "/home/p_116749/projects/python/americana/idp/.venv/lib/python3.9/site-packages/starlette/routing.py", line 533, in __aexit__
    await self._router.shutdown()
  File "/home/p_116749/projects/python/americana/idp/.venv/lib/python3.9/site-packages/starlette/routing.py", line 622, in shutdown
    await handler()
  File "/home/p_116749/projects/python/americana/idp/main.py", line 59, in shutdown
    await api_app.state.engine.dispose()
  File "/home/p_116749/projects/python/americana/idp/.venv/lib/python3.9/site-packages/starlette/datastructures.py", line 693, in __getattr__
    raise AttributeError(message.format(self.__class__.__name__, key))
AttributeError: 'State' object has no attribute 'engine'

[2022-08-02T18:38:28:1659445708 IST+0530] ERROR [uvicorn.error.shutdown:74] Application shutdown failed. Exiting.
[2022-08-02T18:38:28:1659445708 IST+0530] INFO [uvicorn.error.serve:85] Finished server process [2106]
[2022-08-02T18:38:28:1659445708 IST+0530] INFO [uvicorn.error.shutdown:103] Stopping reloader process [2104]
[2022-08-02T18:38:58:1659445738 IST+0530] INFO [root.__init_application:29] creating API service and Web Site
[2022-08-02T18:38:58:1659445738 IST+0530] INFO [root.__init_routes:19] initializing all routes
[2022-08-02T18:38:58:1659445738 IST+0530] INFO [uvicorn.error.serve:75] Started server process [2122]
[2022-08-02T18:38:58:1659445738 IST+0530] INFO [uvicorn.error.startup:47] Waiting for application startup.
[2022-08-02T18:38:59:1659445739 IST+0530] INFO [sqlalchemy.engine.Engine._execute_context:1772] select pg_catalog.version()
[2022-08-02T18:38:59:1659445739 IST+0530] INFO [sqlalchemy.engine.Engine._execute_context:1777] [raw sql] ()
[2022-08-02T18:38:59:1659445739 IST+0530] INFO [sqlalchemy.engine.Engine._execute_context:1772] select current_schema()
[2022-08-02T18:38:59:1659445739 IST+0530] INFO [sqlalchemy.engine.Engine._execute_context:1777] [raw sql] ()
[2022-08-02T18:39:00:1659445740 IST+0530] INFO [sqlalchemy.engine.Engine._execute_context:1772] show standard_conforming_strings
[2022-08-02T18:39:00:1659445740 IST+0530] INFO [sqlalchemy.engine.Engine._execute_context:1777] [raw sql] ()
[2022-08-02T18:39:00:1659445740 IST+0530] INFO [sqlalchemy.engine.Engine._begin_impl:953] BEGIN (implicit)
[2022-08-02T18:39:00:1659445740 IST+0530] INFO [sqlalchemy.engine.Engine._execute_context:1772] select relname from pg_class c join pg_namespace n on n.oid=c.relnamespace where pg_catalog.pg_table_is_visible(c.oid) and relname=%s
[2022-08-02T18:39:00:1659445740 IST+0530] INFO [sqlalchemy.engine.Engine._execute_context:1777] [generated in 0.00094s] ('tbl_users',)
[2022-08-02T18:39:00:1659445740 IST+0530] INFO [sqlalchemy.engine.Engine._execute_context:1772] select relname from pg_class c join pg_namespace n on n.oid=c.relnamespace where pg_catalog.pg_table_is_visible(c.oid) and relname=%s
[2022-08-02T18:39:00:1659445740 IST+0530] INFO [sqlalchemy.engine.Engine._execute_context:1777] [cached since 0.2325s ago] ('tbl_userlog',)
[2022-08-02T18:39:00:1659445740 IST+0530] INFO [sqlalchemy.engine.Engine._execute_context:1772] select relname from pg_class c join pg_namespace n on n.oid=c.relnamespace where pg_catalog.pg_table_is_visible(c.oid) and relname=%s
[2022-08-02T18:39:00:1659445740 IST+0530] INFO [sqlalchemy.engine.Engine._execute_context:1777] [cached since 0.2921s ago] ('tbl_invalid_tokens',)
[2022-08-02T18:39:00:1659445740 IST+0530] INFO [sqlalchemy.engine.Engine._commit_impl:1013] COMMIT
[2022-08-02T18:39:00:1659445740 IST+0530] INFO [uvicorn.error.startup:61] Application startup complete.
[2022-08-02T18:39:00:1659445740 IST+0530] INFO [uvicorn.error._log_started_message:207] Uvicorn running on http://127.0.0.1:9091 (Press CTRL+C to quit)
[2022-08-02T18:39:33:1659445773 IST+0530] DEBUG [passlib.handlers.bcrypt._load_backend_mixin:625] detected 'bcrypt' backend, version '3.2.2'
[2022-08-02T18:39:33:1659445773 IST+0530] DEBUG [passlib.handlers.bcrypt._finalize_backend_mixin:406] 'bcrypt' backend lacks $2$ support, enabling workaround
[2022-08-02T18:53:22:1659446602 IST+0530] INFO [root.__init_application:29] creating API service and Web Site
[2022-08-02T18:53:22:1659446602 IST+0530] INFO [root.__init_routes:19] initializing all routes
[2022-08-02T18:53:22:1659446602 IST+0530] INFO [uvicorn.error.serve:75] Started server process [2174]
[2022-08-02T18:53:22:1659446602 IST+0530] INFO [uvicorn.error.startup:47] Waiting for application startup.
[2022-08-02T18:53:23:1659446603 IST+0530] INFO [sqlalchemy.engine.Engine._execute_context:1772] select pg_catalog.version()
[2022-08-02T18:53:23:1659446603 IST+0530] INFO [sqlalchemy.engine.Engine._execute_context:1777] [raw sql] ()
[2022-08-02T18:53:23:1659446603 IST+0530] INFO [sqlalchemy.engine.Engine._execute_context:1772] select current_schema()
[2022-08-02T18:53:23:1659446603 IST+0530] INFO [sqlalchemy.engine.Engine._execute_context:1777] [raw sql] ()
[2022-08-02T18:53:23:1659446603 IST+0530] INFO [sqlalchemy.engine.Engine._execute_context:1772] show standard_conforming_strings
[2022-08-02T18:53:23:1659446603 IST+0530] INFO [sqlalchemy.engine.Engine._execute_context:1777] [raw sql] ()
[2022-08-02T18:53:24:1659446604 IST+0530] INFO [sqlalchemy.engine.Engine._begin_impl:953] BEGIN (implicit)
[2022-08-02T18:53:24:1659446604 IST+0530] INFO [sqlalchemy.engine.Engine._execute_context:1772] select relname from pg_class c join pg_namespace n on n.oid=c.relnamespace where pg_catalog.pg_table_is_visible(c.oid) and relname=%s
[2022-08-02T18:53:24:1659446604 IST+0530] INFO [sqlalchemy.engine.Engine._execute_context:1777] [generated in 0.00065s] ('tbl_users',)
[2022-08-02T18:53:24:1659446604 IST+0530] INFO [sqlalchemy.engine.Engine._execute_context:1772] select relname from pg_class c join pg_namespace n on n.oid=c.relnamespace where pg_catalog.pg_table_is_visible(c.oid) and relname=%s
[2022-08-02T18:53:24:1659446604 IST+0530] INFO [sqlalchemy.engine.Engine._execute_context:1777] [cached since 0.1671s ago] ('tbl_userlog',)
[2022-08-02T18:53:24:1659446604 IST+0530] INFO [sqlalchemy.engine.Engine._execute_context:1772] select relname from pg_class c join pg_namespace n on n.oid=c.relnamespace where pg_catalog.pg_table_is_visible(c.oid) and relname=%s
[2022-08-02T18:53:24:1659446604 IST+0530] INFO [sqlalchemy.engine.Engine._execute_context:1777] [cached since 0.2239s ago] ('tbl_invalid_tokens',)
[2022-08-02T18:53:24:1659446604 IST+0530] INFO [sqlalchemy.engine.Engine._commit_impl:1013] COMMIT
[2022-08-02T18:53:24:1659446604 IST+0530] INFO [uvicorn.error.startup:61] Application startup complete.
[2022-08-02T18:53:24:1659446604 IST+0530] INFO [uvicorn.error._log_started_message:207] Uvicorn running on http://127.0.0.1:9091 (Press CTRL+C to quit)
[2022-08-02T18:53:39:1659446619 IST+0530] DEBUG [passlib.handlers.bcrypt._load_backend_mixin:625] detected 'bcrypt' backend, version '3.2.2'
[2022-08-02T18:53:39:1659446619 IST+0530] DEBUG [passlib.handlers.bcrypt._finalize_backend_mixin:406] 'bcrypt' backend lacks $2$ support, enabling workaround
[2022-08-02T19:00:56:1659447056 IST+0530] INFO [root.__init_application:29] creating API service and Web Site
[2022-08-02T19:00:56:1659447056 IST+0530] INFO [root.__init_routes:19] initializing all routes
[2022-08-02T19:00:56:1659447056 IST+0530] INFO [uvicorn.error.serve:75] Started server process [2236]
[2022-08-02T19:00:56:1659447056 IST+0530] INFO [uvicorn.error.startup:47] Waiting for application startup.
[2022-08-02T19:00:57:1659447057 IST+0530] INFO [sqlalchemy.engine.Engine._execute_context:1772] select pg_catalog.version()
[2022-08-02T19:00:57:1659447057 IST+0530] INFO [sqlalchemy.engine.Engine._execute_context:1777] [raw sql] ()
[2022-08-02T19:00:57:1659447057 IST+0530] INFO [sqlalchemy.engine.Engine._execute_context:1772] select current_schema()
[2022-08-02T19:00:57:1659447057 IST+0530] INFO [sqlalchemy.engine.Engine._execute_context:1777] [raw sql] ()
[2022-08-02T19:00:57:1659447057 IST+0530] INFO [sqlalchemy.engine.Engine._execute_context:1772] show standard_conforming_strings
[2022-08-02T19:00:57:1659447057 IST+0530] INFO [sqlalchemy.engine.Engine._execute_context:1777] [raw sql] ()
[2022-08-02T19:00:57:1659447057 IST+0530] INFO [sqlalchemy.engine.Engine._begin_impl:953] BEGIN (implicit)
[2022-08-02T19:00:57:1659447057 IST+0530] INFO [sqlalchemy.engine.Engine._execute_context:1772] select relname from pg_class c join pg_namespace n on n.oid=c.relnamespace where pg_catalog.pg_table_is_visible(c.oid) and relname=%s
[2022-08-02T19:00:57:1659447057 IST+0530] INFO [sqlalchemy.engine.Engine._execute_context:1777] [generated in 0.00170s] ('tbl_users',)
[2022-08-02T19:00:58:1659447058 IST+0530] INFO [sqlalchemy.engine.Engine._execute_context:1772] select relname from pg_class c join pg_namespace n on n.oid=c.relnamespace where pg_catalog.pg_table_is_visible(c.oid) and relname=%s
[2022-08-02T19:00:58:1659447058 IST+0530] INFO [sqlalchemy.engine.Engine._execute_context:1777] [cached since 0.2381s ago] ('tbl_userlog',)
[2022-08-02T19:00:58:1659447058 IST+0530] INFO [sqlalchemy.engine.Engine._execute_context:1772] select relname from pg_class c join pg_namespace n on n.oid=c.relnamespace where pg_catalog.pg_table_is_visible(c.oid) and relname=%s
[2022-08-02T19:00:58:1659447058 IST+0530] INFO [sqlalchemy.engine.Engine._execute_context:1777] [cached since 0.2955s ago] ('tbl_invalid_tokens',)
[2022-08-02T19:00:58:1659447058 IST+0530] INFO [sqlalchemy.engine.Engine._commit_impl:1013] COMMIT
[2022-08-02T19:00:58:1659447058 IST+0530] INFO [uvicorn.error.startup:61] Application startup complete.
[2022-08-02T19:00:58:1659447058 IST+0530] INFO [uvicorn.error._log_started_message:207] Uvicorn running on http://127.0.0.1:9091 (Press CTRL+C to quit)
[2022-08-02T19:01:28:1659447088 IST+0530] DEBUG [passlib.handlers.bcrypt._load_backend_mixin:625] detected 'bcrypt' backend, version '3.2.2'
[2022-08-02T19:01:28:1659447088 IST+0530] DEBUG [passlib.handlers.bcrypt._finalize_backend_mixin:406] 'bcrypt' backend lacks $2$ support, enabling workaround
[2022-08-02T19:01:43:1659447103 IST+0530] INFO [sqlalchemy.engine.Engine._begin_impl:953] BEGIN (implicit)
[2022-08-02T19:01:43:1659447103 IST+0530] INFO [sqlalchemy.engine.Engine._execute_context:1772] INSERT INTO tbl_userlog (login_name, log_datetime, log_payload) VALUES (%s, %s, %s)
[2022-08-02T19:01:43:1659447103 IST+0530] INFO [sqlalchemy.engine.Engine._execute_context:1777] [generated in 0.00133s] ('driver1', datetime.datetime(2022, 8, 2, 19, 1, 23, 437592), '{"event": "new registration"}')
[2022-08-02T19:01:43:1659447103 IST+0530] INFO [sqlalchemy.engine.Engine._execute_context:1772] INSERT INTO tbl_users (login_name, hashed_password, roles, is_active) VALUES (%s, %s, %s, %s)
[2022-08-02T19:01:43:1659447103 IST+0530] INFO [sqlalchemy.engine.Engine._execute_context:1777] [generated in 0.00197s] ('driver1', '$2b$12$22T2mCv4GbaKccLYJ8YJQuGJTzHFVdgN4/O.ExD.vyRBGmHV1aW2e', ['driver'], True)
[2022-08-02T19:01:54:1659447114 IST+0530] INFO [sqlalchemy.engine.Engine._rollback_impl:981] ROLLBACK
[2022-08-02T19:09:30:1659447570 IST+0530] INFO [uvicorn.error.shutdown:253] Shutting down
[2022-08-02T19:09:30:1659447570 IST+0530] INFO [uvicorn.error.shutdown:66] Waiting for application shutdown.
[2022-08-02T19:09:33:1659447573 IST+0530] ERROR [uvicorn.error.send:134] Traceback (most recent call last):
  File "/home/p_116749/projects/python/americana/idp/.venv/lib/python3.9/site-packages/starlette/datastructures.py", line 690, in __getattr__
    return self._state[key]
KeyError: 'engine'

During handling of the above exception, another exception occurred:

Traceback (most recent call last):
  File "/home/p_116749/projects/python/americana/idp/.venv/lib/python3.9/site-packages/starlette/routing.py", line 638, in lifespan
    await receive()
  File "/home/p_116749/projects/python/americana/idp/.venv/lib/python3.9/site-packages/starlette/routing.py", line 533, in __aexit__
    await self._router.shutdown()
  File "/home/p_116749/projects/python/americana/idp/.venv/lib/python3.9/site-packages/starlette/routing.py", line 622, in shutdown
    await handler()
  File "/home/p_116749/projects/python/americana/idp/./main.py", line 59, in shutdown
    await api_app.state.engine.dispose()
  File "/home/p_116749/projects/python/americana/idp/.venv/lib/python3.9/site-packages/starlette/datastructures.py", line 693, in __getattr__
    raise AttributeError(message.format(self.__class__.__name__, key))
AttributeError: 'State' object has no attribute 'engine'

[2022-08-02T19:09:33:1659447573 IST+0530] ERROR [uvicorn.error.shutdown:74] Application shutdown failed. Exiting.
[2022-08-02T19:09:33:1659447573 IST+0530] INFO [uvicorn.error.serve:85] Finished server process [2236]
[2022-08-02T19:10:16:1659447616 IST+0530] INFO [root.__init_application:29] creating API service and Web Site
[2022-08-02T19:10:16:1659447616 IST+0530] INFO [root.__init_routes:19] initializing all routes
[2022-08-02T19:10:16:1659447616 IST+0530] INFO [uvicorn.error.__init__:359] Will watch for changes in these directories: ['/home/p_116749/projects/python/americana/idp']
[2022-08-02T19:10:16:1659447616 IST+0530] INFO [uvicorn.error.bind_socket:585] Uvicorn running on http://0.0.0.0:9091 (Press CTRL+C to quit)
[2022-08-02T19:10:16:1659447616 IST+0530] INFO [uvicorn.error.startup:72] Started reloader process [2363] using StatReload
[2022-08-02T19:10:17:1659447617 IST+0530] INFO [root.__init_application:29] creating API service and Web Site
[2022-08-02T19:10:17:1659447617 IST+0530] INFO [root.__init_routes:19] initializing all routes
[2022-08-02T19:10:17:1659447617 IST+0530] DEBUG [asyncio.__init__:59] Using selector: EpollSelector
[2022-08-02T19:10:17:1659447617 IST+0530] INFO [root.__init_application:29] creating API service and Web Site
[2022-08-02T19:10:17:1659447617 IST+0530] INFO [root.__init_routes:19] initializing all routes
[2022-08-02T19:10:17:1659447617 IST+0530] INFO [uvicorn.error.serve:75] Started server process [2365]
[2022-08-02T19:10:17:1659447617 IST+0530] INFO [uvicorn.error.startup:47] Waiting for application startup.
[2022-08-02T19:10:18:1659447618 IST+0530] INFO [sqlalchemy.engine.Engine._execute_context:1772] select pg_catalog.version()
[2022-08-02T19:10:18:1659447618 IST+0530] INFO [sqlalchemy.engine.Engine._execute_context:1777] [raw sql] ()
[2022-08-02T19:10:18:1659447618 IST+0530] INFO [sqlalchemy.engine.Engine._execute_context:1772] select current_schema()
[2022-08-02T19:10:18:1659447618 IST+0530] INFO [sqlalchemy.engine.Engine._execute_context:1777] [raw sql] ()
[2022-08-02T19:10:18:1659447618 IST+0530] INFO [sqlalchemy.engine.Engine._execute_context:1772] show standard_conforming_strings
[2022-08-02T19:10:18:1659447618 IST+0530] INFO [sqlalchemy.engine.Engine._execute_context:1777] [raw sql] ()
[2022-08-02T19:10:18:1659447618 IST+0530] INFO [sqlalchemy.engine.Engine._begin_impl:953] BEGIN (implicit)
[2022-08-02T19:10:18:1659447618 IST+0530] INFO [sqlalchemy.engine.Engine._execute_context:1772] select relname from pg_class c join pg_namespace n on n.oid=c.relnamespace where pg_catalog.pg_table_is_visible(c.oid) and relname=%s
[2022-08-02T19:10:18:1659447618 IST+0530] INFO [sqlalchemy.engine.Engine._execute_context:1777] [generated in 0.00104s] ('tbl_users',)
[2022-08-02T19:10:19:1659447619 IST+0530] INFO [sqlalchemy.engine.Engine._execute_context:1772] select relname from pg_class c join pg_namespace n on n.oid=c.relnamespace where pg_catalog.pg_table_is_visible(c.oid) and relname=%s
[2022-08-02T19:10:19:1659447619 IST+0530] INFO [sqlalchemy.engine.Engine._execute_context:1777] [cached since 0.2389s ago] ('tbl_userlog',)
[2022-08-02T19:10:19:1659447619 IST+0530] INFO [sqlalchemy.engine.Engine._execute_context:1772] select relname from pg_class c join pg_namespace n on n.oid=c.relnamespace where pg_catalog.pg_table_is_visible(c.oid) and relname=%s
[2022-08-02T19:10:19:1659447619 IST+0530] INFO [sqlalchemy.engine.Engine._execute_context:1777] [cached since 0.2948s ago] ('tbl_invalid_tokens',)
[2022-08-02T19:10:19:1659447619 IST+0530] INFO [sqlalchemy.engine.Engine._commit_impl:1013] COMMIT
[2022-08-02T19:10:19:1659447619 IST+0530] INFO [uvicorn.error.startup:61] Application startup complete.
[2022-08-02T19:10:25:1659447625 IST+0530] DEBUG [passlib.handlers.bcrypt._load_backend_mixin:625] detected 'bcrypt' backend, version '3.2.2'
[2022-08-02T19:10:25:1659447625 IST+0530] DEBUG [passlib.handlers.bcrypt._finalize_backend_mixin:406] 'bcrypt' backend lacks $2$ support, enabling workaround
[2022-08-02T19:10:25:1659447625 IST+0530] INFO [sqlalchemy.engine.Engine._begin_impl:953] BEGIN (implicit)
[2022-08-02T19:10:25:1659447625 IST+0530] INFO [sqlalchemy.engine.Engine._execute_context:1772] INSERT INTO tbl_userlog (login_name, log_datetime, log_payload) VALUES (%s, %s, %s)
[2022-08-02T19:10:25:1659447625 IST+0530] INFO [sqlalchemy.engine.Engine._execute_context:1777] [generated in 0.00038s] ('driver1', datetime.datetime(2022, 8, 2, 19, 10, 25, 216299), '{"event": "new registration"}')
[2022-08-02T19:10:25:1659447625 IST+0530] INFO [sqlalchemy.engine.Engine._execute_context:1772] INSERT INTO tbl_users (login_name, hashed_password, roles, is_active) VALUES (%s, %s, %s, %s)
[2022-08-02T19:10:25:1659447625 IST+0530] INFO [sqlalchemy.engine.Engine._execute_context:1777] [generated in 0.00037s] ('driver1', '$2b$12$BiE9rKHohCd5XxN2a6clWu1tB22RvZZXg80vLJVAX9L7kj79kXGFi', ['driver'], True)
[2022-08-02T19:10:25:1659447625 IST+0530] INFO [sqlalchemy.engine.Engine._commit_impl:1013] COMMIT
[2022-08-02T19:10:53:1659447653 IST+0530] INFO [uvicorn.error.shutdown:253] Shutting down
[2022-08-02T19:10:53:1659447653 IST+0530] INFO [uvicorn.error.shutdown:66] Waiting for application shutdown.
[2022-08-02T19:10:53:1659447653 IST+0530] INFO [uvicorn.error.shutdown:77] Application shutdown complete.
[2022-08-02T19:10:53:1659447653 IST+0530] INFO [uvicorn.error.serve:85] Finished server process [2365]
[2022-08-02T19:10:53:1659447653 IST+0530] INFO [uvicorn.error.shutdown:103] Stopping reloader process [2363]
[2022-08-02T19:27:30:1659448650 IST+0530] INFO [root.__init_application:29] creating API service and Web Site
[2022-08-02T19:27:30:1659448650 IST+0530] INFO [root.__init_routes:19] initializing all routes
[2022-08-02T19:27:30:1659448650 IST+0530] INFO [uvicorn.error.__init__:359] Will watch for changes in these directories: ['/home/p_116749/projects/python/americana/idp']
[2022-08-02T19:27:30:1659448650 IST+0530] INFO [uvicorn.error.bind_socket:585] Uvicorn running on http://0.0.0.0:9091 (Press CTRL+C to quit)
[2022-08-02T19:27:30:1659448650 IST+0530] INFO [uvicorn.error.startup:72] Started reloader process [2452] using StatReload
[2022-08-02T19:27:30:1659448650 IST+0530] INFO [root.__init_application:29] creating API service and Web Site
[2022-08-02T19:27:30:1659448650 IST+0530] INFO [root.__init_routes:19] initializing all routes
[2022-08-02T19:27:30:1659448650 IST+0530] DEBUG [asyncio.__init__:59] Using selector: EpollSelector
[2022-08-02T19:27:30:1659448650 IST+0530] INFO [root.__init_application:29] creating API service and Web Site
[2022-08-02T19:27:30:1659448650 IST+0530] INFO [root.__init_routes:19] initializing all routes
[2022-08-02T19:27:30:1659448650 IST+0530] INFO [uvicorn.error.serve:75] Started server process [2454]
[2022-08-02T19:27:30:1659448650 IST+0530] INFO [uvicorn.error.startup:47] Waiting for application startup.
[2022-08-02T19:27:31:1659448651 IST+0530] INFO [sqlalchemy.engine.Engine._execute_context:1772] select pg_catalog.version()
[2022-08-02T19:27:31:1659448651 IST+0530] INFO [sqlalchemy.engine.Engine._execute_context:1777] [raw sql] ()
[2022-08-02T19:27:31:1659448651 IST+0530] INFO [sqlalchemy.engine.Engine._execute_context:1772] select current_schema()
[2022-08-02T19:27:31:1659448651 IST+0530] INFO [sqlalchemy.engine.Engine._execute_context:1777] [raw sql] ()
[2022-08-02T19:27:32:1659448652 IST+0530] INFO [sqlalchemy.engine.Engine._execute_context:1772] show standard_conforming_strings
[2022-08-02T19:27:32:1659448652 IST+0530] INFO [sqlalchemy.engine.Engine._execute_context:1777] [raw sql] ()
[2022-08-02T19:27:32:1659448652 IST+0530] INFO [sqlalchemy.engine.Engine._begin_impl:953] BEGIN (implicit)
[2022-08-02T19:27:32:1659448652 IST+0530] INFO [sqlalchemy.engine.Engine._execute_context:1772] select relname from pg_class c join pg_namespace n on n.oid=c.relnamespace where pg_catalog.pg_table_is_visible(c.oid) and relname=%s
[2022-08-02T19:27:32:1659448652 IST+0530] INFO [sqlalchemy.engine.Engine._execute_context:1777] [generated in 0.00035s] ('tbl_users',)
[2022-08-02T19:27:32:1659448652 IST+0530] INFO [sqlalchemy.engine.Engine._execute_context:1772] select relname from pg_class c join pg_namespace n on n.oid=c.relnamespace where pg_catalog.pg_table_is_visible(c.oid) and relname=%s
[2022-08-02T19:27:32:1659448652 IST+0530] INFO [sqlalchemy.engine.Engine._execute_context:1777] [cached since 0.1743s ago] ('tbl_userlog',)
[2022-08-02T19:27:32:1659448652 IST+0530] INFO [sqlalchemy.engine.Engine._execute_context:1772] select relname from pg_class c join pg_namespace n on n.oid=c.relnamespace where pg_catalog.pg_table_is_visible(c.oid) and relname=%s
[2022-08-02T19:27:32:1659448652 IST+0530] INFO [sqlalchemy.engine.Engine._execute_context:1777] [cached since 0.2291s ago] ('tbl_invalid_tokens',)
[2022-08-02T19:27:32:1659448652 IST+0530] INFO [sqlalchemy.engine.Engine._commit_impl:1013] COMMIT
[2022-08-02T19:27:32:1659448652 IST+0530] INFO [uvicorn.error.startup:61] Application startup complete.
[2022-08-02T19:27:59:1659448679 IST+0530] DEBUG [multipart.multipart.callback:604] Calling on_field_start with no data
[2022-08-02T19:27:59:1659448679 IST+0530] DEBUG [multipart.multipart.callback:601] Calling on_field_name with data[0:10]
[2022-08-02T19:27:59:1659448679 IST+0530] DEBUG [multipart.multipart.callback:604] Calling on_field_end with no data
[2022-08-02T19:27:59:1659448679 IST+0530] DEBUG [multipart.multipart.callback:604] Calling on_field_start with no data
[2022-08-02T19:27:59:1659448679 IST+0530] DEBUG [multipart.multipart.callback:601] Calling on_field_name with data[12:20]
[2022-08-02T19:27:59:1659448679 IST+0530] DEBUG [multipart.multipart.callback:601] Calling on_field_data with data[21:28]
[2022-08-02T19:27:59:1659448679 IST+0530] DEBUG [multipart.multipart.callback:604] Calling on_field_end with no data
[2022-08-02T19:27:59:1659448679 IST+0530] DEBUG [multipart.multipart.callback:604] Calling on_field_start with no data
[2022-08-02T19:27:59:1659448679 IST+0530] DEBUG [multipart.multipart.callback:601] Calling on_field_name with data[29:37]
[2022-08-02T19:27:59:1659448679 IST+0530] DEBUG [multipart.multipart.callback:601] Calling on_field_data with data[38:45]
[2022-08-02T19:27:59:1659448679 IST+0530] DEBUG [multipart.multipart.callback:604] Calling on_field_end with no data
[2022-08-02T19:27:59:1659448679 IST+0530] DEBUG [multipart.multipart.callback:604] Calling on_field_start with no data
[2022-08-02T19:27:59:1659448679 IST+0530] DEBUG [multipart.multipart.callback:601] Calling on_field_name with data[46:51]
[2022-08-02T19:27:59:1659448679 IST+0530] DEBUG [multipart.multipart.callback:604] Calling on_field_end with no data
[2022-08-02T19:27:59:1659448679 IST+0530] DEBUG [multipart.multipart.callback:604] Calling on_field_start with no data
[2022-08-02T19:27:59:1659448679 IST+0530] DEBUG [multipart.multipart.callback:601] Calling on_field_name with data[53:62]
[2022-08-02T19:27:59:1659448679 IST+0530] DEBUG [multipart.multipart.callback:604] Calling on_field_end with no data
[2022-08-02T19:27:59:1659448679 IST+0530] DEBUG [multipart.multipart.callback:604] Calling on_field_start with no data
[2022-08-02T19:27:59:1659448679 IST+0530] DEBUG [multipart.multipart.callback:601] Calling on_field_name with data[64:77]
[2022-08-02T19:27:59:1659448679 IST+0530] DEBUG [multipart.multipart.callback:604] Calling on_field_end with no data
[2022-08-02T19:27:59:1659448679 IST+0530] DEBUG [multipart.multipart.callback:604] Calling on_end with no data
[2022-08-02T19:27:59:1659448679 IST+0530] INFO [sqlalchemy.engine.Engine._begin_impl:953] BEGIN (implicit)
[2022-08-02T19:27:59:1659448679 IST+0530] INFO [sqlalchemy.engine.Engine._execute_context:1772] SELECT tbl_users.login_name, tbl_users.hashed_password, tbl_users.roles, tbl_users.is_active 
FROM tbl_users 
WHERE tbl_users.login_name = %s
[2022-08-02T19:27:59:1659448679 IST+0530] INFO [sqlalchemy.engine.Engine._execute_context:1777] [generated in 0.00035s] ('driver1',)
[2022-08-02T19:28:00:1659448680 IST+0530] CRITICAL [root.authenticate_user:31] EXCEPTION-auth_service:authenticate_user(): 'list' object has no attribute 'hashed_password'
[2022-08-02T19:28:00:1659448680 IST+0530] INFO [sqlalchemy.engine.Engine._rollback_impl:981] ROLLBACK
[2022-08-02T19:29:23:1659448763 IST+0530] DEBUG [multipart.multipart.callback:604] Calling on_field_start with no data
