[2022-07-30T19:05:40:1659188140 IST+0530] INFO [uvicorn.error.startup:61] Application startup complete.
[2022-07-30T19:05:40:1659188140 IST+0530] INFO [uvicorn.error.shutdown:253] Shutting down
[2022-07-30T19:05:40:1659188140 IST+0530] INFO [uvicorn.error.shutdown:66] Waiting for application shutdown.
[2022-07-30T19:05:40:1659188140 IST+0530] INFO [databases.disconnect:119] Disconnected from database postgresql://idp_admin:********@localhost:5432/idp_db?sslmode=prefer
[2022-07-30T19:05:40:1659188140 IST+0530] INFO [uvicorn.error.shutdown:77] Application shutdown complete.
[2022-07-30T19:05:40:1659188140 IST+0530] INFO [uvicorn.error.serve:85] Finished server process [4708]
