[2022-08-03T07:37:12:1659492432 IST+0530] WARNING [uvicorn.error.run:47] StatReload detected changes in 'main.py'. Reloading...
[2022-08-03T07:37:13:1659492433 IST+0530] INFO [root.__init_application:35] creating API service and Web Site
[2022-08-03T07:37:13:1659492433 IST+0530] INFO [root.__init_routes:25] initializing all routes
[2022-08-03T07:37:13:1659492433 IST+0530] DEBUG [asyncio.__init__:59] Using selector: EpollSelector
[2022-08-03T07:37:13:1659492433 IST+0530] INFO [root.__init_application:35] creating API service and Web Site
[2022-08-03T07:37:13:1659492433 IST+0530] INFO [root.__init_routes:25] initializing all routes
[2022-08-03T07:37:13:1659492433 IST+0530] INFO [uvicorn.error.serve:75] Started server process [5307]
[2022-08-03T07:37:13:1659492433 IST+0530] INFO [uvicorn.error.startup:47] Waiting for application startup.
[2022-08-03T07:37:14:1659492434 IST+0530] INFO [sqlalchemy.engine.Engine._execute_context:1772] select pg_catalog.version()
[2022-08-03T07:37:14:1659492434 IST+0530] INFO [sqlalchemy.engine.Engine._execute_context:1777] [raw sql] ()
[2022-08-03T07:37:14:1659492434 IST+0530] WARNING [uvicorn.error.run:47] StatReload detected changes in 'main.py'. Reloading...
[2022-08-03T07:37:14:1659492434 IST+0530] INFO [sqlalchemy.engine.Engine._execute_context:1772] select current_schema()
[2022-08-03T07:37:14:1659492434 IST+0530] INFO [sqlalchemy.engine.Engine._execute_context:1777] [raw sql] ()
[2022-08-03T07:37:15:1659492435 IST+0530] INFO [sqlalchemy.engine.Engine._execute_context:1772] show standard_conforming_strings
[2022-08-03T07:37:15:1659492435 IST+0530] INFO [sqlalchemy.engine.Engine._execute_context:1777] [raw sql] ()
[2022-08-03T07:37:15:1659492435 IST+0530] INFO [sqlalchemy.engine.Engine._begin_impl:953] BEGIN (implicit)
[2022-08-03T07:37:15:1659492435 IST+0530] INFO [sqlalchemy.engine.Engine._execute_context:1772] select relname from pg_class c join pg_namespace n on n.oid=c.relnamespace where pg_catalog.pg_table_is_visible(c.oid) and relname=%s
[2022-08-03T07:37:15:1659492435 IST+0530] INFO [sqlalchemy.engine.Engine._execute_context:1777] [generated in 0.00023s] ('tbl_users',)
[2022-08-03T07:37:15:1659492435 IST+0530] INFO [sqlalchemy.engine.Engine._execute_context:1772] select relname from pg_class c join pg_namespace n on n.oid=c.relnamespace where pg_catalog.pg_table_is_visible(c.oid) and relname=%s
[2022-08-03T07:37:15:1659492435 IST+0530] INFO [sqlalchemy.engine.Engine._execute_context:1777] [cached since 0.3191s ago] ('tbl_userlog',)
[2022-08-03T07:37:15:1659492435 IST+0530] INFO [sqlalchemy.engine.Engine._execute_context:1772] select relname from pg_class c join pg_namespace n on n.oid=c.relnamespace where pg_catalog.pg_table_is_visible(c.oid) and relname=%s
[2022-08-03T07:37:15:1659492435 IST+0530] INFO [sqlalchemy.engine.Engine._execute_context:1777] [cached since 0.3783s ago] ('tbl_invalid_tokens',)
[2022-08-03T07:37:15:1659492435 IST+0530] INFO [sqlalchemy.engine.Engine._commit_impl:1013] COMMIT
[2022-08-03T07:37:15:1659492435 IST+0530] INFO [uvicorn.error.startup:61] Application startup complete.
[2022-08-03T07:37:15:1659492435 IST+0530] ERROR [uvicorn.error.send:134] Traceback (most recent call last):
  File "/home/p_116749/projects/python/americana/idp/.venv/lib/python3.9/site-packages/starlette/routing.py", line 638, in lifespan
    await receive()
  File "/home/p_116749/projects/python/americana/idp/.venv/lib/python3.9/site-packages/uvicorn/lifespan/on.py", line 137, in receive
    return await self.receive_queue.get()
  File "/usr/lib/python3.9/asyncio/queues.py", line 166, in get
    await getter
asyncio.exceptions.CancelledError

[2022-08-03T07:37:16:1659492436 IST+0530] INFO [root.__init_application:35] creating API service and Web Site
[2022-08-03T07:37:16:1659492436 IST+0530] INFO [root.__init_routes:25] initializing all routes
[2022-08-03T07:37:16:1659492436 IST+0530] DEBUG [asyncio.__init__:59] Using selector: EpollSelector
[2022-08-03T07:37:16:1659492436 IST+0530] INFO [root.__init_application:35] creating API service and Web Site
[2022-08-03T07:37:16:1659492436 IST+0530] INFO [root.__init_routes:25] initializing all routes
[2022-08-03T07:37:16:1659492436 IST+0530] INFO [uvicorn.error.serve:75] Started server process [5310]
[2022-08-03T07:37:16:1659492436 IST+0530] INFO [uvicorn.error.startup:47] Waiting for application startup.
[2022-08-03T07:37:17:1659492437 IST+0530] INFO [sqlalchemy.engine.Engine._execute_context:1772] select pg_catalog.version()
[2022-08-03T07:37:17:1659492437 IST+0530] INFO [sqlalchemy.engine.Engine._execute_context:1777] [raw sql] ()
[2022-08-03T07:37:17:1659492437 IST+0530] INFO [sqlalchemy.engine.Engine._execute_context:1772] select current_schema()
[2022-08-03T07:37:17:1659492437 IST+0530] INFO [sqlalchemy.engine.Engine._execute_context:1777] [raw sql] ()
[2022-08-03T07:37:17:1659492437 IST+0530] INFO [sqlalchemy.engine.Engine._execute_context:1772] show standard_conforming_strings
[2022-08-03T07:37:17:1659492437 IST+0530] INFO [sqlalchemy.engine.Engine._execute_context:1777] [raw sql] ()
[2022-08-03T07:37:18:1659492438 IST+0530] INFO [sqlalchemy.engine.Engine._begin_impl:953] BEGIN (implicit)
[2022-08-03T07:37:18:1659492438 IST+0530] INFO [sqlalchemy.engine.Engine._execute_context:1772] select relname from pg_class c join pg_namespace n on n.oid=c.relnamespace where pg_catalog.pg_table_is_visible(c.oid) and relname=%s
[2022-08-03T07:37:18:1659492438 IST+0530] INFO [sqlalchemy.engine.Engine._execute_context:1777] [generated in 0.00070s] ('tbl_users',)
[2022-08-03T07:37:18:1659492438 IST+0530] INFO [sqlalchemy.engine.Engine._execute_context:1772] select relname from pg_class c join pg_namespace n on n.oid=c.relnamespace where pg_catalog.pg_table_is_visible(c.oid) and relname=%s
[2022-08-03T07:37:18:1659492438 IST+0530] INFO [sqlalchemy.engine.Engine._execute_context:1777] [cached since 0.2111s ago] ('tbl_userlog',)
[2022-08-03T07:37:18:1659492438 IST+0530] INFO [sqlalchemy.engine.Engine._execute_context:1772] select relname from pg_class c join pg_namespace n on n.oid=c.relnamespace where pg_catalog.pg_table_is_visible(c.oid) and relname=%s
[2022-08-03T07:37:18:1659492438 IST+0530] INFO [sqlalchemy.engine.Engine._execute_context:1777] [cached since 0.2672s ago] ('tbl_invalid_tokens',)
[2022-08-03T07:37:18:1659492438 IST+0530] INFO [sqlalchemy.engine.Engine._commit_impl:1013] COMMIT
[2022-08-03T07:37:18:1659492438 IST+0530] INFO [uvicorn.error.startup:61] Application startup complete.
[2022-08-03T08:10:26:1659494426 IST+0530] WARNING [uvicorn.error.handle_events:169] Invalid HTTP request received.
[2022-08-03T08:10:28:1659494428 IST+0530] WARNING [uvicorn.error.handle_events:169] Invalid HTTP request received.
[2022-08-03T08:10:28:1659494428 IST+0530] WARNING [uvicorn.error.handle_events:169] Invalid HTTP request received.
[2022-08-03T08:10:51:1659494451 IST+0530] INFO [uvicorn.error.shutdown:253] Shutting down
[2022-08-03T08:10:51:1659494451 IST+0530] INFO [uvicorn.error.shutdown:66] Waiting for application shutdown.
[2022-08-03T08:10:51:1659494451 IST+0530] INFO [uvicorn.error.shutdown:77] Application shutdown complete.
[2022-08-03T08:10:51:1659494451 IST+0530] INFO [uvicorn.error.serve:85] Finished server process [5310]
[2022-08-03T08:10:51:1659494451 IST+0530] INFO [uvicorn.error.shutdown:103] Stopping reloader process [5278]
[2022-08-03T22:25:49:1659545749 IST+0530] INFO [root.__init_application:35] creating API service and Web Site
[2022-08-03T22:25:49:1659545749 IST+0530] INFO [root.__init_routes:25] initializing all routes
[2022-08-03T22:25:49:1659545749 IST+0530] DEBUG [asyncio.__init__:59] Using selector: EpollSelector
[2022-08-03T22:34:02:1659546242 IST+0530] INFO [root.__init_application:35] creating API service and Web Site
[2022-08-03T22:34:02:1659546242 IST+0530] INFO [root.__init_routes:25] initializing all routes
[2022-08-03T22:34:02:1659546242 IST+0530] DEBUG [asyncio.__init__:59] Using selector: EpollSelector
[2022-08-03T22:36:21:1659546381 IST+0530] INFO [root.__init_application:35] creating API service and Web Site
[2022-08-03T22:36:21:1659546381 IST+0530] INFO [root.__init_routes:25] initializing all routes
[2022-08-03T22:36:21:1659546381 IST+0530] DEBUG [asyncio.__init__:59] Using selector: EpollSelector
[2022-08-04T05:40:05:1659571805 IST+0530] INFO [root.__init_application:35] creating API service and Web Site
[2022-08-04T05:40:05:1659571805 IST+0530] INFO [root.__init_routes:25] initializing all routes
[2022-08-04T05:40:22:1659571822 IST+0530] INFO [root.__init_application:35] creating API service and Web Site
[2022-08-04T05:40:22:1659571822 IST+0530] INFO [root.__init_routes:25] initializing all routes
[2022-08-04T05:40:22:1659571822 IST+0530] INFO [uvicorn.error.__init__:359] Will watch for changes in these directories: ['/home/p_116749/projects/python/americana/idp']
[2022-08-04T05:40:22:1659571822 IST+0530] INFO [uvicorn.error.bind_socket:585] Uvicorn running on http://0.0.0.0:9091 (Press CTRL+C to quit)
[2022-08-04T05:40:22:1659571822 IST+0530] INFO [uvicorn.error.startup:72] Started reloader process [28509] using StatReload
[2022-08-04T05:40:22:1659571822 IST+0530] INFO [root.__init_application:35] creating API service and Web Site
[2022-08-04T05:40:22:1659571822 IST+0530] INFO [root.__init_routes:25] initializing all routes
[2022-08-04T05:40:22:1659571822 IST+0530] DEBUG [asyncio.__init__:59] Using selector: EpollSelector
[2022-08-04T05:40:22:1659571822 IST+0530] INFO [root.__init_application:35] creating API service and Web Site
[2022-08-04T05:40:22:1659571822 IST+0530] INFO [root.__init_routes:25] initializing all routes
[2022-08-04T05:40:22:1659571822 IST+0530] INFO [uvicorn.error.serve:75] Started server process [28511]
[2022-08-04T05:40:22:1659571822 IST+0530] INFO [uvicorn.error.startup:47] Waiting for application startup.
[2022-08-04T05:40:23:1659571823 IST+0530] ERROR [uvicorn.error.send:121] Traceback (most recent call last):
  File "/home/p_116749/projects/python/americana/idp/.venv/lib/python3.9/site-packages/starlette/routing.py", line 635, in lifespan
    async with self.lifespan_context(app):
  File "/home/p_116749/projects/python/americana/idp/.venv/lib/python3.9/site-packages/starlette/routing.py", line 530, in __aenter__
    await self._router.startup()
  File "/home/p_116749/projects/python/americana/idp/.venv/lib/python3.9/site-packages/starlette/routing.py", line 612, in startup
    await handler()
  File "/home/p_116749/projects/python/americana/idp/main.py", line 63, in startup
    await db.init_db()
  File "/home/p_116749/projects/python/americana/idp/src/repository/db.py", line 71, in init_db
    async with engine.begin() as conn:
  File "/home/p_116749/projects/python/americana/idp/.venv/lib/python3.9/site-packages/sqlalchemy/ext/asyncio/base.py", line 60, in __aenter__
    return await self.start(is_ctxmanager=True)
  File "/home/p_116749/projects/python/americana/idp/.venv/lib/python3.9/site-packages/sqlalchemy/ext/asyncio/engine.py", line 596, in start
    await self.conn.start(is_ctxmanager=is_ctxmanager)
  File "/home/p_116749/projects/python/americana/idp/.venv/lib/python3.9/site-packages/sqlalchemy/ext/asyncio/engine.py", line 155, in start
    await (greenlet_spawn(self.sync_engine.connect))
  File "/home/p_116749/projects/python/americana/idp/.venv/lib/python3.9/site-packages/sqlalchemy/util/_concurrency_py3k.py", line 126, in greenlet_spawn
    result = context.throw(*sys.exc_info())
  File "/home/p_116749/projects/python/americana/idp/.venv/lib/python3.9/site-packages/sqlalchemy/future/engine.py", line 406, in connect
    return super(Engine, self).connect()
  File "/home/p_116749/projects/python/americana/idp/.venv/lib/python3.9/site-packages/sqlalchemy/engine/base.py", line 3234, in connect
    return self._connection_cls(self, close_with_result=close_with_result)
  File "/home/p_116749/projects/python/americana/idp/.venv/lib/python3.9/site-packages/sqlalchemy/engine/base.py", line 96, in __init__
    else engine.raw_connection()
  File "/home/p_116749/projects/python/americana/idp/.venv/lib/python3.9/site-packages/sqlalchemy/engine/base.py", line 3313, in raw_connection
    return self._wrap_pool_connect(self.pool.connect, _connection)
  File "/home/p_116749/projects/python/americana/idp/.venv/lib/python3.9/site-packages/sqlalchemy/engine/base.py", line 3280, in _wrap_pool_connect
    return fn()
  File "/home/p_116749/projects/python/americana/idp/.venv/lib/python3.9/site-packages/sqlalchemy/pool/base.py", line 310, in connect
    return _ConnectionFairy._checkout(self)
  File "/home/p_116749/projects/python/americana/idp/.venv/lib/python3.9/site-packages/sqlalchemy/pool/base.py", line 868, in _checkout
    fairy = _ConnectionRecord.checkout(pool)
  File "/home/p_116749/projects/python/americana/idp/.venv/lib/python3.9/site-packages/sqlalchemy/pool/base.py", line 476, in checkout
    rec = pool._do_get()
  File "/home/p_116749/projects/python/americana/idp/.venv/lib/python3.9/site-packages/sqlalchemy/pool/impl.py", line 146, in _do_get
    self._dec_overflow()
  File "/home/p_116749/projects/python/americana/idp/.venv/lib/python3.9/site-packages/sqlalchemy/util/langhelpers.py", line 70, in __exit__
    compat.raise_(
  File "/home/p_116749/projects/python/americana/idp/.venv/lib/python3.9/site-packages/sqlalchemy/util/compat.py", line 208, in raise_
    raise exception
  File "/home/p_116749/projects/python/americana/idp/.venv/lib/python3.9/site-packages/sqlalchemy/pool/impl.py", line 143, in _do_get
    return self._create_connection()
  File "/home/p_116749/projects/python/americana/idp/.venv/lib/python3.9/site-packages/sqlalchemy/pool/base.py", line 256, in _create_connection
    return _ConnectionRecord(self)
  File "/home/p_116749/projects/python/americana/idp/.venv/lib/python3.9/site-packages/sqlalchemy/pool/base.py", line 371, in __init__
    self.__connect()
  File "/home/p_116749/projects/python/americana/idp/.venv/lib/python3.9/site-packages/sqlalchemy/pool/base.py", line 666, in __connect
    pool.logger.debug("Error on connect(): %s", e)
  File "/home/p_116749/projects/python/americana/idp/.venv/lib/python3.9/site-packages/sqlalchemy/util/langhelpers.py", line 70, in __exit__
    compat.raise_(
  File "/home/p_116749/projects/python/americana/idp/.venv/lib/python3.9/site-packages/sqlalchemy/util/compat.py", line 208, in raise_
    raise exception
  File "/home/p_116749/projects/python/americana/idp/.venv/lib/python3.9/site-packages/sqlalchemy/pool/base.py", line 661, in __connect
    self.dbapi_connection = connection = pool._invoke_creator(self)
  File "/home/p_116749/projects/python/americana/idp/.venv/lib/python3.9/site-packages/sqlalchemy/engine/create.py", line 590, in connect
    return dialect.connect(*cargs, **cparams)
  File "/home/p_116749/projects/python/americana/idp/.venv/lib/python3.9/site-packages/sqlalchemy/engine/default.py", line 597, in connect
    return self.dbapi.connect(*cargs, **cparams)
  File "/home/p_116749/projects/python/americana/idp/.venv/lib/python3.9/site-packages/sqlalchemy/dialects/postgresql/asyncpg.py", line 777, in connect
    await_only(self.asyncpg.connect(*arg, **kw)),
  File "/home/p_116749/projects/python/americana/idp/.venv/lib/python3.9/site-packages/sqlalchemy/util/_concurrency_py3k.py", line 68, in await_only
    return current.driver.switch(awaitable)
  File "/home/p_116749/projects/python/americana/idp/.venv/lib/python3.9/site-packages/sqlalchemy/util/_concurrency_py3k.py", line 121, in greenlet_spawn
    value = await result
  File "/home/p_116749/projects/python/americana/idp/.venv/lib/python3.9/site-packages/asyncpg/connection.py", line 2093, in connect
    return await connect_utils._connect(
  File "/home/p_116749/projects/python/americana/idp/.venv/lib/python3.9/site-packages/asyncpg/connect_utils.py", line 889, in _connect
    return await _connect_addr(
  File "/home/p_116749/projects/python/americana/idp/.venv/lib/python3.9/site-packages/asyncpg/connect_utils.py", line 790, in _connect_addr
    return await __connect_addr(params_retry, timeout, False, *args)
  File "/home/p_116749/projects/python/americana/idp/.venv/lib/python3.9/site-packages/asyncpg/connect_utils.py", line 839, in __connect_addr
    await compat.wait_for(connected, timeout=timeout)
  File "/home/p_116749/projects/python/americana/idp/.venv/lib/python3.9/site-packages/asyncpg/compat.py", line 66, in wait_for
    return await asyncio.wait_for(fut, timeout)
  File "/usr/lib/python3.9/asyncio/tasks.py", line 481, in wait_for
    return fut.result()
asyncpg.exceptions.InvalidAuthorizationSpecificationError: no pg_hba.conf entry for host "49.37.209.52", user "idp_db_admin", database "idpdb", SSL on

[2022-08-04T05:40:23:1659571823 IST+0530] ERROR [uvicorn.error.startup:58] Application startup failed. Exiting.
[2022-08-04T05:42:53:1659571973 IST+0530] INFO [uvicorn.error.shutdown:103] Stopping reloader process [28509]
[2022-08-04T05:43:04:1659571984 IST+0530] INFO [root.__init_application:35] creating API service and Web Site
[2022-08-04T05:43:04:1659571984 IST+0530] INFO [root.__init_routes:25] initializing all routes
[2022-08-04T05:43:04:1659571984 IST+0530] INFO [uvicorn.error.__init__:359] Will watch for changes in these directories: ['/home/p_116749/projects/python/americana/idp']
[2022-08-04T05:43:04:1659571984 IST+0530] INFO [uvicorn.error.bind_socket:585] Uvicorn running on http://0.0.0.0:9091 (Press CTRL+C to quit)
[2022-08-04T05:43:04:1659571984 IST+0530] INFO [uvicorn.error.startup:72] Started reloader process [28515] using StatReload
[2022-08-04T05:43:05:1659571985 IST+0530] INFO [root.__init_application:35] creating API service and Web Site
[2022-08-04T05:43:05:1659571985 IST+0530] INFO [root.__init_routes:25] initializing all routes
[2022-08-04T05:43:05:1659571985 IST+0530] DEBUG [asyncio.__init__:59] Using selector: EpollSelector
[2022-08-04T05:43:05:1659571985 IST+0530] INFO [root.__init_application:35] creating API service and Web Site
[2022-08-04T05:43:05:1659571985 IST+0530] INFO [root.__init_routes:25] initializing all routes
[2022-08-04T05:43:05:1659571985 IST+0530] INFO [uvicorn.error.serve:75] Started server process [28517]
[2022-08-04T05:43:05:1659571985 IST+0530] INFO [uvicorn.error.startup:47] Waiting for application startup.
[2022-08-04T05:43:07:1659571987 IST+0530] INFO [uvicorn.error.startup:61] Application startup complete.
[2022-08-04T05:46:18:1659572178 IST+0530] WARNING [uvicorn.error.run:47] StatReload detected changes in 'src/routes.py'. Reloading...
[2022-08-04T05:46:18:1659572178 IST+0530] INFO [uvicorn.error.shutdown:253] Shutting down
[2022-08-04T05:46:18:1659572178 IST+0530] INFO [uvicorn.error.shutdown:66] Waiting for application shutdown.
[2022-08-04T05:46:18:1659572178 IST+0530] INFO [uvicorn.error.shutdown:77] Application shutdown complete.
[2022-08-04T05:46:18:1659572178 IST+0530] INFO [uvicorn.error.serve:85] Finished server process [28517]
[2022-08-04T05:46:19:1659572179 IST+0530] INFO [root.__init_application:35] creating API service and Web Site
[2022-08-04T05:46:19:1659572179 IST+0530] INFO [root.__init_routes:25] initializing all routes
[2022-08-04T05:46:19:1659572179 IST+0530] DEBUG [asyncio.__init__:59] Using selector: EpollSelector
[2022-08-04T05:46:19:1659572179 IST+0530] INFO [root.__init_application:35] creating API service and Web Site
[2022-08-04T05:46:19:1659572179 IST+0530] INFO [root.__init_routes:25] initializing all routes
[2022-08-04T05:46:19:1659572179 IST+0530] INFO [uvicorn.error.serve:75] Started server process [28523]
[2022-08-04T05:46:19:1659572179 IST+0530] INFO [uvicorn.error.startup:47] Waiting for application startup.
[2022-08-04T05:46:21:1659572181 IST+0530] INFO [uvicorn.error.startup:61] Application startup complete.
[2022-08-04T05:46:32:1659572192 IST+0530] WARNING [uvicorn.error.run:47] StatReload detected changes in 'src/routes.py'. Reloading...
[2022-08-04T05:46:32:1659572192 IST+0530] INFO [uvicorn.error.shutdown:253] Shutting down
[2022-08-04T05:46:32:1659572192 IST+0530] INFO [uvicorn.error.shutdown:66] Waiting for application shutdown.
[2022-08-04T05:46:32:1659572192 IST+0530] INFO [uvicorn.error.shutdown:77] Application shutdown complete.
[2022-08-04T05:46:32:1659572192 IST+0530] INFO [uvicorn.error.serve:85] Finished server process [28523]
[2022-08-04T05:46:33:1659572193 IST+0530] INFO [root.__init_application:35] creating API service and Web Site
[2022-08-04T05:46:33:1659572193 IST+0530] INFO [root.__init_routes:25] initializing all routes
[2022-08-04T05:46:33:1659572193 IST+0530] DEBUG [asyncio.__init__:59] Using selector: EpollSelector
[2022-08-04T05:46:33:1659572193 IST+0530] INFO [root.__init_application:35] creating API service and Web Site
[2022-08-04T05:46:33:1659572193 IST+0530] INFO [root.__init_routes:25] initializing all routes
[2022-08-04T05:46:33:1659572193 IST+0530] INFO [uvicorn.error.serve:75] Started server process [28527]
[2022-08-04T05:46:33:1659572193 IST+0530] INFO [uvicorn.error.startup:47] Waiting for application startup.
[2022-08-04T05:46:36:1659572196 IST+0530] INFO [uvicorn.error.startup:61] Application startup complete.
[2022-08-04T05:47:52:1659572272 IST+0530] WARNING [uvicorn.error.run:47] StatReload detected changes in 'src/controller/version1/auth_controller.py'. Reloading...
[2022-08-04T05:47:52:1659572272 IST+0530] INFO [uvicorn.error.shutdown:253] Shutting down
[2022-08-04T05:47:52:1659572272 IST+0530] INFO [uvicorn.error.shutdown:66] Waiting for application shutdown.
[2022-08-04T05:47:52:1659572272 IST+0530] INFO [uvicorn.error.shutdown:77] Application shutdown complete.
[2022-08-04T05:47:52:1659572272 IST+0530] INFO [uvicorn.error.serve:85] Finished server process [28527]
[2022-08-04T05:47:53:1659572273 IST+0530] INFO [root.__init_application:35] creating API service and Web Site
[2022-08-04T05:47:53:1659572273 IST+0530] INFO [root.__init_routes:25] initializing all routes
[2022-08-04T05:47:53:1659572273 IST+0530] DEBUG [asyncio.__init__:59] Using selector: EpollSelector
[2022-08-04T05:47:53:1659572273 IST+0530] INFO [root.__init_application:35] creating API service and Web Site
[2022-08-04T05:47:53:1659572273 IST+0530] INFO [root.__init_routes:25] initializing all routes
[2022-08-04T05:47:53:1659572273 IST+0530] INFO [uvicorn.error.serve:75] Started server process [28532]
[2022-08-04T05:47:53:1659572273 IST+0530] INFO [uvicorn.error.startup:47] Waiting for application startup.
[2022-08-04T05:47:55:1659572275 IST+0530] INFO [uvicorn.error.startup:61] Application startup complete.
[2022-08-04T05:48:23:1659572303 IST+0530] WARNING [uvicorn.error.run:47] StatReload detected changes in 'src/controller/version1/auth_controller.py'. Reloading...
[2022-08-04T05:48:23:1659572303 IST+0530] INFO [uvicorn.error.shutdown:253] Shutting down
[2022-08-04T05:48:23:1659572303 IST+0530] INFO [uvicorn.error.shutdown:66] Waiting for application shutdown.
[2022-08-04T05:48:23:1659572303 IST+0530] INFO [uvicorn.error.shutdown:77] Application shutdown complete.
[2022-08-04T05:48:23:1659572303 IST+0530] INFO [uvicorn.error.serve:85] Finished server process [28532]
[2022-08-04T05:48:24:1659572304 IST+0530] INFO [root.__init_application:35] creating API service and Web Site
[2022-08-04T05:48:24:1659572304 IST+0530] INFO [root.__init_routes:25] initializing all routes
[2022-08-04T05:48:24:1659572304 IST+0530] DEBUG [asyncio.__init__:59] Using selector: EpollSelector
[2022-08-04T05:48:24:1659572304 IST+0530] INFO [root.__init_application:35] creating API service and Web Site
[2022-08-04T05:48:24:1659572304 IST+0530] INFO [root.__init_routes:25] initializing all routes
[2022-08-04T05:48:24:1659572304 IST+0530] INFO [uvicorn.error.serve:75] Started server process [28536]
[2022-08-04T05:48:24:1659572304 IST+0530] INFO [uvicorn.error.startup:47] Waiting for application startup.
[2022-08-04T05:48:26:1659572306 IST+0530] INFO [uvicorn.error.startup:61] Application startup complete.
[2022-08-04T05:48:52:1659572332 IST+0530] WARNING [uvicorn.error.run:47] StatReload detected changes in 'src/controller/version1/auth_controller.py'. Reloading...
[2022-08-04T05:48:52:1659572332 IST+0530] INFO [uvicorn.error.shutdown:253] Shutting down
[2022-08-04T05:48:52:1659572332 IST+0530] INFO [uvicorn.error.shutdown:66] Waiting for application shutdown.
[2022-08-04T05:48:52:1659572332 IST+0530] INFO [uvicorn.error.shutdown:77] Application shutdown complete.
[2022-08-04T05:48:52:1659572332 IST+0530] INFO [uvicorn.error.serve:85] Finished server process [28536]
[2022-08-04T05:48:53:1659572333 IST+0530] INFO [root.__init_application:35] creating API service and Web Site
[2022-08-04T05:48:53:1659572333 IST+0530] INFO [root.__init_routes:25] initializing all routes
[2022-08-04T05:48:53:1659572333 IST+0530] DEBUG [asyncio.__init__:59] Using selector: EpollSelector
[2022-08-04T05:48:53:1659572333 IST+0530] INFO [root.__init_application:35] creating API service and Web Site
[2022-08-04T05:48:53:1659572333 IST+0530] INFO [root.__init_routes:25] initializing all routes
[2022-08-04T05:48:53:1659572333 IST+0530] INFO [uvicorn.error.serve:75] Started server process [28540]
[2022-08-04T05:48:53:1659572333 IST+0530] INFO [uvicorn.error.startup:47] Waiting for application startup.
[2022-08-04T05:48:53:1659572333 IST+0530] WARNING [uvicorn.error.run:47] StatReload detected changes in 'src/controller/version1/auth_controller.py'. Reloading...
[2022-08-04T05:48:55:1659572335 IST+0530] INFO [uvicorn.error.startup:61] Application startup complete.
[2022-08-04T05:48:55:1659572335 IST+0530] ERROR [uvicorn.error.send:134] Traceback (most recent call last):
  File "/home/p_116749/projects/python/americana/idp/.venv/lib/python3.9/site-packages/starlette/routing.py", line 638, in lifespan
    await receive()
  File "/home/p_116749/projects/python/americana/idp/.venv/lib/python3.9/site-packages/uvicorn/lifespan/on.py", line 137, in receive
    return await self.receive_queue.get()
  File "/usr/lib/python3.9/asyncio/queues.py", line 166, in get
    await getter
asyncio.exceptions.CancelledError

[2022-08-04T05:48:56:1659572336 IST+0530] INFO [root.__init_application:35] creating API service and Web Site
[2022-08-04T05:48:56:1659572336 IST+0530] INFO [root.__init_routes:25] initializing all routes
[2022-08-04T05:48:56:1659572336 IST+0530] DEBUG [asyncio.__init__:59] Using selector: EpollSelector
[2022-08-04T05:48:56:1659572336 IST+0530] INFO [root.__init_application:35] creating API service and Web Site
[2022-08-04T05:48:56:1659572336 IST+0530] INFO [root.__init_routes:25] initializing all routes
[2022-08-04T05:48:56:1659572336 IST+0530] INFO [uvicorn.error.serve:75] Started server process [28543]
[2022-08-04T05:48:56:1659572336 IST+0530] INFO [uvicorn.error.startup:47] Waiting for application startup.
[2022-08-04T05:48:58:1659572338 IST+0530] INFO [uvicorn.error.startup:61] Application startup complete.
[2022-08-04T05:49:18:1659572358 IST+0530] WARNING [uvicorn.error.run:47] StatReload detected changes in 'src/controller/version1/auth_controller.py'. Reloading...
[2022-08-04T05:49:18:1659572358 IST+0530] INFO [uvicorn.error.shutdown:253] Shutting down
[2022-08-04T05:49:19:1659572359 IST+0530] INFO [uvicorn.error.shutdown:66] Waiting for application shutdown.
[2022-08-04T05:49:19:1659572359 IST+0530] INFO [uvicorn.error.shutdown:77] Application shutdown complete.
[2022-08-04T05:49:19:1659572359 IST+0530] INFO [uvicorn.error.serve:85] Finished server process [28543]
[2022-08-04T05:49:19:1659572359 IST+0530] INFO [root.__init_application:35] creating API service and Web Site
[2022-08-04T05:49:19:1659572359 IST+0530] INFO [root.__init_routes:25] initializing all routes
[2022-08-04T05:49:19:1659572359 IST+0530] DEBUG [asyncio.__init__:59] Using selector: EpollSelector
[2022-08-04T05:49:19:1659572359 IST+0530] INFO [root.__init_application:35] creating API service and Web Site
[2022-08-04T05:49:19:1659572359 IST+0530] INFO [root.__init_routes:25] initializing all routes
[2022-08-04T05:49:19:1659572359 IST+0530] INFO [uvicorn.error.serve:75] Started server process [28550]
[2022-08-04T05:49:19:1659572359 IST+0530] INFO [uvicorn.error.startup:47] Waiting for application startup.
[2022-08-04T05:49:21:1659572361 IST+0530] INFO [uvicorn.error.startup:61] Application startup complete.
[2022-08-04T05:49:35:1659572375 IST+0530] WARNING [uvicorn.error.run:47] StatReload detected changes in 'src/controller/version1/auth_controller.py'. Reloading...
[2022-08-04T05:49:35:1659572375 IST+0530] INFO [uvicorn.error.shutdown:253] Shutting down
[2022-08-04T05:49:35:1659572375 IST+0530] INFO [uvicorn.error.shutdown:66] Waiting for application shutdown.
[2022-08-04T05:49:35:1659572375 IST+0530] INFO [uvicorn.error.shutdown:77] Application shutdown complete.
[2022-08-04T05:49:35:1659572375 IST+0530] INFO [uvicorn.error.serve:85] Finished server process [28550]
[2022-08-04T05:49:36:1659572376 IST+0530] INFO [root.__init_application:35] creating API service and Web Site
[2022-08-04T05:49:36:1659572376 IST+0530] INFO [root.__init_routes:25] initializing all routes
[2022-08-04T05:49:36:1659572376 IST+0530] DEBUG [asyncio.__init__:59] Using selector: EpollSelector
[2022-08-04T05:49:36:1659572376 IST+0530] INFO [root.__init_application:35] creating API service and Web Site
[2022-08-04T05:49:36:1659572376 IST+0530] INFO [root.__init_routes:25] initializing all routes
[2022-08-04T05:49:36:1659572376 IST+0530] INFO [uvicorn.error.serve:75] Started server process [28554]
[2022-08-04T05:49:36:1659572376 IST+0530] INFO [uvicorn.error.startup:47] Waiting for application startup.
[2022-08-04T05:49:38:1659572378 IST+0530] WARNING [uvicorn.error.run:47] StatReload detected changes in 'src/controller/version1/auth_controller.py'. Reloading...
[2022-08-04T05:49:38:1659572378 IST+0530] INFO [uvicorn.error.startup:61] Application startup complete.
[2022-08-04T05:49:38:1659572378 IST+0530] ERROR [uvicorn.error.send:134] Traceback (most recent call last):
  File "/home/p_116749/projects/python/americana/idp/.venv/lib/python3.9/site-packages/starlette/routing.py", line 638, in lifespan
    await receive()
  File "/home/p_116749/projects/python/americana/idp/.venv/lib/python3.9/site-packages/uvicorn/lifespan/on.py", line 137, in receive
    return await self.receive_queue.get()
  File "/usr/lib/python3.9/asyncio/queues.py", line 166, in get
    await getter
asyncio.exceptions.CancelledError

[2022-08-04T05:49:40:1659572380 IST+0530] INFO [root.__init_application:35] creating API service and Web Site
[2022-08-04T05:49:40:1659572380 IST+0530] INFO [root.__init_routes:25] initializing all routes
[2022-08-04T05:49:40:1659572380 IST+0530] DEBUG [asyncio.__init__:59] Using selector: EpollSelector
[2022-08-04T05:49:40:1659572380 IST+0530] INFO [root.__init_application:35] creating API service and Web Site
[2022-08-04T05:49:40:1659572380 IST+0530] INFO [root.__init_routes:25] initializing all routes
[2022-08-04T05:49:40:1659572380 IST+0530] INFO [uvicorn.error.serve:75] Started server process [28557]
[2022-08-04T05:49:40:1659572380 IST+0530] INFO [uvicorn.error.startup:47] Waiting for application startup.
[2022-08-04T05:49:41:1659572381 IST+0530] WARNING [uvicorn.error.run:47] StatReload detected changes in 'src/controller/version1/auth_controller.py'. Reloading...
[2022-08-04T05:49:42:1659572382 IST+0530] INFO [uvicorn.error.startup:61] Application startup complete.
[2022-08-04T05:49:42:1659572382 IST+0530] ERROR [uvicorn.error.send:134] Traceback (most recent call last):
  File "/home/p_116749/projects/python/americana/idp/.venv/lib/python3.9/site-packages/starlette/routing.py", line 638, in lifespan
    await receive()
  File "/home/p_116749/projects/python/americana/idp/.venv/lib/python3.9/site-packages/uvicorn/lifespan/on.py", line 137, in receive
    return await self.receive_queue.get()
  File "/usr/lib/python3.9/asyncio/queues.py", line 166, in get
    await getter
asyncio.exceptions.CancelledError

[2022-08-04T05:49:43:1659572383 IST+0530] INFO [root.__init_application:35] creating API service and Web Site
[2022-08-04T05:49:43:1659572383 IST+0530] INFO [root.__init_routes:25] initializing all routes
[2022-08-04T05:49:43:1659572383 IST+0530] DEBUG [asyncio.__init__:59] Using selector: EpollSelector
[2022-08-04T05:49:43:1659572383 IST+0530] INFO [root.__init_application:35] creating API service and Web Site
[2022-08-04T05:49:43:1659572383 IST+0530] INFO [root.__init_routes:25] initializing all routes
[2022-08-04T05:49:43:1659572383 IST+0530] INFO [uvicorn.error.serve:75] Started server process [28560]
[2022-08-04T05:49:43:1659572383 IST+0530] INFO [uvicorn.error.startup:47] Waiting for application startup.
[2022-08-04T05:49:45:1659572385 IST+0530] INFO [uvicorn.error.startup:61] Application startup complete.
[2022-08-04T05:49:47:1659572387 IST+0530] WARNING [uvicorn.error.run:47] StatReload detected changes in 'src/controller/version1/auth_controller.py'. Reloading...
[2022-08-04T05:49:47:1659572387 IST+0530] INFO [uvicorn.error.shutdown:253] Shutting down
[2022-08-04T05:49:47:1659572387 IST+0530] INFO [uvicorn.error.shutdown:66] Waiting for application shutdown.
[2022-08-04T05:49:47:1659572387 IST+0530] INFO [uvicorn.error.shutdown:77] Application shutdown complete.
[2022-08-04T05:49:47:1659572387 IST+0530] INFO [uvicorn.error.serve:85] Finished server process [28560]
[2022-08-04T05:49:48:1659572388 IST+0530] INFO [root.__init_application:35] creating API service and Web Site
[2022-08-04T05:49:48:1659572388 IST+0530] INFO [root.__init_routes:25] initializing all routes
[2022-08-04T05:49:48:1659572388 IST+0530] DEBUG [asyncio.__init__:59] Using selector: EpollSelector
[2022-08-04T05:49:48:1659572388 IST+0530] INFO [root.__init_application:35] creating API service and Web Site
[2022-08-04T05:49:48:1659572388 IST+0530] INFO [root.__init_routes:25] initializing all routes
[2022-08-04T05:49:48:1659572388 IST+0530] INFO [uvicorn.error.serve:75] Started server process [28563]
[2022-08-04T05:49:48:1659572388 IST+0530] INFO [uvicorn.error.startup:47] Waiting for application startup.
[2022-08-04T05:49:51:1659572391 IST+0530] INFO [uvicorn.error.startup:61] Application startup complete.
[2022-08-04T05:50:36:1659572436 IST+0530] WARNING [uvicorn.error.run:47] StatReload detected changes in 'src/routes.py'. Reloading...
[2022-08-04T05:50:36:1659572436 IST+0530] INFO [uvicorn.error.shutdown:253] Shutting down
[2022-08-04T05:50:36:1659572436 IST+0530] INFO [uvicorn.error.shutdown:66] Waiting for application shutdown.
[2022-08-04T05:50:36:1659572436 IST+0530] INFO [uvicorn.error.shutdown:77] Application shutdown complete.
[2022-08-04T05:50:36:1659572436 IST+0530] INFO [uvicorn.error.serve:85] Finished server process [28563]
[2022-08-04T05:50:37:1659572437 IST+0530] INFO [root.__init_application:35] creating API service and Web Site
[2022-08-04T05:50:37:1659572437 IST+0530] INFO [root.__init_routes:25] initializing all routes
[2022-08-04T05:50:37:1659572437 IST+0530] DEBUG [asyncio.__init__:59] Using selector: EpollSelector
[2022-08-04T05:50:37:1659572437 IST+0530] INFO [root.__init_application:35] creating API service and Web Site
[2022-08-04T05:50:37:1659572437 IST+0530] INFO [root.__init_routes:25] initializing all routes
[2022-08-04T05:50:37:1659572437 IST+0530] INFO [uvicorn.error.serve:75] Started server process [28570]
[2022-08-04T05:50:37:1659572437 IST+0530] INFO [uvicorn.error.startup:47] Waiting for application startup.
[2022-08-04T05:50:39:1659572439 IST+0530] INFO [uvicorn.error.startup:61] Application startup complete.
[2022-08-04T05:50:39:1659572439 IST+0530] WARNING [uvicorn.error.run:47] StatReload detected changes in 'src/routes.py'. Reloading...
[2022-08-04T05:50:39:1659572439 IST+0530] INFO [uvicorn.error.shutdown:253] Shutting down
[2022-08-04T05:50:39:1659572439 IST+0530] INFO [uvicorn.error.shutdown:66] Waiting for application shutdown.
[2022-08-04T05:50:39:1659572439 IST+0530] INFO [uvicorn.error.shutdown:77] Application shutdown complete.
[2022-08-04T05:50:39:1659572439 IST+0530] INFO [uvicorn.error.serve:85] Finished server process [28570]
[2022-08-04T05:50:41:1659572441 IST+0530] INFO [root.__init_application:35] creating API service and Web Site
[2022-08-04T05:50:41:1659572441 IST+0530] INFO [root.__init_routes:25] initializing all routes
[2022-08-04T05:50:41:1659572441 IST+0530] DEBUG [asyncio.__init__:59] Using selector: EpollSelector
[2022-08-04T05:50:41:1659572441 IST+0530] INFO [root.__init_application:35] creating API service and Web Site
[2022-08-04T05:50:41:1659572441 IST+0530] INFO [root.__init_routes:25] initializing all routes
[2022-08-04T05:50:41:1659572441 IST+0530] INFO [uvicorn.error.serve:75] Started server process [28573]
[2022-08-04T05:50:41:1659572441 IST+0530] INFO [uvicorn.error.startup:47] Waiting for application startup.
[2022-08-04T05:50:43:1659572443 IST+0530] INFO [uvicorn.error.startup:61] Application startup complete.
[2022-08-04T05:50:43:1659572443 IST+0530] WARNING [uvicorn.error.run:47] StatReload detected changes in 'src/routes.py'. Reloading...
[2022-08-04T05:50:43:1659572443 IST+0530] INFO [uvicorn.error.shutdown:253] Shutting down
[2022-08-04T05:50:43:1659572443 IST+0530] INFO [uvicorn.error.shutdown:66] Waiting for application shutdown.
[2022-08-04T05:50:43:1659572443 IST+0530] INFO [uvicorn.error.shutdown:77] Application shutdown complete.
[2022-08-04T05:50:43:1659572443 IST+0530] INFO [uvicorn.error.serve:85] Finished server process [28573]
[2022-08-04T05:50:45:1659572445 IST+0530] INFO [root.__init_application:35] creating API service and Web Site
[2022-08-04T05:50:45:1659572445 IST+0530] INFO [root.__init_routes:25] initializing all routes
[2022-08-04T05:50:45:1659572445 IST+0530] DEBUG [asyncio.__init__:59] Using selector: EpollSelector
[2022-08-04T05:50:45:1659572445 IST+0530] INFO [root.__init_application:35] creating API service and Web Site
[2022-08-04T05:50:45:1659572445 IST+0530] INFO [root.__init_routes:25] initializing all routes
[2022-08-04T05:50:45:1659572445 IST+0530] INFO [uvicorn.error.serve:75] Started server process [28576]
[2022-08-04T05:50:45:1659572445 IST+0530] INFO [uvicorn.error.startup:47] Waiting for application startup.
[2022-08-04T05:50:47:1659572447 IST+0530] INFO [uvicorn.error.startup:61] Application startup complete.
[2022-08-04T05:50:48:1659572448 IST+0530] WARNING [uvicorn.error.run:47] StatReload detected changes in 'src/routes.py'. Reloading...
[2022-08-04T05:50:48:1659572448 IST+0530] INFO [uvicorn.error.shutdown:253] Shutting down
[2022-08-04T05:50:48:1659572448 IST+0530] INFO [uvicorn.error.shutdown:66] Waiting for application shutdown.
[2022-08-04T05:50:48:1659572448 IST+0530] INFO [uvicorn.error.shutdown:77] Application shutdown complete.
[2022-08-04T05:50:48:1659572448 IST+0530] INFO [uvicorn.error.serve:85] Finished server process [28576]
[2022-08-04T05:50:50:1659572450 IST+0530] INFO [root.__init_application:35] creating API service and Web Site
[2022-08-04T05:50:50:1659572450 IST+0530] INFO [root.__init_routes:25] initializing all routes
[2022-08-04T05:50:50:1659572450 IST+0530] DEBUG [asyncio.__init__:59] Using selector: EpollSelector
[2022-08-04T05:50:50:1659572450 IST+0530] INFO [root.__init_application:35] creating API service and Web Site
[2022-08-04T05:50:50:1659572450 IST+0530] INFO [root.__init_routes:25] initializing all routes
[2022-08-04T05:50:50:1659572450 IST+0530] INFO [uvicorn.error.serve:75] Started server process [28579]
[2022-08-04T05:50:50:1659572450 IST+0530] INFO [uvicorn.error.startup:47] Waiting for application startup.
[2022-08-04T05:50:52:1659572452 IST+0530] INFO [uvicorn.error.startup:61] Application startup complete.
[2022-08-04T05:50:53:1659572453 IST+0530] WARNING [uvicorn.error.run:47] StatReload detected changes in 'src/routes.py'. Reloading...
[2022-08-04T05:50:53:1659572453 IST+0530] INFO [uvicorn.error.shutdown:253] Shutting down
[2022-08-04T05:50:53:1659572453 IST+0530] INFO [uvicorn.error.shutdown:66] Waiting for application shutdown.
[2022-08-04T05:50:53:1659572453 IST+0530] INFO [uvicorn.error.shutdown:77] Application shutdown complete.
[2022-08-04T05:50:53:1659572453 IST+0530] INFO [uvicorn.error.serve:85] Finished server process [28579]
[2022-08-04T05:50:54:1659572454 IST+0530] INFO [root.__init_application:35] creating API service and Web Site
[2022-08-04T05:50:54:1659572454 IST+0530] INFO [root.__init_routes:25] initializing all routes
[2022-08-04T05:50:54:1659572454 IST+0530] DEBUG [asyncio.__init__:59] Using selector: EpollSelector
[2022-08-04T05:50:54:1659572454 IST+0530] INFO [root.__init_application:35] creating API service and Web Site
[2022-08-04T05:50:54:1659572454 IST+0530] INFO [root.__init_routes:25] initializing all routes
[2022-08-04T05:50:54:1659572454 IST+0530] INFO [uvicorn.error.serve:75] Started server process [28582]
[2022-08-04T05:50:54:1659572454 IST+0530] INFO [uvicorn.error.startup:47] Waiting for application startup.
[2022-08-04T05:50:55:1659572455 IST+0530] WARNING [uvicorn.error.run:47] StatReload detected changes in 'src/routes.py'. Reloading...
[2022-08-04T05:50:56:1659572456 IST+0530] INFO [uvicorn.error.startup:61] Application startup complete.
[2022-08-04T05:50:56:1659572456 IST+0530] ERROR [uvicorn.error.send:134] Traceback (most recent call last):
  File "/home/p_116749/projects/python/americana/idp/.venv/lib/python3.9/site-packages/starlette/routing.py", line 638, in lifespan
    await receive()
  File "/home/p_116749/projects/python/americana/idp/.venv/lib/python3.9/site-packages/uvicorn/lifespan/on.py", line 137, in receive
    return await self.receive_queue.get()
  File "/usr/lib/python3.9/asyncio/queues.py", line 166, in get
    await getter
asyncio.exceptions.CancelledError

[2022-08-04T05:50:58:1659572458 IST+0530] INFO [root.__init_application:35] creating API service and Web Site
[2022-08-04T05:50:58:1659572458 IST+0530] INFO [root.__init_routes:25] initializing all routes
[2022-08-04T05:50:58:1659572458 IST+0530] DEBUG [asyncio.__init__:59] Using selector: EpollSelector
[2022-08-04T05:50:58:1659572458 IST+0530] INFO [root.__init_application:35] creating API service and Web Site
[2022-08-04T05:50:58:1659572458 IST+0530] INFO [root.__init_routes:25] initializing all routes
[2022-08-04T05:50:58:1659572458 IST+0530] INFO [uvicorn.error.serve:75] Started server process [28585]
[2022-08-04T05:50:58:1659572458 IST+0530] INFO [uvicorn.error.startup:47] Waiting for application startup.
[2022-08-04T05:51:00:1659572460 IST+0530] INFO [uvicorn.error.startup:61] Application startup complete.
[2022-08-04T10:05:46:1659587746 IST+0530] INFO [uvicorn.error.shutdown:253] Shutting down
[2022-08-04T10:05:46:1659587746 IST+0530] INFO [uvicorn.error.shutdown:66] Waiting for application shutdown.
[2022-08-04T10:05:46:1659587746 IST+0530] INFO [uvicorn.error.shutdown:77] Application shutdown complete.
[2022-08-04T10:05:46:1659587746 IST+0530] INFO [uvicorn.error.serve:85] Finished server process [28585]
[2022-08-04T10:05:46:1659587746 IST+0530] INFO [uvicorn.error.shutdown:103] Stopping reloader process [28515]
[2022-08-04T11:09:33:1659591573 IST+0530] INFO [root.__init_application:35] creating API service and Web Site
[2022-08-04T11:09:33:1659591573 IST+0530] INFO [root.__init_routes:25] initializing all routes
[2022-08-04T11:09:33:1659591573 IST+0530] INFO [uvicorn.error.serve:75] Started server process [29587]
[2022-08-04T11:09:33:1659591573 IST+0530] INFO [uvicorn.error.startup:47] Waiting for application startup.
[2022-08-04T11:09:33:1659591573 IST+0530] DEBUG [aiosqlite.run:101] executing <function connect.<locals>.connector at 0x7fef107a20d0>
[2022-08-04T11:09:33:1659591573 IST+0530] DEBUG [aiosqlite.run:103] operation <function connect.<locals>.connector at 0x7fef107a20d0> completed
[2022-08-04T11:09:33:1659591573 IST+0530] DEBUG [aiosqlite.run:101] executing functools.partial(<built-in method create_function of sqlite3.Connection object at 0x7fef107e5210>, 'regexp', 2, <function SQLiteDialect_pysqlite.on_connect.<locals>.regexp at 0x7fef11754550>, deterministic=False)
[2022-08-04T11:09:33:1659591573 IST+0530] DEBUG [aiosqlite.run:103] operation functools.partial(<built-in method create_function of sqlite3.Connection object at 0x7fef107e5210>, 'regexp', 2, <function SQLiteDialect_pysqlite.on_connect.<locals>.regexp at 0x7fef11754550>, deterministic=False) completed
[2022-08-04T11:09:33:1659591573 IST+0530] DEBUG [aiosqlite.run:101] executing functools.partial(<built-in method cursor of sqlite3.Connection object at 0x7fef107e5210>)
[2022-08-04T11:09:33:1659591573 IST+0530] DEBUG [aiosqlite.run:103] operation functools.partial(<built-in method cursor of sqlite3.Connection object at 0x7fef107e5210>) completed
[2022-08-04T11:09:33:1659591573 IST+0530] DEBUG [aiosqlite.run:101] executing functools.partial(<built-in method execute of sqlite3.Cursor object at 0x7fef1087fc00>, 'PRAGMA read_uncommitted', [])
[2022-08-04T11:09:33:1659591573 IST+0530] DEBUG [aiosqlite.run:103] operation functools.partial(<built-in method execute of sqlite3.Cursor object at 0x7fef1087fc00>, 'PRAGMA read_uncommitted', []) completed
[2022-08-04T11:09:33:1659591573 IST+0530] DEBUG [aiosqlite.run:101] executing functools.partial(<built-in method fetchall of sqlite3.Cursor object at 0x7fef1087fc00>)
[2022-08-04T11:09:33:1659591573 IST+0530] DEBUG [aiosqlite.run:103] operation functools.partial(<built-in method fetchall of sqlite3.Cursor object at 0x7fef1087fc00>) completed
[2022-08-04T11:09:33:1659591573 IST+0530] DEBUG [aiosqlite.run:101] executing functools.partial(<built-in method close of sqlite3.Cursor object at 0x7fef1087fc00>)
[2022-08-04T11:09:33:1659591573 IST+0530] DEBUG [aiosqlite.run:103] operation functools.partial(<built-in method close of sqlite3.Cursor object at 0x7fef1087fc00>) completed
[2022-08-04T11:09:33:1659591573 IST+0530] DEBUG [aiosqlite.run:101] executing functools.partial(<built-in method rollback of sqlite3.Connection object at 0x7fef107e5210>)
[2022-08-04T11:09:33:1659591573 IST+0530] DEBUG [aiosqlite.run:103] operation functools.partial(<built-in method rollback of sqlite3.Connection object at 0x7fef107e5210>) completed
[2022-08-04T11:09:33:1659591573 IST+0530] DEBUG [aiosqlite.run:101] executing functools.partial(<built-in method cursor of sqlite3.Connection object at 0x7fef107e5210>)
[2022-08-04T11:09:33:1659591573 IST+0530] DEBUG [aiosqlite.run:103] operation functools.partial(<built-in method cursor of sqlite3.Connection object at 0x7fef107e5210>) completed
[2022-08-04T11:09:33:1659591573 IST+0530] DEBUG [aiosqlite.run:101] executing functools.partial(<built-in method execute of sqlite3.Cursor object at 0x7fef1087fd50>, 'PRAGMA main.table_info("tbl_users")', ())
[2022-08-04T11:09:33:1659591573 IST+0530] DEBUG [aiosqlite.run:103] operation functools.partial(<built-in method execute of sqlite3.Cursor object at 0x7fef1087fd50>, 'PRAGMA main.table_info("tbl_users")', ()) completed
[2022-08-04T11:09:33:1659591573 IST+0530] DEBUG [aiosqlite.run:101] executing functools.partial(<built-in method fetchall of sqlite3.Cursor object at 0x7fef1087fd50>)
[2022-08-04T11:09:33:1659591573 IST+0530] DEBUG [aiosqlite.run:103] operation functools.partial(<built-in method fetchall of sqlite3.Cursor object at 0x7fef1087fd50>) completed
[2022-08-04T11:09:33:1659591573 IST+0530] DEBUG [aiosqlite.run:101] executing functools.partial(<built-in method close of sqlite3.Cursor object at 0x7fef1087fd50>)
[2022-08-04T11:09:33:1659591573 IST+0530] DEBUG [aiosqlite.run:103] operation functools.partial(<built-in method close of sqlite3.Cursor object at 0x7fef1087fd50>) completed
[2022-08-04T11:09:33:1659591573 IST+0530] DEBUG [aiosqlite.run:101] executing functools.partial(<built-in method cursor of sqlite3.Connection object at 0x7fef107e5210>)
[2022-08-04T11:09:33:1659591573 IST+0530] DEBUG [aiosqlite.run:103] operation functools.partial(<built-in method cursor of sqlite3.Connection object at 0x7fef107e5210>) completed
[2022-08-04T11:09:33:1659591573 IST+0530] DEBUG [aiosqlite.run:101] executing functools.partial(<built-in method execute of sqlite3.Cursor object at 0x7fef1087fd50>, 'PRAGMA temp.table_info("tbl_users")', ())
[2022-08-04T11:09:33:1659591573 IST+0530] DEBUG [aiosqlite.run:103] operation functools.partial(<built-in method execute of sqlite3.Cursor object at 0x7fef1087fd50>, 'PRAGMA temp.table_info("tbl_users")', ()) completed
[2022-08-04T11:09:33:1659591573 IST+0530] DEBUG [aiosqlite.run:101] executing functools.partial(<built-in method fetchall of sqlite3.Cursor object at 0x7fef1087fd50>)
[2022-08-04T11:09:33:1659591573 IST+0530] DEBUG [aiosqlite.run:103] operation functools.partial(<built-in method fetchall of sqlite3.Cursor object at 0x7fef1087fd50>) completed
[2022-08-04T11:09:33:1659591573 IST+0530] DEBUG [aiosqlite.run:101] executing functools.partial(<built-in method close of sqlite3.Cursor object at 0x7fef1087fd50>)
[2022-08-04T11:09:33:1659591573 IST+0530] DEBUG [aiosqlite.run:103] operation functools.partial(<built-in method close of sqlite3.Cursor object at 0x7fef1087fd50>) completed
[2022-08-04T11:09:33:1659591573 IST+0530] DEBUG [aiosqlite.run:101] executing functools.partial(<built-in method cursor of sqlite3.Connection object at 0x7fef107e5210>)
[2022-08-04T11:09:33:1659591573 IST+0530] DEBUG [aiosqlite.run:103] operation functools.partial(<built-in method cursor of sqlite3.Connection object at 0x7fef107e5210>) completed
[2022-08-04T11:09:33:1659591573 IST+0530] DEBUG [aiosqlite.run:101] executing functools.partial(<built-in method execute of sqlite3.Cursor object at 0x7fef1087fd50>, 'PRAGMA main.table_info("tbl_userlog")', ())
[2022-08-04T11:09:33:1659591573 IST+0530] DEBUG [aiosqlite.run:103] operation functools.partial(<built-in method execute of sqlite3.Cursor object at 0x7fef1087fd50>, 'PRAGMA main.table_info("tbl_userlog")', ()) completed
[2022-08-04T11:09:33:1659591573 IST+0530] DEBUG [aiosqlite.run:101] executing functools.partial(<built-in method fetchall of sqlite3.Cursor object at 0x7fef1087fd50>)
[2022-08-04T11:09:33:1659591573 IST+0530] DEBUG [aiosqlite.run:103] operation functools.partial(<built-in method fetchall of sqlite3.Cursor object at 0x7fef1087fd50>) completed
[2022-08-04T11:09:33:1659591573 IST+0530] DEBUG [aiosqlite.run:101] executing functools.partial(<built-in method close of sqlite3.Cursor object at 0x7fef1087fd50>)
[2022-08-04T11:09:33:1659591573 IST+0530] DEBUG [aiosqlite.run:103] operation functools.partial(<built-in method close of sqlite3.Cursor object at 0x7fef1087fd50>) completed
[2022-08-04T11:09:33:1659591573 IST+0530] DEBUG [aiosqlite.run:101] executing functools.partial(<built-in method cursor of sqlite3.Connection object at 0x7fef107e5210>)
[2022-08-04T11:09:33:1659591573 IST+0530] DEBUG [aiosqlite.run:103] operation functools.partial(<built-in method cursor of sqlite3.Connection object at 0x7fef107e5210>) completed
[2022-08-04T11:09:33:1659591573 IST+0530] DEBUG [aiosqlite.run:101] executing functools.partial(<built-in method execute of sqlite3.Cursor object at 0x7fef1087fd50>, 'PRAGMA temp.table_info("tbl_userlog")', ())
[2022-08-04T11:09:33:1659591573 IST+0530] DEBUG [aiosqlite.run:103] operation functools.partial(<built-in method execute of sqlite3.Cursor object at 0x7fef1087fd50>, 'PRAGMA temp.table_info("tbl_userlog")', ()) completed
[2022-08-04T11:09:33:1659591573 IST+0530] DEBUG [aiosqlite.run:101] executing functools.partial(<built-in method fetchall of sqlite3.Cursor object at 0x7fef1087fd50>)
[2022-08-04T11:09:33:1659591573 IST+0530] DEBUG [aiosqlite.run:103] operation functools.partial(<built-in method fetchall of sqlite3.Cursor object at 0x7fef1087fd50>) completed
[2022-08-04T11:09:33:1659591573 IST+0530] DEBUG [aiosqlite.run:101] executing functools.partial(<built-in method close of sqlite3.Cursor object at 0x7fef1087fd50>)
[2022-08-04T11:09:33:1659591573 IST+0530] DEBUG [aiosqlite.run:103] operation functools.partial(<built-in method close of sqlite3.Cursor object at 0x7fef1087fd50>) completed
[2022-08-04T11:09:33:1659591573 IST+0530] DEBUG [aiosqlite.run:101] executing functools.partial(<built-in method cursor of sqlite3.Connection object at 0x7fef107e5210>)
[2022-08-04T11:09:33:1659591573 IST+0530] DEBUG [aiosqlite.run:103] operation functools.partial(<built-in method cursor of sqlite3.Connection object at 0x7fef107e5210>) completed
[2022-08-04T11:09:33:1659591573 IST+0530] DEBUG [aiosqlite.run:101] executing functools.partial(<built-in method execute of sqlite3.Cursor object at 0x7fef1087fd50>, 'PRAGMA main.table_info("tbl_invalid_tokens")', ())
[2022-08-04T11:09:33:1659591573 IST+0530] DEBUG [aiosqlite.run:103] operation functools.partial(<built-in method execute of sqlite3.Cursor object at 0x7fef1087fd50>, 'PRAGMA main.table_info("tbl_invalid_tokens")', ()) completed
[2022-08-04T11:09:33:1659591573 IST+0530] DEBUG [aiosqlite.run:101] executing functools.partial(<built-in method fetchall of sqlite3.Cursor object at 0x7fef1087fd50>)
[2022-08-04T11:09:33:1659591573 IST+0530] DEBUG [aiosqlite.run:103] operation functools.partial(<built-in method fetchall of sqlite3.Cursor object at 0x7fef1087fd50>) completed
[2022-08-04T11:09:33:1659591573 IST+0530] DEBUG [aiosqlite.run:101] executing functools.partial(<built-in method close of sqlite3.Cursor object at 0x7fef1087fd50>)
[2022-08-04T11:09:33:1659591573 IST+0530] DEBUG [aiosqlite.run:103] operation functools.partial(<built-in method close of sqlite3.Cursor object at 0x7fef1087fd50>) completed
[2022-08-04T11:09:33:1659591573 IST+0530] DEBUG [aiosqlite.run:101] executing functools.partial(<built-in method cursor of sqlite3.Connection object at 0x7fef107e5210>)
[2022-08-04T11:09:33:1659591573 IST+0530] DEBUG [aiosqlite.run:103] operation functools.partial(<built-in method cursor of sqlite3.Connection object at 0x7fef107e5210>) completed
[2022-08-04T11:09:33:1659591573 IST+0530] DEBUG [aiosqlite.run:101] executing functools.partial(<built-in method execute of sqlite3.Cursor object at 0x7fef1087fd50>, 'PRAGMA temp.table_info("tbl_invalid_tokens")', ())
[2022-08-04T11:09:33:1659591573 IST+0530] DEBUG [aiosqlite.run:103] operation functools.partial(<built-in method execute of sqlite3.Cursor object at 0x7fef1087fd50>, 'PRAGMA temp.table_info("tbl_invalid_tokens")', ()) completed
[2022-08-04T11:09:33:1659591573 IST+0530] DEBUG [aiosqlite.run:101] executing functools.partial(<built-in method fetchall of sqlite3.Cursor object at 0x7fef1087fd50>)
[2022-08-04T11:09:33:1659591573 IST+0530] DEBUG [aiosqlite.run:103] operation functools.partial(<built-in method fetchall of sqlite3.Cursor object at 0x7fef1087fd50>) completed
[2022-08-04T11:09:33:1659591573 IST+0530] DEBUG [aiosqlite.run:101] executing functools.partial(<built-in method close of sqlite3.Cursor object at 0x7fef1087fd50>)
[2022-08-04T11:09:33:1659591573 IST+0530] DEBUG [aiosqlite.run:103] operation functools.partial(<built-in method close of sqlite3.Cursor object at 0x7fef1087fd50>) completed
[2022-08-04T11:09:33:1659591573 IST+0530] DEBUG [aiosqlite.run:101] executing functools.partial(<built-in method rollback of sqlite3.Connection object at 0x7fef107e5210>)
[2022-08-04T11:09:33:1659591573 IST+0530] DEBUG [aiosqlite.run:103] operation functools.partial(<built-in method rollback of sqlite3.Connection object at 0x7fef107e5210>) completed
[2022-08-04T11:09:33:1659591573 IST+0530] DEBUG [aiosqlite.run:101] executing functools.partial(<built-in method rollback of sqlite3.Connection object at 0x7fef107e5210>)
[2022-08-04T11:09:33:1659591573 IST+0530] DEBUG [aiosqlite.run:103] operation functools.partial(<built-in method rollback of sqlite3.Connection object at 0x7fef107e5210>) completed
[2022-08-04T11:09:33:1659591573 IST+0530] DEBUG [aiosqlite.run:101] executing functools.partial(<built-in method close of sqlite3.Connection object at 0x7fef107e5210>)
[2022-08-04T11:09:33:1659591573 IST+0530] DEBUG [aiosqlite.run:103] operation functools.partial(<built-in method close of sqlite3.Connection object at 0x7fef107e5210>) completed
[2022-08-04T11:09:33:1659591573 IST+0530] ERROR [uvicorn.error.send:121] Traceback (most recent call last):
  File "/home/p_116749/projects/python/americana/idp/.venv/lib/python3.9/site-packages/sqlalchemy/sql/visitors.py", line 77, in _compiler_dispatch
    meth = getter(visitor)
AttributeError: 'SQLiteTypeCompiler' object has no attribute 'visit_ARRAY'

The above exception was the direct cause of the following exception:

Traceback (most recent call last):
  File "/home/p_116749/projects/python/americana/idp/.venv/lib/python3.9/site-packages/sqlalchemy/sql/compiler.py", line 4399, in visit_create_table
    processed = self.process(
  File "/home/p_116749/projects/python/americana/idp/.venv/lib/python3.9/site-packages/sqlalchemy/sql/compiler.py", line 486, in process
    return obj._compiler_dispatch(self, **kwargs)
  File "/home/p_116749/projects/python/americana/idp/.venv/lib/python3.9/site-packages/sqlalchemy/sql/visitors.py", line 82, in _compiler_dispatch
    return meth(self, **kw)
  File "/home/p_116749/projects/python/americana/idp/.venv/lib/python3.9/site-packages/sqlalchemy/sql/compiler.py", line 4433, in visit_create_column
    text = self.get_column_specification(column, first_pk=first_pk)
  File "/home/p_116749/projects/python/americana/idp/.venv/lib/python3.9/site-packages/sqlalchemy/dialects/sqlite/base.py", line 1425, in get_column_specification
    coltype = self.dialect.type_compiler.process(
  File "/home/p_116749/projects/python/americana/idp/.venv/lib/python3.9/site-packages/sqlalchemy/sql/compiler.py", line 520, in process
    return type_._compiler_dispatch(self, **kw)
  File "/home/p_116749/projects/python/americana/idp/.venv/lib/python3.9/site-packages/sqlalchemy/sql/visitors.py", line 79, in _compiler_dispatch
    return visitor.visit_unsupported_compilation(self, err, **kw)
  File "/home/p_116749/projects/python/americana/idp/.venv/lib/python3.9/site-packages/sqlalchemy/sql/compiler.py", line 523, in visit_unsupported_compilation
    util.raise_(
  File "/home/p_116749/projects/python/americana/idp/.venv/lib/python3.9/site-packages/sqlalchemy/util/compat.py", line 208, in raise_
    raise exception
sqlalchemy.exc.UnsupportedCompilationError: Compiler <sqlalchemy.dialects.sqlite.base.SQLiteTypeCompiler object at 0x7fef117551c0> can't render element of type ARRAY (Background on this error at: https://sqlalche.me/e/14/l7de)

The above exception was the direct cause of the following exception:

Traceback (most recent call last):
  File "/home/p_116749/projects/python/americana/idp/.venv/lib/python3.9/site-packages/starlette/routing.py", line 635, in lifespan
    async with self.lifespan_context(app):
  File "/home/p_116749/projects/python/americana/idp/.venv/lib/python3.9/site-packages/starlette/routing.py", line 530, in __aenter__
    await self._router.startup()
  File "/home/p_116749/projects/python/americana/idp/.venv/lib/python3.9/site-packages/starlette/routing.py", line 612, in startup
    await handler()
  File "/home/p_116749/projects/python/idp/./main.py", line 63, in startup
    await db.init_db()
  File "/home/p_116749/projects/python/idp/./src/repository/db.py", line 73, in init_db
    await conn.run_sync(Base.metadata.create_all)
  File "/home/p_116749/projects/python/americana/idp/.venv/lib/python3.9/site-packages/sqlalchemy/ext/asyncio/engine.py", line 546, in run_sync
    return await greenlet_spawn(fn, conn, *arg, **kw)
  File "/home/p_116749/projects/python/americana/idp/.venv/lib/python3.9/site-packages/sqlalchemy/util/_concurrency_py3k.py", line 128, in greenlet_spawn
    result = context.switch(value)
  File "/home/p_116749/projects/python/americana/idp/.venv/lib/python3.9/site-packages/sqlalchemy/sql/schema.py", line 4916, in create_all
    bind._run_ddl_visitor(
  File "/home/p_116749/projects/python/americana/idp/.venv/lib/python3.9/site-packages/sqlalchemy/engine/base.py", line 2130, in _run_ddl_visitor
    visitorcallable(self.dialect, self, **kwargs).traverse_single(element)
  File "/home/p_116749/projects/python/americana/idp/.venv/lib/python3.9/site-packages/sqlalchemy/sql/visitors.py", line 524, in traverse_single
    return meth(obj, **kw)
  File "/home/p_116749/projects/python/americana/idp/.venv/lib/python3.9/site-packages/sqlalchemy/sql/ddl.py", line 851, in visit_metadata
    self.traverse_single(
  File "/home/p_116749/projects/python/americana/idp/.venv/lib/python3.9/site-packages/sqlalchemy/sql/visitors.py", line 524, in traverse_single
    return meth(obj, **kw)
  File "/home/p_116749/projects/python/americana/idp/.venv/lib/python3.9/site-packages/sqlalchemy/sql/ddl.py", line 895, in visit_table
    self.connection.execute(
  File "/home/p_116749/projects/python/americana/idp/.venv/lib/python3.9/site-packages/sqlalchemy/future/engine.py", line 280, in execute
    return self._execute_20(
  File "/home/p_116749/projects/python/americana/idp/.venv/lib/python3.9/site-packages/sqlalchemy/engine/base.py", line 1631, in _execute_20
    return meth(self, args_10style, kwargs_10style, execution_options)
  File "/home/p_116749/projects/python/americana/idp/.venv/lib/python3.9/site-packages/sqlalchemy/sql/ddl.py", line 80, in _execute_on_connection
    return connection._execute_ddl(
  File "/home/p_116749/projects/python/americana/idp/.venv/lib/python3.9/site-packages/sqlalchemy/engine/base.py", line 1395, in _execute_ddl
    compiled = ddl.compile(
  File "/home/p_116749/projects/python/americana/idp/.venv/lib/python3.9/site-packages/sqlalchemy/sql/elements.py", line 501, in compile
    return self._compiler(dialect, **kw)
  File "/home/p_116749/projects/python/americana/idp/.venv/lib/python3.9/site-packages/sqlalchemy/sql/ddl.py", line 32, in _compiler
    return dialect.ddl_compiler(dialect, self, **kw)
  File "/home/p_116749/projects/python/americana/idp/.venv/lib/python3.9/site-packages/sqlalchemy/sql/compiler.py", line 451, in __init__
    self.string = self.process(self.statement, **compile_kwargs)
  File "/home/p_116749/projects/python/americana/idp/.venv/lib/python3.9/site-packages/sqlalchemy/sql/compiler.py", line 486, in process
    return obj._compiler_dispatch(self, **kwargs)
  File "/home/p_116749/projects/python/americana/idp/.venv/lib/python3.9/site-packages/sqlalchemy/sql/visitors.py", line 82, in _compiler_dispatch
    return meth(self, **kw)
  File "/home/p_116749/projects/python/americana/idp/.venv/lib/python3.9/site-packages/sqlalchemy/sql/compiler.py", line 4409, in visit_create_table
    util.raise_(
  File "/home/p_116749/projects/python/americana/idp/.venv/lib/python3.9/site-packages/sqlalchemy/util/compat.py", line 208, in raise_
    raise exception
sqlalchemy.exc.CompileError: (in table 'tbl_users', column 'roles'): Compiler <sqlalchemy.dialects.sqlite.base.SQLiteTypeCompiler object at 0x7fef117551c0> can't render element of type ARRAY

[2022-08-04T11:09:33:1659591573 IST+0530] ERROR [uvicorn.error.startup:58] Application startup failed. Exiting.
[2022-08-04T11:53:20:1659594200 IST+0530] INFO [root.__init_application:35] creating API service and Web Site
[2022-08-04T11:53:20:1659594200 IST+0530] INFO [root.__init_routes:25] initializing all routes
[2022-08-04T11:53:20:1659594200 IST+0530] INFO [uvicorn.error.serve:75] Started server process [29822]
[2022-08-04T11:53:20:1659594200 IST+0530] INFO [uvicorn.error.startup:47] Waiting for application startup.
[2022-08-04T11:53:20:1659594200 IST+0530] DEBUG [aiosqlite.run:101] executing <function connect.<locals>.connector at 0x7fcbba1f6c10>
[2022-08-04T11:53:20:1659594200 IST+0530] DEBUG [aiosqlite.run:103] operation <function connect.<locals>.connector at 0x7fcbba1f6c10> completed
[2022-08-04T11:53:20:1659594200 IST+0530] DEBUG [aiosqlite.run:101] executing functools.partial(<built-in method create_function of sqlite3.Connection object at 0x7fcbab67e300>, 'regexp', 2, <function SQLiteDialect_pysqlite.on_connect.<locals>.regexp at 0x7fcbb8593d30>, deterministic=False)
[2022-08-04T11:53:20:1659594200 IST+0530] DEBUG [aiosqlite.run:103] operation functools.partial(<built-in method create_function of sqlite3.Connection object at 0x7fcbab67e300>, 'regexp', 2, <function SQLiteDialect_pysqlite.on_connect.<locals>.regexp at 0x7fcbb8593d30>, deterministic=False) completed
[2022-08-04T11:53:20:1659594200 IST+0530] DEBUG [aiosqlite.run:101] executing functools.partial(<built-in method cursor of sqlite3.Connection object at 0x7fcbab67e300>)
[2022-08-04T11:53:20:1659594200 IST+0530] DEBUG [aiosqlite.run:103] operation functools.partial(<built-in method cursor of sqlite3.Connection object at 0x7fcbab67e300>) completed
[2022-08-04T11:53:20:1659594200 IST+0530] DEBUG [aiosqlite.run:101] executing functools.partial(<built-in method execute of sqlite3.Cursor object at 0x7fcbab6d02d0>, 'PRAGMA read_uncommitted', [])
[2022-08-04T11:53:20:1659594200 IST+0530] DEBUG [aiosqlite.run:103] operation functools.partial(<built-in method execute of sqlite3.Cursor object at 0x7fcbab6d02d0>, 'PRAGMA read_uncommitted', []) completed
[2022-08-04T11:53:20:1659594200 IST+0530] DEBUG [aiosqlite.run:101] executing functools.partial(<built-in method fetchall of sqlite3.Cursor object at 0x7fcbab6d02d0>)
[2022-08-04T11:53:20:1659594200 IST+0530] DEBUG [aiosqlite.run:103] operation functools.partial(<built-in method fetchall of sqlite3.Cursor object at 0x7fcbab6d02d0>) completed
[2022-08-04T11:53:20:1659594200 IST+0530] DEBUG [aiosqlite.run:101] executing functools.partial(<built-in method close of sqlite3.Cursor object at 0x7fcbab6d02d0>)
[2022-08-04T11:53:20:1659594200 IST+0530] DEBUG [aiosqlite.run:103] operation functools.partial(<built-in method close of sqlite3.Cursor object at 0x7fcbab6d02d0>) completed
[2022-08-04T11:53:20:1659594200 IST+0530] DEBUG [aiosqlite.run:101] executing functools.partial(<built-in method rollback of sqlite3.Connection object at 0x7fcbab67e300>)
[2022-08-04T11:53:20:1659594200 IST+0530] DEBUG [aiosqlite.run:103] operation functools.partial(<built-in method rollback of sqlite3.Connection object at 0x7fcbab67e300>) completed
[2022-08-04T11:53:20:1659594200 IST+0530] DEBUG [aiosqlite.run:101] executing functools.partial(<built-in method cursor of sqlite3.Connection object at 0x7fcbab67e300>)
[2022-08-04T11:53:20:1659594200 IST+0530] DEBUG [aiosqlite.run:103] operation functools.partial(<built-in method cursor of sqlite3.Connection object at 0x7fcbab67e300>) completed
[2022-08-04T11:53:20:1659594200 IST+0530] DEBUG [aiosqlite.run:101] executing functools.partial(<built-in method execute of sqlite3.Cursor object at 0x7fcbab6d0420>, 'PRAGMA main.table_info("tbl_users")', ())
[2022-08-04T11:53:20:1659594200 IST+0530] DEBUG [aiosqlite.run:103] operation functools.partial(<built-in method execute of sqlite3.Cursor object at 0x7fcbab6d0420>, 'PRAGMA main.table_info("tbl_users")', ()) completed
[2022-08-04T11:53:20:1659594200 IST+0530] DEBUG [aiosqlite.run:101] executing functools.partial(<built-in method fetchall of sqlite3.Cursor object at 0x7fcbab6d0420>)
[2022-08-04T11:53:20:1659594200 IST+0530] DEBUG [aiosqlite.run:103] operation functools.partial(<built-in method fetchall of sqlite3.Cursor object at 0x7fcbab6d0420>) completed
[2022-08-04T11:53:20:1659594200 IST+0530] DEBUG [aiosqlite.run:101] executing functools.partial(<built-in method close of sqlite3.Cursor object at 0x7fcbab6d0420>)
[2022-08-04T11:53:20:1659594200 IST+0530] DEBUG [aiosqlite.run:103] operation functools.partial(<built-in method close of sqlite3.Cursor object at 0x7fcbab6d0420>) completed
[2022-08-04T11:53:20:1659594200 IST+0530] DEBUG [aiosqlite.run:101] executing functools.partial(<built-in method cursor of sqlite3.Connection object at 0x7fcbab67e300>)
[2022-08-04T11:53:20:1659594200 IST+0530] DEBUG [aiosqlite.run:103] operation functools.partial(<built-in method cursor of sqlite3.Connection object at 0x7fcbab67e300>) completed
[2022-08-04T11:53:20:1659594200 IST+0530] DEBUG [aiosqlite.run:101] executing functools.partial(<built-in method execute of sqlite3.Cursor object at 0x7fcbab6d0420>, 'PRAGMA temp.table_info("tbl_users")', ())
[2022-08-04T11:53:20:1659594200 IST+0530] DEBUG [aiosqlite.run:103] operation functools.partial(<built-in method execute of sqlite3.Cursor object at 0x7fcbab6d0420>, 'PRAGMA temp.table_info("tbl_users")', ()) completed
[2022-08-04T11:53:20:1659594200 IST+0530] DEBUG [aiosqlite.run:101] executing functools.partial(<built-in method fetchall of sqlite3.Cursor object at 0x7fcbab6d0420>)
[2022-08-04T11:53:20:1659594200 IST+0530] DEBUG [aiosqlite.run:103] operation functools.partial(<built-in method fetchall of sqlite3.Cursor object at 0x7fcbab6d0420>) completed
[2022-08-04T11:53:20:1659594200 IST+0530] DEBUG [aiosqlite.run:101] executing functools.partial(<built-in method close of sqlite3.Cursor object at 0x7fcbab6d0420>)
[2022-08-04T11:53:20:1659594200 IST+0530] DEBUG [aiosqlite.run:103] operation functools.partial(<built-in method close of sqlite3.Cursor object at 0x7fcbab6d0420>) completed
[2022-08-04T11:53:20:1659594200 IST+0530] DEBUG [aiosqlite.run:101] executing functools.partial(<built-in method cursor of sqlite3.Connection object at 0x7fcbab67e300>)
[2022-08-04T11:53:20:1659594200 IST+0530] DEBUG [aiosqlite.run:103] operation functools.partial(<built-in method cursor of sqlite3.Connection object at 0x7fcbab67e300>) completed
[2022-08-04T11:53:20:1659594200 IST+0530] DEBUG [aiosqlite.run:101] executing functools.partial(<built-in method execute of sqlite3.Cursor object at 0x7fcbab6d0420>, 'PRAGMA main.table_info("tbl_userlog")', ())
[2022-08-04T11:53:20:1659594200 IST+0530] DEBUG [aiosqlite.run:103] operation functools.partial(<built-in method execute of sqlite3.Cursor object at 0x7fcbab6d0420>, 'PRAGMA main.table_info("tbl_userlog")', ()) completed
[2022-08-04T11:53:20:1659594200 IST+0530] DEBUG [aiosqlite.run:101] executing functools.partial(<built-in method fetchall of sqlite3.Cursor object at 0x7fcbab6d0420>)
[2022-08-04T11:53:20:1659594200 IST+0530] DEBUG [aiosqlite.run:103] operation functools.partial(<built-in method fetchall of sqlite3.Cursor object at 0x7fcbab6d0420>) completed
[2022-08-04T11:53:20:1659594200 IST+0530] DEBUG [aiosqlite.run:101] executing functools.partial(<built-in method close of sqlite3.Cursor object at 0x7fcbab6d0420>)
[2022-08-04T11:53:20:1659594200 IST+0530] DEBUG [aiosqlite.run:103] operation functools.partial(<built-in method close of sqlite3.Cursor object at 0x7fcbab6d0420>) completed
[2022-08-04T11:53:20:1659594200 IST+0530] DEBUG [aiosqlite.run:101] executing functools.partial(<built-in method cursor of sqlite3.Connection object at 0x7fcbab67e300>)
[2022-08-04T11:53:20:1659594200 IST+0530] DEBUG [aiosqlite.run:103] operation functools.partial(<built-in method cursor of sqlite3.Connection object at 0x7fcbab67e300>) completed
[2022-08-04T11:53:20:1659594200 IST+0530] DEBUG [aiosqlite.run:101] executing functools.partial(<built-in method execute of sqlite3.Cursor object at 0x7fcbab6d0420>, 'PRAGMA temp.table_info("tbl_userlog")', ())
[2022-08-04T11:53:20:1659594200 IST+0530] DEBUG [aiosqlite.run:103] operation functools.partial(<built-in method execute of sqlite3.Cursor object at 0x7fcbab6d0420>, 'PRAGMA temp.table_info("tbl_userlog")', ()) completed
[2022-08-04T11:53:20:1659594200 IST+0530] DEBUG [aiosqlite.run:101] executing functools.partial(<built-in method fetchall of sqlite3.Cursor object at 0x7fcbab6d0420>)
[2022-08-04T11:53:20:1659594200 IST+0530] DEBUG [aiosqlite.run:103] operation functools.partial(<built-in method fetchall of sqlite3.Cursor object at 0x7fcbab6d0420>) completed
[2022-08-04T11:53:20:1659594200 IST+0530] DEBUG [aiosqlite.run:101] executing functools.partial(<built-in method close of sqlite3.Cursor object at 0x7fcbab6d0420>)
[2022-08-04T11:53:20:1659594200 IST+0530] DEBUG [aiosqlite.run:103] operation functools.partial(<built-in method close of sqlite3.Cursor object at 0x7fcbab6d0420>) completed
[2022-08-04T11:53:20:1659594200 IST+0530] DEBUG [aiosqlite.run:101] executing functools.partial(<built-in method cursor of sqlite3.Connection object at 0x7fcbab67e300>)
[2022-08-04T11:53:20:1659594200 IST+0530] DEBUG [aiosqlite.run:103] operation functools.partial(<built-in method cursor of sqlite3.Connection object at 0x7fcbab67e300>) completed
[2022-08-04T11:53:20:1659594200 IST+0530] DEBUG [aiosqlite.run:101] executing functools.partial(<built-in method execute of sqlite3.Cursor object at 0x7fcbab6d0420>, 'PRAGMA main.table_info("tbl_invalid_tokens")', ())
[2022-08-04T11:53:20:1659594200 IST+0530] DEBUG [aiosqlite.run:103] operation functools.partial(<built-in method execute of sqlite3.Cursor object at 0x7fcbab6d0420>, 'PRAGMA main.table_info("tbl_invalid_tokens")', ()) completed
[2022-08-04T11:53:20:1659594200 IST+0530] DEBUG [aiosqlite.run:101] executing functools.partial(<built-in method fetchall of sqlite3.Cursor object at 0x7fcbab6d0420>)
[2022-08-04T11:53:20:1659594200 IST+0530] DEBUG [aiosqlite.run:103] operation functools.partial(<built-in method fetchall of sqlite3.Cursor object at 0x7fcbab6d0420>) completed
[2022-08-04T11:53:20:1659594200 IST+0530] DEBUG [aiosqlite.run:101] executing functools.partial(<built-in method close of sqlite3.Cursor object at 0x7fcbab6d0420>)
[2022-08-04T11:53:20:1659594200 IST+0530] DEBUG [aiosqlite.run:103] operation functools.partial(<built-in method close of sqlite3.Cursor object at 0x7fcbab6d0420>) completed
[2022-08-04T11:53:20:1659594200 IST+0530] DEBUG [aiosqlite.run:101] executing functools.partial(<built-in method cursor of sqlite3.Connection object at 0x7fcbab67e300>)
[2022-08-04T11:53:20:1659594200 IST+0530] DEBUG [aiosqlite.run:103] operation functools.partial(<built-in method cursor of sqlite3.Connection object at 0x7fcbab67e300>) completed
[2022-08-04T11:53:20:1659594200 IST+0530] DEBUG [aiosqlite.run:101] executing functools.partial(<built-in method execute of sqlite3.Cursor object at 0x7fcbab6d0420>, 'PRAGMA temp.table_info("tbl_invalid_tokens")', ())
[2022-08-04T11:53:20:1659594200 IST+0530] DEBUG [aiosqlite.run:103] operation functools.partial(<built-in method execute of sqlite3.Cursor object at 0x7fcbab6d0420>, 'PRAGMA temp.table_info("tbl_invalid_tokens")', ()) completed
[2022-08-04T11:53:20:1659594200 IST+0530] DEBUG [aiosqlite.run:101] executing functools.partial(<built-in method fetchall of sqlite3.Cursor object at 0x7fcbab6d0420>)
[2022-08-04T11:53:20:1659594200 IST+0530] DEBUG [aiosqlite.run:103] operation functools.partial(<built-in method fetchall of sqlite3.Cursor object at 0x7fcbab6d0420>) completed
[2022-08-04T11:53:20:1659594200 IST+0530] DEBUG [aiosqlite.run:101] executing functools.partial(<built-in method close of sqlite3.Cursor object at 0x7fcbab6d0420>)
[2022-08-04T11:53:20:1659594200 IST+0530] DEBUG [aiosqlite.run:103] operation functools.partial(<built-in method close of sqlite3.Cursor object at 0x7fcbab6d0420>) completed
[2022-08-04T11:53:20:1659594200 IST+0530] DEBUG [aiosqlite.run:101] executing functools.partial(<built-in method cursor of sqlite3.Connection object at 0x7fcbab67e300>)
[2022-08-04T11:53:20:1659594200 IST+0530] DEBUG [aiosqlite.run:103] operation functools.partial(<built-in method cursor of sqlite3.Connection object at 0x7fcbab67e300>) completed
[2022-08-04T11:53:20:1659594200 IST+0530] DEBUG [aiosqlite.run:101] executing functools.partial(<built-in method execute of sqlite3.Cursor object at 0x7fcbab6d0420>, '\nCREATE TABLE tbl_users (\n\tlogin_name VARCHAR NOT NULL, \n\thashed_password VARCHAR NOT NULL, \n\troles BLOB NOT NULL, \n\tis_active BOOLEAN NOT NULL, \n\tPRIMARY KEY (login_name)\n)\n\n', ())
[2022-08-04T11:53:20:1659594200 IST+0530] DEBUG [aiosqlite.run:103] operation functools.partial(<built-in method execute of sqlite3.Cursor object at 0x7fcbab6d0420>, '\nCREATE TABLE tbl_users (\n\tlogin_name VARCHAR NOT NULL, \n\thashed_password VARCHAR NOT NULL, \n\troles BLOB NOT NULL, \n\tis_active BOOLEAN NOT NULL, \n\tPRIMARY KEY (login_name)\n)\n\n', ()) completed
[2022-08-04T11:53:20:1659594200 IST+0530] DEBUG [aiosqlite.run:101] executing functools.partial(<built-in method close of sqlite3.Cursor object at 0x7fcbab6d0420>)
[2022-08-04T11:53:20:1659594200 IST+0530] DEBUG [aiosqlite.run:103] operation functools.partial(<built-in method close of sqlite3.Cursor object at 0x7fcbab6d0420>) completed
[2022-08-04T11:53:20:1659594200 IST+0530] DEBUG [aiosqlite.run:101] executing functools.partial(<built-in method cursor of sqlite3.Connection object at 0x7fcbab67e300>)
[2022-08-04T11:53:20:1659594200 IST+0530] DEBUG [aiosqlite.run:103] operation functools.partial(<built-in method cursor of sqlite3.Connection object at 0x7fcbab67e300>) completed
[2022-08-04T11:53:20:1659594200 IST+0530] DEBUG [aiosqlite.run:101] executing functools.partial(<built-in method execute of sqlite3.Cursor object at 0x7fcbab6d0420>, '\nCREATE TABLE tbl_userlog (\n\tlogin_name VARCHAR NOT NULL, \n\tlog_datetime DATETIME NOT NULL, \n\tlog_payload JSON NOT NULL, \n\tPRIMARY KEY (login_name, log_datetime)\n)\n\n', ())
[2022-08-04T11:53:20:1659594200 IST+0530] DEBUG [aiosqlite.run:103] operation functools.partial(<built-in method execute of sqlite3.Cursor object at 0x7fcbab6d0420>, '\nCREATE TABLE tbl_userlog (\n\tlogin_name VARCHAR NOT NULL, \n\tlog_datetime DATETIME NOT NULL, \n\tlog_payload JSON NOT NULL, \n\tPRIMARY KEY (login_name, log_datetime)\n)\n\n', ()) completed
[2022-08-04T11:53:20:1659594200 IST+0530] DEBUG [aiosqlite.run:101] executing functools.partial(<built-in method close of sqlite3.Cursor object at 0x7fcbab6d0420>)
[2022-08-04T11:53:20:1659594200 IST+0530] DEBUG [aiosqlite.run:103] operation functools.partial(<built-in method close of sqlite3.Cursor object at 0x7fcbab6d0420>) completed
[2022-08-04T11:53:20:1659594200 IST+0530] DEBUG [aiosqlite.run:101] executing functools.partial(<built-in method cursor of sqlite3.Connection object at 0x7fcbab67e300>)
[2022-08-04T11:53:20:1659594200 IST+0530] DEBUG [aiosqlite.run:103] operation functools.partial(<built-in method cursor of sqlite3.Connection object at 0x7fcbab67e300>) completed
[2022-08-04T11:53:20:1659594200 IST+0530] DEBUG [aiosqlite.run:101] executing functools.partial(<built-in method execute of sqlite3.Cursor object at 0x7fcbab6d0420>, '\nCREATE TABLE tbl_invalid_tokens (\n\ttoken VARCHAR NOT NULL, \n\ttoken_logout_datetime DATETIME NOT NULL, \n\ttoken_logout_source VARCHAR NOT NULL, \n\tPRIMARY KEY (token)\n)\n\n', ())
[2022-08-04T11:53:20:1659594200 IST+0530] DEBUG [aiosqlite.run:103] operation functools.partial(<built-in method execute of sqlite3.Cursor object at 0x7fcbab6d0420>, '\nCREATE TABLE tbl_invalid_tokens (\n\ttoken VARCHAR NOT NULL, \n\ttoken_logout_datetime DATETIME NOT NULL, \n\ttoken_logout_source VARCHAR NOT NULL, \n\tPRIMARY KEY (token)\n)\n\n', ()) completed
[2022-08-04T11:53:20:1659594200 IST+0530] DEBUG [aiosqlite.run:101] executing functools.partial(<built-in method close of sqlite3.Cursor object at 0x7fcbab6d0420>)
[2022-08-04T11:53:20:1659594200 IST+0530] DEBUG [aiosqlite.run:103] operation functools.partial(<built-in method close of sqlite3.Cursor object at 0x7fcbab6d0420>) completed
[2022-08-04T11:53:20:1659594200 IST+0530] DEBUG [aiosqlite.run:101] executing functools.partial(<built-in method commit of sqlite3.Connection object at 0x7fcbab67e300>)
[2022-08-04T11:53:20:1659594200 IST+0530] DEBUG [aiosqlite.run:103] operation functools.partial(<built-in method commit of sqlite3.Connection object at 0x7fcbab67e300>) completed
[2022-08-04T11:53:20:1659594200 IST+0530] DEBUG [aiosqlite.run:101] executing functools.partial(<built-in method rollback of sqlite3.Connection object at 0x7fcbab67e300>)
[2022-08-04T11:53:20:1659594200 IST+0530] DEBUG [aiosqlite.run:103] operation functools.partial(<built-in method rollback of sqlite3.Connection object at 0x7fcbab67e300>) completed
[2022-08-04T11:53:20:1659594200 IST+0530] DEBUG [aiosqlite.run:101] executing functools.partial(<built-in method close of sqlite3.Connection object at 0x7fcbab67e300>)
[2022-08-04T11:53:20:1659594200 IST+0530] DEBUG [aiosqlite.run:103] operation functools.partial(<built-in method close of sqlite3.Connection object at 0x7fcbab67e300>) completed
[2022-08-04T11:53:20:1659594200 IST+0530] INFO [uvicorn.error.startup:61] Application startup complete.
[2022-08-04T11:53:20:1659594200 IST+0530] INFO [uvicorn.error._log_started_message:207] Uvicorn running on http://127.0.0.1:9091 (Press CTRL+C to quit)
[2022-08-04T11:56:29:1659594389 IST+0530] DEBUG [passlib.handlers.bcrypt._load_backend_mixin:625] detected 'bcrypt' backend, version '3.2.2'
[2022-08-04T11:56:29:1659594389 IST+0530] DEBUG [passlib.handlers.bcrypt._finalize_backend_mixin:406] 'bcrypt' backend lacks $2$ support, enabling workaround
[2022-08-04T11:56:29:1659594389 IST+0530] DEBUG [aiosqlite.run:101] executing <function connect.<locals>.connector at 0x7fcbaad95f70>
[2022-08-04T11:56:29:1659594389 IST+0530] DEBUG [aiosqlite.run:103] operation <function connect.<locals>.connector at 0x7fcbaad95f70> completed
[2022-08-04T11:56:29:1659594389 IST+0530] DEBUG [aiosqlite.run:101] executing functools.partial(<built-in method create_function of sqlite3.Connection object at 0x7fcbaade84e0>, 'regexp', 2, <function SQLiteDialect_pysqlite.on_connect.<locals>.regexp at 0x7fcbb8593d30>, deterministic=False)
[2022-08-04T11:56:29:1659594389 IST+0530] DEBUG [aiosqlite.run:103] operation functools.partial(<built-in method create_function of sqlite3.Connection object at 0x7fcbaade84e0>, 'regexp', 2, <function SQLiteDialect_pysqlite.on_connect.<locals>.regexp at 0x7fcbb8593d30>, deterministic=False) completed
[2022-08-04T11:56:29:1659594389 IST+0530] DEBUG [aiosqlite.run:101] executing functools.partial(<built-in method cursor of sqlite3.Connection object at 0x7fcbaade84e0>)
[2022-08-04T11:56:29:1659594389 IST+0530] DEBUG [aiosqlite.run:103] operation functools.partial(<built-in method cursor of sqlite3.Connection object at 0x7fcbaade84e0>) completed
[2022-08-04T11:56:29:1659594389 IST+0530] DEBUG [aiosqlite.run:101] executing functools.partial(<built-in method execute of sqlite3.Cursor object at 0x7fcbaad05570>, 'INSERT INTO tbl_userlog (login_name, log_datetime, log_payload) VALUES (?, ?, ?)', ('driver1', '2022-08-04 11:56:29.742751', '{"event": "new registration"}'))
[2022-08-04T11:56:29:1659594389 IST+0530] DEBUG [aiosqlite.run:103] operation functools.partial(<built-in method execute of sqlite3.Cursor object at 0x7fcbaad05570>, 'INSERT INTO tbl_userlog (login_name, log_datetime, log_payload) VALUES (?, ?, ?)', ('driver1', '2022-08-04 11:56:29.742751', '{"event": "new registration"}')) completed
[2022-08-04T11:56:29:1659594389 IST+0530] DEBUG [aiosqlite.run:101] executing functools.partial(<built-in method close of sqlite3.Cursor object at 0x7fcbaad05570>)
[2022-08-04T11:56:29:1659594389 IST+0530] DEBUG [aiosqlite.run:103] operation functools.partial(<built-in method close of sqlite3.Cursor object at 0x7fcbaad05570>) completed
[2022-08-04T11:56:29:1659594389 IST+0530] DEBUG [aiosqlite.run:101] executing functools.partial(<built-in method cursor of sqlite3.Connection object at 0x7fcbaade84e0>)
[2022-08-04T11:56:29:1659594389 IST+0530] DEBUG [aiosqlite.run:103] operation functools.partial(<built-in method cursor of sqlite3.Connection object at 0x7fcbaade84e0>) completed
[2022-08-04T11:56:29:1659594389 IST+0530] DEBUG [aiosqlite.run:101] executing functools.partial(<built-in method execute of sqlite3.Cursor object at 0x7fcbaad05570>, 'INSERT INTO tbl_users (login_name, hashed_password, roles, is_active) VALUES (?, ?, ?, ?)', ('driver1', '$2b$12$cOKB3MMJb8N5cXKnieW3h.SAyysEDCOWheSe1VNeBReadSZ5hXtGC', <memory at 0x7fcbaad2a040>, 1))
[2022-08-04T11:56:29:1659594389 IST+0530] DEBUG [aiosqlite.run:103] operation functools.partial(<built-in method execute of sqlite3.Cursor object at 0x7fcbaad05570>, 'INSERT INTO tbl_users (login_name, hashed_password, roles, is_active) VALUES (?, ?, ?, ?)', ('driver1', '$2b$12$cOKB3MMJb8N5cXKnieW3h.SAyysEDCOWheSe1VNeBReadSZ5hXtGC', <memory at 0x7fcbaad2a040>, 1)) completed
[2022-08-04T11:56:29:1659594389 IST+0530] DEBUG [aiosqlite.run:101] executing functools.partial(<built-in method close of sqlite3.Cursor object at 0x7fcbaad05570>)
[2022-08-04T11:56:29:1659594389 IST+0530] DEBUG [aiosqlite.run:103] operation functools.partial(<built-in method close of sqlite3.Cursor object at 0x7fcbaad05570>) completed
[2022-08-04T11:56:29:1659594389 IST+0530] DEBUG [aiosqlite.run:101] executing functools.partial(<built-in method commit of sqlite3.Connection object at 0x7fcbaade84e0>)
[2022-08-04T11:56:29:1659594389 IST+0530] DEBUG [aiosqlite.run:103] operation functools.partial(<built-in method commit of sqlite3.Connection object at 0x7fcbaade84e0>) completed
[2022-08-04T11:56:29:1659594389 IST+0530] DEBUG [aiosqlite.run:101] executing functools.partial(<built-in method rollback of sqlite3.Connection object at 0x7fcbaade84e0>)
[2022-08-04T11:56:29:1659594389 IST+0530] DEBUG [aiosqlite.run:103] operation functools.partial(<built-in method rollback of sqlite3.Connection object at 0x7fcbaade84e0>) completed
[2022-08-04T11:56:29:1659594389 IST+0530] DEBUG [aiosqlite.run:101] executing functools.partial(<built-in method close of sqlite3.Connection object at 0x7fcbaade84e0>)
[2022-08-04T11:56:29:1659594389 IST+0530] DEBUG [aiosqlite.run:103] operation functools.partial(<built-in method close of sqlite3.Connection object at 0x7fcbaade84e0>) completed
[2022-08-04T11:58:20:1659594500 IST+0530] DEBUG [multipart.multipart.callback:604] Calling on_field_start with no data
[2022-08-04T11:58:20:1659594500 IST+0530] DEBUG [multipart.multipart.callback:601] Calling on_field_name with data[0:10]
[2022-08-04T11:58:20:1659594500 IST+0530] DEBUG [multipart.multipart.callback:601] Calling on_field_data with data[11:19]
[2022-08-04T11:58:20:1659594500 IST+0530] DEBUG [multipart.multipart.callback:604] Calling on_field_end with no data
[2022-08-04T11:58:20:1659594500 IST+0530] DEBUG [multipart.multipart.callback:604] Calling on_field_start with no data
[2022-08-04T11:58:20:1659594500 IST+0530] DEBUG [multipart.multipart.callback:601] Calling on_field_name with data[20:28]
[2022-08-04T11:58:20:1659594500 IST+0530] DEBUG [multipart.multipart.callback:601] Calling on_field_data with data[29:36]
[2022-08-04T11:58:20:1659594500 IST+0530] DEBUG [multipart.multipart.callback:604] Calling on_field_end with no data
[2022-08-04T11:58:20:1659594500 IST+0530] DEBUG [multipart.multipart.callback:604] Calling on_field_start with no data
[2022-08-04T11:58:20:1659594500 IST+0530] DEBUG [multipart.multipart.callback:601] Calling on_field_name with data[37:45]
[2022-08-04T11:58:20:1659594500 IST+0530] DEBUG [multipart.multipart.callback:601] Calling on_field_data with data[46:58]
[2022-08-04T11:58:20:1659594500 IST+0530] DEBUG [multipart.multipart.callback:604] Calling on_field_end with no data
[2022-08-04T11:58:20:1659594500 IST+0530] DEBUG [multipart.multipart.callback:604] Calling on_field_start with no data
[2022-08-04T11:58:20:1659594500 IST+0530] DEBUG [multipart.multipart.callback:601] Calling on_field_name with data[59:67]
[2022-08-04T11:58:20:1659594500 IST+0530] DEBUG [multipart.multipart.callback:601] Calling on_field_data with data[68:83]
[2022-08-04T11:58:20:1659594500 IST+0530] DEBUG [multipart.multipart.callback:604] Calling on_field_end with no data
[2022-08-04T11:58:20:1659594500 IST+0530] DEBUG [multipart.multipart.callback:604] Calling on_field_start with no data
[2022-08-04T11:58:20:1659594500 IST+0530] DEBUG [multipart.multipart.callback:601] Calling on_field_name with data[84:93]
[2022-08-04T11:58:20:1659594500 IST+0530] DEBUG [multipart.multipart.callback:604] Calling on_field_end with no data
[2022-08-04T11:58:20:1659594500 IST+0530] DEBUG [multipart.multipart.callback:604] Calling on_field_start with no data
[2022-08-04T11:58:20:1659594500 IST+0530] DEBUG [multipart.multipart.callback:601] Calling on_field_name with data[95:108]
[2022-08-04T11:58:20:1659594500 IST+0530] DEBUG [multipart.multipart.callback:604] Calling on_field_end with no data
[2022-08-04T11:58:20:1659594500 IST+0530] DEBUG [multipart.multipart.callback:604] Calling on_end with no data
[2022-08-04T11:58:20:1659594500 IST+0530] DEBUG [aiosqlite.run:101] executing <function connect.<locals>.connector at 0x7fcbaad1a280>
[2022-08-04T11:58:20:1659594500 IST+0530] DEBUG [aiosqlite.run:103] operation <function connect.<locals>.connector at 0x7fcbaad1a280> completed
[2022-08-04T11:58:20:1659594500 IST+0530] DEBUG [aiosqlite.run:101] executing functools.partial(<built-in method create_function of sqlite3.Connection object at 0x7fcbaade84e0>, 'regexp', 2, <function SQLiteDialect_pysqlite.on_connect.<locals>.regexp at 0x7fcbb8593d30>, deterministic=False)
[2022-08-04T11:58:20:1659594500 IST+0530] DEBUG [aiosqlite.run:103] operation functools.partial(<built-in method create_function of sqlite3.Connection object at 0x7fcbaade84e0>, 'regexp', 2, <function SQLiteDialect_pysqlite.on_connect.<locals>.regexp at 0x7fcbb8593d30>, deterministic=False) completed
[2022-08-04T11:58:20:1659594500 IST+0530] DEBUG [aiosqlite.run:101] executing functools.partial(<built-in method cursor of sqlite3.Connection object at 0x7fcbaade84e0>)
[2022-08-04T11:58:20:1659594500 IST+0530] DEBUG [aiosqlite.run:103] operation functools.partial(<built-in method cursor of sqlite3.Connection object at 0x7fcbaade84e0>) completed
[2022-08-04T11:58:20:1659594500 IST+0530] DEBUG [aiosqlite.run:101] executing functools.partial(<built-in method execute of sqlite3.Cursor object at 0x7fcbaad85dc0>, 'SELECT tbl_users.login_name, tbl_users.hashed_password, tbl_users.roles, tbl_users.is_active \nFROM tbl_users \nWHERE tbl_users.login_name = ?', ('driver1',))
[2022-08-04T11:58:20:1659594500 IST+0530] DEBUG [aiosqlite.run:103] operation functools.partial(<built-in method execute of sqlite3.Cursor object at 0x7fcbaad85dc0>, 'SELECT tbl_users.login_name, tbl_users.hashed_password, tbl_users.roles, tbl_users.is_active \nFROM tbl_users \nWHERE tbl_users.login_name = ?', ('driver1',)) completed
[2022-08-04T11:58:20:1659594500 IST+0530] DEBUG [aiosqlite.run:101] executing functools.partial(<built-in method fetchall of sqlite3.Cursor object at 0x7fcbaad85dc0>)
[2022-08-04T11:58:20:1659594500 IST+0530] DEBUG [aiosqlite.run:103] operation functools.partial(<built-in method fetchall of sqlite3.Cursor object at 0x7fcbaad85dc0>) completed
[2022-08-04T11:58:20:1659594500 IST+0530] DEBUG [aiosqlite.run:101] executing functools.partial(<built-in method close of sqlite3.Cursor object at 0x7fcbaad85dc0>)
[2022-08-04T11:58:20:1659594500 IST+0530] DEBUG [aiosqlite.run:103] operation functools.partial(<built-in method close of sqlite3.Cursor object at 0x7fcbaad85dc0>) completed
[2022-08-04T11:58:20:1659594500 IST+0530] DEBUG [aiosqlite.run:101] executing functools.partial(<built-in method rollback of sqlite3.Connection object at 0x7fcbaade84e0>)
[2022-08-04T11:58:20:1659594500 IST+0530] DEBUG [aiosqlite.run:103] operation functools.partial(<built-in method rollback of sqlite3.Connection object at 0x7fcbaade84e0>) completed
[2022-08-04T11:58:20:1659594500 IST+0530] DEBUG [aiosqlite.run:101] executing functools.partial(<built-in method rollback of sqlite3.Connection object at 0x7fcbaade84e0>)
[2022-08-04T11:58:20:1659594500 IST+0530] DEBUG [aiosqlite.run:103] operation functools.partial(<built-in method rollback of sqlite3.Connection object at 0x7fcbaade84e0>) completed
[2022-08-04T11:58:20:1659594500 IST+0530] DEBUG [aiosqlite.run:101] executing functools.partial(<built-in method close of sqlite3.Connection object at 0x7fcbaade84e0>)
[2022-08-04T11:58:20:1659594500 IST+0530] DEBUG [aiosqlite.run:103] operation functools.partial(<built-in method close of sqlite3.Connection object at 0x7fcbaade84e0>) completed
[2022-08-04T11:59:37:1659594577 IST+0530] DEBUG [multipart.multipart.callback:604] Calling on_field_start with no data
[2022-08-04T11:59:37:1659594577 IST+0530] DEBUG [multipart.multipart.callback:601] Calling on_field_name with data[0:10]
[2022-08-04T11:59:37:1659594577 IST+0530] DEBUG [multipart.multipart.callback:601] Calling on_field_data with data[11:19]
[2022-08-04T11:59:37:1659594577 IST+0530] DEBUG [multipart.multipart.callback:604] Calling on_field_end with no data
[2022-08-04T11:59:37:1659594577 IST+0530] DEBUG [multipart.multipart.callback:604] Calling on_field_start with no data
[2022-08-04T11:59:37:1659594577 IST+0530] DEBUG [multipart.multipart.callback:601] Calling on_field_name with data[20:28]
[2022-08-04T11:59:37:1659594577 IST+0530] DEBUG [multipart.multipart.callback:601] Calling on_field_data with data[29:36]
[2022-08-04T11:59:37:1659594577 IST+0530] DEBUG [multipart.multipart.callback:604] Calling on_field_end with no data
[2022-08-04T11:59:37:1659594577 IST+0530] DEBUG [multipart.multipart.callback:604] Calling on_field_start with no data
[2022-08-04T11:59:37:1659594577 IST+0530] DEBUG [multipart.multipart.callback:601] Calling on_field_name with data[37:45]
[2022-08-04T11:59:37:1659594577 IST+0530] DEBUG [multipart.multipart.callback:601] Calling on_field_data with data[46:53]
[2022-08-04T11:59:37:1659594577 IST+0530] DEBUG [multipart.multipart.callback:604] Calling on_field_end with no data
[2022-08-04T11:59:37:1659594577 IST+0530] DEBUG [multipart.multipart.callback:604] Calling on_field_start with no data
[2022-08-04T11:59:37:1659594577 IST+0530] DEBUG [multipart.multipart.callback:601] Calling on_field_name with data[54:62]
[2022-08-04T11:59:37:1659594577 IST+0530] DEBUG [multipart.multipart.callback:601] Calling on_field_data with data[63:73]
[2022-08-04T11:59:37:1659594577 IST+0530] DEBUG [multipart.multipart.callback:604] Calling on_field_end with no data
[2022-08-04T11:59:37:1659594577 IST+0530] DEBUG [multipart.multipart.callback:604] Calling on_field_start with no data
[2022-08-04T11:59:37:1659594577 IST+0530] DEBUG [multipart.multipart.callback:601] Calling on_field_name with data[74:83]
[2022-08-04T11:59:37:1659594577 IST+0530] DEBUG [multipart.multipart.callback:604] Calling on_field_end with no data
[2022-08-04T11:59:37:1659594577 IST+0530] DEBUG [multipart.multipart.callback:604] Calling on_field_start with no data
[2022-08-04T11:59:37:1659594577 IST+0530] DEBUG [multipart.multipart.callback:601] Calling on_field_name with data[85:98]
[2022-08-04T11:59:37:1659594577 IST+0530] DEBUG [multipart.multipart.callback:604] Calling on_field_end with no data
[2022-08-04T11:59:37:1659594577 IST+0530] DEBUG [multipart.multipart.callback:604] Calling on_end with no data
[2022-08-04T11:59:37:1659594577 IST+0530] DEBUG [aiosqlite.run:101] executing <function connect.<locals>.connector at 0x7fcbaa475310>
[2022-08-04T11:59:37:1659594577 IST+0530] DEBUG [aiosqlite.run:103] operation <function connect.<locals>.connector at 0x7fcbaa475310> completed
[2022-08-04T11:59:37:1659594577 IST+0530] DEBUG [aiosqlite.run:101] executing functools.partial(<built-in method create_function of sqlite3.Connection object at 0x7fcbaade84e0>, 'regexp', 2, <function SQLiteDialect_pysqlite.on_connect.<locals>.regexp at 0x7fcbb8593d30>, deterministic=False)
[2022-08-04T11:59:37:1659594577 IST+0530] DEBUG [aiosqlite.run:103] operation functools.partial(<built-in method create_function of sqlite3.Connection object at 0x7fcbaade84e0>, 'regexp', 2, <function SQLiteDialect_pysqlite.on_connect.<locals>.regexp at 0x7fcbb8593d30>, deterministic=False) completed
[2022-08-04T11:59:37:1659594577 IST+0530] DEBUG [aiosqlite.run:101] executing functools.partial(<built-in method cursor of sqlite3.Connection object at 0x7fcbaade84e0>)
[2022-08-04T11:59:37:1659594577 IST+0530] DEBUG [aiosqlite.run:103] operation functools.partial(<built-in method cursor of sqlite3.Connection object at 0x7fcbaade84e0>) completed
[2022-08-04T11:59:37:1659594577 IST+0530] DEBUG [aiosqlite.run:101] executing functools.partial(<built-in method execute of sqlite3.Cursor object at 0x7fcbaad05490>, 'SELECT tbl_users.login_name, tbl_users.hashed_password, tbl_users.roles, tbl_users.is_active \nFROM tbl_users \nWHERE tbl_users.login_name = ?', ('driver1',))
[2022-08-04T11:59:37:1659594577 IST+0530] DEBUG [aiosqlite.run:103] operation functools.partial(<built-in method execute of sqlite3.Cursor object at 0x7fcbaad05490>, 'SELECT tbl_users.login_name, tbl_users.hashed_password, tbl_users.roles, tbl_users.is_active \nFROM tbl_users \nWHERE tbl_users.login_name = ?', ('driver1',)) completed
[2022-08-04T11:59:37:1659594577 IST+0530] DEBUG [aiosqlite.run:101] executing functools.partial(<built-in method fetchall of sqlite3.Cursor object at 0x7fcbaad05490>)
[2022-08-04T11:59:37:1659594577 IST+0530] DEBUG [aiosqlite.run:103] operation functools.partial(<built-in method fetchall of sqlite3.Cursor object at 0x7fcbaad05490>) completed
[2022-08-04T11:59:37:1659594577 IST+0530] DEBUG [aiosqlite.run:101] executing functools.partial(<built-in method close of sqlite3.Cursor object at 0x7fcbaad05490>)
[2022-08-04T11:59:37:1659594577 IST+0530] DEBUG [aiosqlite.run:103] operation functools.partial(<built-in method close of sqlite3.Cursor object at 0x7fcbaad05490>) completed
[2022-08-04T11:59:37:1659594577 IST+0530] DEBUG [aiosqlite.run:101] executing functools.partial(<built-in method rollback of sqlite3.Connection object at 0x7fcbaade84e0>)
[2022-08-04T11:59:37:1659594577 IST+0530] DEBUG [aiosqlite.run:103] operation functools.partial(<built-in method rollback of sqlite3.Connection object at 0x7fcbaade84e0>) completed
[2022-08-04T11:59:37:1659594577 IST+0530] DEBUG [aiosqlite.run:101] executing functools.partial(<built-in method rollback of sqlite3.Connection object at 0x7fcbaade84e0>)
[2022-08-04T11:59:37:1659594577 IST+0530] DEBUG [aiosqlite.run:103] operation functools.partial(<built-in method rollback of sqlite3.Connection object at 0x7fcbaade84e0>) completed
[2022-08-04T11:59:37:1659594577 IST+0530] DEBUG [aiosqlite.run:101] executing functools.partial(<built-in method close of sqlite3.Connection object at 0x7fcbaade84e0>)
[2022-08-04T11:59:37:1659594577 IST+0530] DEBUG [aiosqlite.run:103] operation functools.partial(<built-in method close of sqlite3.Connection object at 0x7fcbaade84e0>) completed
[2022-08-04T12:01:34:1659594694 IST+0530] INFO [uvicorn.error.shutdown:253] Shutting down
[2022-08-04T12:01:34:1659594694 IST+0530] INFO [uvicorn.error.shutdown:66] Waiting for application shutdown.
[2022-08-04T12:01:34:1659594694 IST+0530] INFO [uvicorn.error.shutdown:77] Application shutdown complete.
[2022-08-04T12:01:34:1659594694 IST+0530] INFO [uvicorn.error.serve:85] Finished server process [29822]
[2022-08-04T12:01:45:1659594705 IST+0530] INFO [root.__init_application:35] creating API service and Web Site
[2022-08-04T12:01:45:1659594705 IST+0530] INFO [root.__init_routes:25] initializing all routes
[2022-08-04T12:01:45:1659594705 IST+0530] INFO [uvicorn.error.serve:75] Started server process [29921]
[2022-08-04T12:01:45:1659594705 IST+0530] INFO [uvicorn.error.startup:47] Waiting for application startup.
[2022-08-04T12:01:45:1659594705 IST+0530] DEBUG [aiosqlite.run:101] executing <function connect.<locals>.connector at 0x7f4be405cc10>
[2022-08-04T12:01:45:1659594705 IST+0530] DEBUG [aiosqlite.run:103] operation <function connect.<locals>.connector at 0x7f4be405cc10> completed
[2022-08-04T12:01:45:1659594705 IST+0530] DEBUG [aiosqlite.run:101] executing functools.partial(<built-in method create_function of sqlite3.Connection object at 0x7f4bc6d2a300>, 'regexp', 2, <function SQLiteDialect_pysqlite.on_connect.<locals>.regexp at 0x7f4bc7c363a0>, deterministic=False)
[2022-08-04T12:01:45:1659594705 IST+0530] DEBUG [aiosqlite.run:103] operation functools.partial(<built-in method create_function of sqlite3.Connection object at 0x7f4bc6d2a300>, 'regexp', 2, <function SQLiteDialect_pysqlite.on_connect.<locals>.regexp at 0x7f4bc7c363a0>, deterministic=False) completed
[2022-08-04T12:01:45:1659594705 IST+0530] DEBUG [aiosqlite.run:101] executing functools.partial(<built-in method cursor of sqlite3.Connection object at 0x7f4bc6d2a300>)
