[2022-08-03T07:37:02:1659492422 IST+0530] ERROR [uvicorn.error.send:134] Traceback (most recent call last):
  File "/home/p_116749/projects/python/americana/idp/.venv/lib/python3.9/site-packages/starlette/routing.py", line 638, in lifespan
    await receive()
  File "/home/p_116749/projects/python/americana/idp/.venv/lib/python3.9/site-packages/uvicorn/lifespan/on.py", line 137, in receive
    return await self.receive_queue.get()
  File "/usr/lib/python3.9/asyncio/queues.py", line 166, in get
    await getter
asyncio.exceptions.CancelledError

[2022-08-03T07:37:03:1659492423 IST+0530] INFO [root.__init_application:35] creating API service and Web Site
[2022-08-03T07:37:03:1659492423 IST+0530] INFO [root.__init_routes:25] initializing all routes
[2022-08-03T07:37:03:1659492423 IST+0530] DEBUG [asyncio.__init__:59] Using selector: EpollSelector
[2022-08-03T07:37:03:1659492423 IST+0530] INFO [root.__init_application:35] creating API service and Web Site
[2022-08-03T07:37:03:1659492423 IST+0530] INFO [root.__init_routes:25] initializing all routes
[2022-08-03T07:37:03:1659492423 IST+0530] INFO [uvicorn.error.serve:75] Started server process [5304]
[2022-08-03T07:37:03:1659492423 IST+0530] INFO [uvicorn.error.startup:47] Waiting for application startup.
[2022-08-03T07:37:04:1659492424 IST+0530] INFO [sqlalchemy.engine.Engine._execute_context:1772] select pg_catalog.version()
[2022-08-03T07:37:04:1659492424 IST+0530] INFO [sqlalchemy.engine.Engine._execute_context:1777] [raw sql] ()
[2022-08-03T07:37:04:1659492424 IST+0530] INFO [sqlalchemy.engine.Engine._execute_context:1772] select current_schema()
[2022-08-03T07:37:04:1659492424 IST+0530] INFO [sqlalchemy.engine.Engine._execute_context:1777] [raw sql] ()
[2022-08-03T07:37:05:1659492425 IST+0530] INFO [sqlalchemy.engine.Engine._execute_context:1772] show standard_conforming_strings
[2022-08-03T07:37:05:1659492425 IST+0530] INFO [sqlalchemy.engine.Engine._execute_context:1777] [raw sql] ()
[2022-08-03T07:37:05:1659492425 IST+0530] INFO [sqlalchemy.engine.Engine._begin_impl:953] BEGIN (implicit)
[2022-08-03T07:37:05:1659492425 IST+0530] INFO [sqlalchemy.engine.Engine._execute_context:1772] select relname from pg_class c join pg_namespace n on n.oid=c.relnamespace where pg_catalog.pg_table_is_visible(c.oid) and relname=%s
[2022-08-03T07:37:05:1659492425 IST+0530] INFO [sqlalchemy.engine.Engine._execute_context:1777] [generated in 0.00037s] ('tbl_users',)
[2022-08-03T07:37:05:1659492425 IST+0530] INFO [sqlalchemy.engine.Engine._execute_context:1772] select relname from pg_class c join pg_namespace n on n.oid=c.relnamespace where pg_catalog.pg_table_is_visible(c.oid) and relname=%s
[2022-08-03T07:37:05:1659492425 IST+0530] INFO [sqlalchemy.engine.Engine._execute_context:1777] [cached since 0.2282s ago] ('tbl_userlog',)
[2022-08-03T07:37:05:1659492425 IST+0530] INFO [sqlalchemy.engine.Engine._execute_context:1772] select relname from pg_class c join pg_namespace n on n.oid=c.relnamespace where pg_catalog.pg_table_is_visible(c.oid) and relname=%s
[2022-08-03T07:37:05:1659492425 IST+0530] INFO [sqlalchemy.engine.Engine._execute_context:1777] [cached since 0.284s ago] ('tbl_invalid_tokens',)
[2022-08-03T07:37:05:1659492425 IST+0530] INFO [sqlalchemy.engine.Engine._commit_impl:1013] COMMIT
[2022-08-03T07:37:05:1659492425 IST+0530] INFO [uvicorn.error.startup:61] Application startup complete.
[2022-08-03T07:37:13:1659492433 IST+0530] INFO [uvicorn.error.shutdown:253] Shutting down
[2022-08-03T07:37:13:1659492433 IST+0530] INFO [uvicorn.error.shutdown:66] Waiting for application shutdown.
[2022-08-03T07:37:13:1659492433 IST+0530] INFO [uvicorn.error.shutdown:77] Application shutdown complete.
[2022-08-03T07:37:13:1659492433 IST+0530] INFO [uvicorn.error.serve:85] Finished server process [5304]
