[2022-08-02T19:29:23:1659448763 IST+0530] DEBUG [multipart.multipart.callback:601] Calling on_field_name with data[0:10]
[2022-08-02T19:29:23:1659448763 IST+0530] DEBUG [multipart.multipart.callback:604] Calling on_field_end with no data
[2022-08-02T19:29:23:1659448763 IST+0530] DEBUG [multipart.multipart.callback:604] Calling on_field_start with no data
[2022-08-02T19:29:23:1659448763 IST+0530] DEBUG [multipart.multipart.callback:601] Calling on_field_name with data[12:20]
[2022-08-02T19:29:23:1659448763 IST+0530] DEBUG [multipart.multipart.callback:601] Calling on_field_data with data[21:28]
[2022-08-02T19:29:23:1659448763 IST+0530] DEBUG [multipart.multipart.callback:604] Calling on_field_end with no data
[2022-08-02T19:29:23:1659448763 IST+0530] DEBUG [multipart.multipart.callback:604] Calling on_field_start with no data
[2022-08-02T19:29:23:1659448763 IST+0530] DEBUG [multipart.multipart.callback:601] Calling on_field_name with data[29:37]
[2022-08-02T19:29:23:1659448763 IST+0530] DEBUG [multipart.multipart.callback:601] Calling on_field_data with data[38:45]
[2022-08-02T19:29:23:1659448763 IST+0530] DEBUG [multipart.multipart.callback:604] Calling on_field_end with no data
[2022-08-02T19:29:23:1659448763 IST+0530] DEBUG [multipart.multipart.callback:604] Calling on_field_start with no data
[2022-08-02T19:29:23:1659448763 IST+0530] DEBUG [multipart.multipart.callback:601] Calling on_field_name with data[46:51]
[2022-08-02T19:29:23:1659448763 IST+0530] DEBUG [multipart.multipart.callback:604] Calling on_field_end with no data
[2022-08-02T19:29:23:1659448763 IST+0530] DEBUG [multipart.multipart.callback:604] Calling on_field_start with no data
[2022-08-02T19:29:23:1659448763 IST+0530] DEBUG [multipart.multipart.callback:601] Calling on_field_name with data[53:62]
[2022-08-02T19:29:23:1659448763 IST+0530] DEBUG [multipart.multipart.callback:604] Calling on_field_end with no data
[2022-08-02T19:29:23:1659448763 IST+0530] DEBUG [multipart.multipart.callback:604] Calling on_field_start with no data
[2022-08-02T19:29:23:1659448763 IST+0530] DEBUG [multipart.multipart.callback:601] Calling on_field_name with data[64:77]
[2022-08-02T19:29:23:1659448763 IST+0530] DEBUG [multipart.multipart.callback:604] Calling on_field_end with no data
[2022-08-02T19:29:23:1659448763 IST+0530] DEBUG [multipart.multipart.callback:604] Calling on_end with no data
[2022-08-02T19:29:23:1659448763 IST+0530] INFO [sqlalchemy.engine.Engine._begin_impl:953] BEGIN (implicit)
[2022-08-02T19:29:23:1659448763 IST+0530] INFO [sqlalchemy.engine.Engine._execute_context:1772] SELECT tbl_users.login_name, tbl_users.hashed_password, tbl_users.roles, tbl_users.is_active 
FROM tbl_users 
WHERE tbl_users.login_name = %s
[2022-08-02T19:29:23:1659448763 IST+0530] INFO [sqlalchemy.engine.Engine._execute_context:1777] [cached since 84.02s ago] ('driver1',)
[2022-08-02T19:29:23:1659448763 IST+0530] CRITICAL [root.authenticate_user:31] EXCEPTION-auth_service:authenticate_user(): 'list' object has no attribute 'hashed_password'
[2022-08-02T19:29:23:1659448763 IST+0530] INFO [sqlalchemy.engine.Engine._rollback_impl:981] ROLLBACK
[2022-08-02T19:30:02:1659448802 IST+0530] DEBUG [multipart.multipart.callback:604] Calling on_field_start with no data
[2022-08-02T19:30:02:1659448802 IST+0530] DEBUG [multipart.multipart.callback:601] Calling on_field_name with data[0:10]
[2022-08-02T19:30:02:1659448802 IST+0530] DEBUG [multipart.multipart.callback:604] Calling on_field_end with no data
[2022-08-02T19:30:02:1659448802 IST+0530] DEBUG [multipart.multipart.callback:604] Calling on_field_start with no data
[2022-08-02T19:30:02:1659448802 IST+0530] DEBUG [multipart.multipart.callback:601] Calling on_field_name with data[12:20]
[2022-08-02T19:30:02:1659448802 IST+0530] DEBUG [multipart.multipart.callback:601] Calling on_field_data with data[21:28]
[2022-08-02T19:30:02:1659448802 IST+0530] DEBUG [multipart.multipart.callback:604] Calling on_field_end with no data
[2022-08-02T19:30:02:1659448802 IST+0530] DEBUG [multipart.multipart.callback:604] Calling on_field_start with no data
[2022-08-02T19:30:02:1659448802 IST+0530] DEBUG [multipart.multipart.callback:601] Calling on_field_name with data[29:37]
[2022-08-02T19:30:02:1659448802 IST+0530] DEBUG [multipart.multipart.callback:601] Calling on_field_data with data[38:45]
[2022-08-02T19:30:02:1659448802 IST+0530] DEBUG [multipart.multipart.callback:604] Calling on_field_end with no data
[2022-08-02T19:30:02:1659448802 IST+0530] DEBUG [multipart.multipart.callback:604] Calling on_field_start with no data
[2022-08-02T19:30:02:1659448802 IST+0530] DEBUG [multipart.multipart.callback:601] Calling on_field_name with data[46:51]
[2022-08-02T19:30:02:1659448802 IST+0530] DEBUG [multipart.multipart.callback:604] Calling on_field_end with no data
[2022-08-02T19:30:02:1659448802 IST+0530] DEBUG [multipart.multipart.callback:604] Calling on_field_start with no data
[2022-08-02T19:30:02:1659448802 IST+0530] DEBUG [multipart.multipart.callback:601] Calling on_field_name with data[53:62]
[2022-08-02T19:30:02:1659448802 IST+0530] DEBUG [multipart.multipart.callback:604] Calling on_field_end with no data
[2022-08-02T19:30:02:1659448802 IST+0530] DEBUG [multipart.multipart.callback:604] Calling on_field_start with no data
[2022-08-02T19:30:02:1659448802 IST+0530] DEBUG [multipart.multipart.callback:601] Calling on_field_name with data[64:77]
[2022-08-02T19:30:02:1659448802 IST+0530] DEBUG [multipart.multipart.callback:604] Calling on_field_end with no data
[2022-08-02T19:30:02:1659448802 IST+0530] DEBUG [multipart.multipart.callback:604] Calling on_end with no data
[2022-08-02T19:30:02:1659448802 IST+0530] INFO [sqlalchemy.engine.Engine._begin_impl:953] BEGIN (implicit)
[2022-08-02T19:30:02:1659448802 IST+0530] INFO [sqlalchemy.engine.Engine._execute_context:1772] SELECT tbl_users.login_name, tbl_users.hashed_password, tbl_users.roles, tbl_users.is_active 
FROM tbl_users 
WHERE tbl_users.login_name = %s
[2022-08-02T19:30:02:1659448802 IST+0530] INFO [sqlalchemy.engine.Engine._execute_context:1777] [cached since 123s ago] ('driver1',)
[2022-08-02T19:30:02:1659448802 IST+0530] CRITICAL [root.authenticate_user:31] EXCEPTION-auth_service:authenticate_user(): 'list' object has no attribute 'hashed_password'
[2022-08-02T19:30:02:1659448802 IST+0530] INFO [sqlalchemy.engine.Engine._rollback_impl:981] ROLLBACK
[2022-08-02T19:30:38:1659448838 IST+0530] INFO [uvicorn.error.shutdown:253] Shutting down
[2022-08-02T19:30:38:1659448838 IST+0530] INFO [uvicorn.error.shutdown:66] Waiting for application shutdown.
[2022-08-02T19:30:38:1659448838 IST+0530] INFO [uvicorn.error.shutdown:77] Application shutdown complete.
[2022-08-02T19:30:38:1659448838 IST+0530] INFO [uvicorn.error.serve:85] Finished server process [2454]
